Geometry file
Geometry file
node id assign
element id assign
coordinates
      65
 2.00000e+00 0.00000e+00 0.00000e+00
 2.00000e+00 1.09375e-02 0.00000e+00
 2.00000e+00 2.18750e-02 0.00000e+00
 2.00000e+00 3.28125e-02 0.00000e+00
 2.00000e+00 4.37500e-02 0.00000e+00
 2.00000e+00 5.46875e-02 0.00000e+00
 2.00000e+00 6.56250e-02 0.00000e+00
 2.00000e+00 7.65625e-02 0.00000e+00
 2.00000e+00 8.75000e-02 0.00000e+00
 2.00000e+00 9.84375e-02 0.00000e+00
 2.00000e+00 1.09375e-01 0.00000e+00
 2.00000e+00 1.20313e-01 0.00000e+00
 2.00000e+00 1.31250e-01 0.00000e+00
 2.00000e+00 1.42188e-01 0.00000e+00
 2.00000e+00 1.53125e-01 0.00000e+00
 2.00000e+00 1.64063e-01 0.00000e+00
 2.00000e+00 1.75000e-01 0.00000e+00
 2.00000e+00 1.85938e-01 0.00000e+00
 2.00000e+00 1.96875e-01 0.00000e+00
 2.00000e+00 2.07813e-01 0.00000e+00
 2.00000e+00 2.18750e-01 0.00000e+00
 2.00000e+00 2.29688e-01 0.00000e+00
 2.00000e+00 2.40625e-01 0.00000e+00
 2.00000e+00 2.51563e-01 0.00000e+00
 2.00000e+00 2.62500e-01 0.00000e+00
 2.00000e+00 2.73438e-01 0.00000e+00
 2.00000e+00 2.84375e-01 0.00000e+00
 2.00000e+00 2.95313e-01 0.00000e+00
 2.00000e+00 3.06250e-01 0.00000e+00
 2.00000e+00 3.17188e-01 0.00000e+00
 2.00000e+00 3.28125e-01 0.00000e+00
 2.00000e+00 3.39063e-01 0.00000e+00
 2.00000e+00 3.50000e-01 0.00000e+00
 2.00000e+00 3.60938e-01 0.00000e+00
 2.00000e+00 3.71875e-01 0.00000e+00
 2.00000e+00 3.82813e-01 0.00000e+00
 2.00000e+00 3.93750e-01 0.00000e+00
 2.00000e+00 4.04688e-01 0.00000e+00
 2.00000e+00 4.15625e-01 0.00000e+00
 2.00000e+00 4.26563e-01 0.00000e+00
 2.00000e+00 4.37500e-01 0.00000e+00
 2.00000e+00 4.48438e-01 0.00000e+00
 2.00000e+00 4.59375e-01 0.00000e+00
 2.00000e+00 4.70313e-01 0.00000e+00
 2.00000e+00 4.81250e-01 0.00000e+00
 2.00000e+00 4.92188e-01 0.00000e+00
 2.00000e+00 5.03125e-01 0.00000e+00
 2.00000e+00 5.14063e-01 0.00000e+00
 2.00000e+00 5.25000e-01 0.00000e+00
 2.00000e+00 5.35938e-01 0.00000e+00
 2.00000e+00 5.46875e-01 0.00000e+00
 2.00000e+00 5.57813e-01 0.00000e+00
 2.00000e+00 5.68750e-01 0.00000e+00
 2.00000e+00 5.79688e-01 0.00000e+00
 2.00000e+00 5.90625e-01 0.00000e+00
 2.00000e+00 6.01563e-01 0.00000e+00
 2.00000e+00 6.12500e-01 0.00000e+00
 2.00000e+00 6.23438e-01 0.00000e+00
 2.00000e+00 6.34375e-01 0.00000e+00
 2.00000e+00 6.45313e-01 0.00000e+00
 2.00000e+00 6.56250e-01 0.00000e+00
 2.00000e+00 6.67188e-01 0.00000e+00
 2.00000e+00 6.78125e-01 0.00000e+00
 2.00000e+00 6.89063e-01 0.00000e+00
 2.00000e+00 7.00000e-01 0.00000e+00
part       1
domain
bar2
      64
       1       2
       2       3
       3       4
       4       5
       5       6
       6       7
       7       8
       8       9
       9      10
      10      11
      11      12
      12      13
      13      14
      14      15
      15      16
      16      17
      17      18
      18      19
      19      20
      20      21
      21      22
      22      23
      23      24
      24      25
      25      26
      26      27
      27      28
      28      29
      29      30
      30      31
      31      32
      32      33
      33      34
      34      35
      35      36
      36      37
      37      38
      38      39
      39      40
      40      41
      41      42
      42      43
      43      44
      44      45
      45      46
      46      47
      47      48
      48      49
      49      50
      50      51
      51      52
      52      53
      53      54
      54      55
      55      56
      56      57
      57      58
      58      59
      59      60
      60      61
      61      62
      62      63
      63      64
      64      65
part       2
beginning
point
       1
       1
