<?xml version="1.0" encoding="UTF-8" standalone="no"?>
<!-- Created with Inkscape (http://www.inkscape.org/) -->

<svg
   xmlns:dc="http://purl.org/dc/elements/1.1/"
   xmlns:cc="http://creativecommons.org/ns#"
   xmlns:rdf="http://www.w3.org/1999/02/22-rdf-syntax-ns#"
   xmlns:svg="http://www.w3.org/2000/svg"
   xmlns="http://www.w3.org/2000/svg"
   xmlns:sodipodi="http://sodipodi.sourceforge.net/DTD/sodipodi-0.dtd"
   xmlns:inkscape="http://www.inkscape.org/namespaces/inkscape"
   version="1.1"
   id="svg2"
   xml:space="preserve"
   width="1025.343"
   height="450.64725"
   viewBox="0 0 1025.343 450.64725"
   sodipodi:docname="current_configuration.svg"
   inkscape:version="0.92.5 (2060ec1f9f, 2020-04-08)"><metadata
     id="metadata8"><rdf:RDF><cc:Work
         rdf:about=""><dc:format>image/svg+xml</dc:format><dc:type
           rdf:resource="http://purl.org/dc/dcmitype/StillImage" /><dc:title></dc:title></cc:Work></rdf:RDF></metadata><defs
     id="defs6"><clipPath
       clipPathUnits="userSpaceOnUse"
       id="clipPath24"><path
         d="m 286.637,14296.5 v -1545 H 2595.45 v 1545 z"
         id="path22"
         inkscape:connector-curvature="0" /></clipPath><clipPath
       clipPathUnits="userSpaceOnUse"
       id="clipPath114"><path
         d="m 6411.19,13933.3 v -545.9 h 3360.07 v 545.9 z"
         id="path112"
         inkscape:connector-curvature="0" /></clipPath><clipPath
       clipPathUnits="userSpaceOnUse"
       id="clipPath398"><path
         d="m 3136.88,7661.47 v 4.83 h 66.98 v -4.83 h -66.98"
         id="path396"
         inkscape:connector-curvature="0" /></clipPath><clipPath
       clipPathUnits="userSpaceOnUse"
       id="clipPath506"><path
         d="m 3565.2,7329.23 v 4.83 h 78.02 v -4.83 h -78.02"
         id="path504"
         inkscape:connector-curvature="0" /></clipPath><clipPath
       clipPathUnits="userSpaceOnUse"
       id="clipPath4406"><path
         d="M 6263.88,5497.84 H 8949.32 V 3618.78 H 6263.88 Z"
         id="path4404"
         inkscape:connector-curvature="0" /></clipPath><clipPath
       clipPathUnits="userSpaceOnUse"
       id="clipPath5122"><path
         d="M 6613.1,5356.98 H 8694.69 V 3825.09 H 6613.1 Z"
         id="path5120"
         inkscape:connector-curvature="0" /></clipPath><clipPath
       clipPathUnits="userSpaceOnUse"
       id="clipPath5134"><path
         d="M 6263.88,5497.84 H 8949.32 V 3618.78 H 6263.88 Z"
         id="path5132"
         inkscape:connector-curvature="0" /></clipPath><clipPath
       clipPathUnits="userSpaceOnUse"
       id="clipPath5182"><path
         d="m 8095.98,4667.12 h 563.75 v -142.23 h -563.75 z"
         id="path5180"
         inkscape:connector-curvature="0" /></clipPath><clipPath
       clipPathUnits="userSpaceOnUse"
       id="clipPath5192"><path
         d="M 6263.88,5497.84 H 8949.32 V 3618.78 H 6263.88 Z"
         id="path5190"
         inkscape:connector-curvature="0" /></clipPath><clipPath
       clipPathUnits="userSpaceOnUse"
       id="clipPath5206"><path
         d="m 8095.98,4667.12 h 563.75 v -142.23 h -563.75 z"
         id="path5204"
         inkscape:connector-curvature="0" /></clipPath></defs><sodipodi:namedview
     pagecolor="#ffffff"
     bordercolor="#666666"
     borderopacity="1"
     objecttolerance="10"
     gridtolerance="10"
     guidetolerance="10"
     inkscape:pageopacity="0"
     inkscape:pageshadow="2"
     inkscape:window-width="2560"
     inkscape:window-height="1380"
     id="namedview4"
     showgrid="false"
     fit-margin-top="0"
     fit-margin-left="0"
     fit-margin-right="0"
     fit-margin-bottom="0"
     inkscape:zoom="0.84035605"
     inkscape:cx="301.40598"
     inkscape:cy="-86.530127"
     inkscape:window-x="1920"
     inkscape:window-y="0"
     inkscape:window-maximized="1"
     inkscape:current-layer="g10" /><g
     id="g10"
     inkscape:groupmode="layer"
     inkscape:label="Hesch_beam"
     transform="matrix(1.3333333,0,0,-1.3333333,-369.27659,2664.0804)"><path
       inkscape:connector-curvature="0"
       id="path240"
       style="fill:#231f20;fill-opacity:1;fill-rule:evenodd;stroke:none;stroke-width:0.22972099"
       d="m 761.38958,1719.2595 c 0,1.4473 -0.39512,4.498 -2.6326,4.498 -3.0507,0 -6.43219,-6.1887 -6.43219,-11.215 0,-2.0629 0.63633,-4.5002 2.6349,-4.5002 3.09434,0 6.42989,6.2989 6.42989,11.2172 z m -6.73772,-3.007 c 0.37445,1.4036 0.81322,3.1609 1.69075,4.7185 0.59268,1.075 1.40359,2.3041 2.39139,2.3041 1.0774,0 1.20834,-1.4059 1.20834,-2.6556 0,-1.0751 -0.17689,-2.1962 -0.70295,-4.367 z m 4.38997,-0.703 c -0.24121,-1.0107 -0.70295,-2.8761 -1.53683,-4.4566 -0.76727,-1.4931 -1.60116,-2.5682 -2.54531,-2.5682 -0.72362,0 -1.18536,0.6363 -1.18536,2.6785 0,0.9235 0.13094,2.1961 0.70294,4.3463 h 4.56456" /><path
       inkscape:connector-curvature="0"
       id="path242"
       style="fill:none;stroke:#231f20;stroke-width:1.24902987;stroke-linecap:butt;stroke-linejoin:miter;stroke-miterlimit:2.61313009;stroke-dasharray:none;stroke-opacity:1"
       d="m 779.02067,1688.2771 -89.87834,23.6842" /><path
       inkscape:connector-curvature="0"
       id="path244"
       style="fill:#231f20;fill-opacity:1;fill-rule:evenodd;stroke:none;stroke-width:0.22972099"
       d="m 785.38164,1686.7196 -14.21743,-0.1884 c 2.53842,1.9549 3.18393,4.4083 1.93884,7.3579 l 12.27859,-7.1695" /><path
       inkscape:connector-curvature="0"
       id="path246"
       style="fill:none;stroke:#ffffff;stroke-width:4.37159061;stroke-linecap:butt;stroke-linejoin:bevel;stroke-miterlimit:22.92560005;stroke-dasharray:none;stroke-opacity:1"
       d="m 777.5918,1661.7397 v 74.5927" /><path
       inkscape:connector-curvature="0"
       id="path248"
       style="fill:#231f20;fill-opacity:1;fill-rule:evenodd;stroke:none;stroke-width:0.22972099"
       d="m 652.80965,1877.6728 c 2.06979,0 3.74905,-1.6769 3.74905,-3.7467 0,-2.0698 -1.67926,-3.7468 -3.74905,-3.7468 -2.06749,0 -3.74675,1.677 -3.74675,3.7468 0,2.0698 1.67926,3.7467 3.74675,3.7467" /><path
       inkscape:connector-curvature="0"
       id="path250"
       style="fill:none;stroke:#231f20;stroke-width:1.24902987;stroke-linecap:butt;stroke-linejoin:miter;stroke-miterlimit:2.61313009;stroke-dasharray:none;stroke-opacity:1"
       d="m 619.80334,1847.5105 40.02888,32.0231" /><path
       inkscape:connector-curvature="0"
       id="path252"
       style="fill:#231f20;fill-opacity:1;fill-rule:evenodd;stroke:none;stroke-width:0.22972099"
       d="m 614.76326,1843.3295 8.32049,11.5297 c 0.0551,-3.2046 1.64021,-5.1848 4.75293,-5.9428 l -13.07342,-5.5869" /><path
       inkscape:connector-curvature="0"
       id="path254"
       style="fill:none;stroke:#231f20;stroke-width:1.24902987;stroke-linecap:butt;stroke-linejoin:miter;stroke-miterlimit:2.61313009;stroke-dasharray:none;stroke-opacity:1"
       d="M 704.02825,1873.4207 H 641.72102" /><path
       inkscape:connector-curvature="0"
       id="path256"
       style="fill:#231f20;fill-opacity:1;fill-rule:evenodd;stroke:none;stroke-width:0.22972099"
       d="m 710.57759,1873.5356 -13.70056,-3.8042 c 1.95722,2.5361 1.95722,5.0722 0,7.6083 l 13.70056,-3.8041" /><path
       inkscape:connector-curvature="0"
       id="path258"
       style="fill:none;stroke:#231f20;stroke-width:1.24902987;stroke-linecap:butt;stroke-linejoin:miter;stroke-miterlimit:2.61313009;stroke-dasharray:none;stroke-opacity:1"
       d="m 652.80965,1927.1387 v -62.3073" /><path
       inkscape:connector-curvature="0"
       id="path260"
       style="fill:#231f20;fill-opacity:1;fill-rule:evenodd;stroke:none;stroke-width:0.22972099"
       d="m 652.69479,1933.6857 3.80648,-13.7006 c -2.53842,1.9573 -5.07454,1.9573 -7.61066,0 l 3.80418,13.7006" /><path
       inkscape:connector-curvature="0"
       id="path262"
       style="fill:none;stroke:#231f20;stroke-width:1.24902987;stroke-linecap:butt;stroke-linejoin:miter;stroke-miterlimit:22.92560005;stroke-dasharray:none;stroke-opacity:1"
       d="m 608.85713,1688.2977 c -34.44666,2.6303 -53.22176,18.782 -65.57615,42.0298" /><path
       inkscape:connector-curvature="0"
       id="path264"
       style="fill:#231f20;fill-opacity:1;fill-rule:evenodd;stroke:none;stroke-width:0.22972099"
       d="m 540.31068,1736.1647 3.06908,-13.8843 c 1.32089,2.9197 3.56067,4.1097 6.71934,3.5721 l -9.78842,10.3122" /><path
       inkscape:connector-curvature="0"
       id="path266"
       style="fill:none;stroke:#231f20;stroke-width:1.24902987;stroke-linecap:butt;stroke-linejoin:miter;stroke-miterlimit:22.92560005;stroke-dasharray:none;stroke-opacity:1"
       d="m 919.66275,1745.8957 c 33.39914,28.6806 40.50441,59.4311 35.6596,92.6258" /><path
       inkscape:connector-curvature="0"
       id="path268"
       style="fill:#231f20;fill-opacity:1;fill-rule:evenodd;stroke:none;stroke-width:0.22972099"
       d="m 954.49076,1845.018 -1.78494,-14.1072 c 2.226,2.3041 4.73685,2.6694 7.52796,1.0981 l -5.74302,13.0091" /><path
       inkscape:connector-curvature="0"
       id="path270"
       style="fill:none;stroke:#231f20;stroke-width:1.24902987;stroke-linecap:butt;stroke-linejoin:miter;stroke-miterlimit:2.61313009;stroke-dasharray:none;stroke-opacity:1"
       d="m 446.56614,1845.2156 206.10568,27.8835" /><path
       inkscape:connector-curvature="0"
       id="path272"
       style="fill:#231f20;fill-opacity:1;fill-rule:evenodd;stroke:none;stroke-width:0.22972099"
       d="m 440.0926,1844.2255 13.06653,5.6074 c -1.60115,-2.7773 -1.26117,-5.2904 1.01996,-7.5417 l -14.08649,1.9343" /><path
       inkscape:connector-curvature="0"
       id="path274"
       style="fill:#231f20;fill-opacity:1;fill-rule:evenodd;stroke:none;stroke-width:0.22972099"
       d="m 629.48608,1837.2994 c 0.48241,0 0.70294,0 0.70294,0.5926 0,0.68 -0.13323,2.2812 -1.229,3.3792 -0.81321,0.7926 -1.9779,1.1854 -3.49176,1.1854 -3.51014,0 -5.42142,-2.2604 -5.42142,-5.0033 0,-2.9427 2.19614,-5.0723 5.72924,-5.0723 3.46879,0 4.41294,2.3271 4.41294,2.6993 0,0.3974 -0.41809,0.3974 -0.52835,0.3974 -0.37215,0 -0.4181,-0.1103 -0.54904,-0.4618 -0.45944,-1.0544 -1.71142,-1.755 -3.13799,-1.755 -3.09434,0 -3.11731,2.9174 -3.11731,4.0385 z m -6.62975,0.7236 c 0.0437,0.8568 0.0666,1.778 0.52836,2.5017 0.56971,0.8798 1.44724,1.1417 2.08357,1.1417 2.56828,0 2.61422,-2.8761 2.6349,-3.6434 h -5.24683" /><path
       inkscape:connector-curvature="0"
       id="path276"
       style="fill:#231f20;fill-opacity:1;fill-rule:evenodd;stroke:none;stroke-width:0.22972099"
       d="m 636.12502,1839.1142 c 0,0.4135 -0.0322,0.4295 -0.46174,0.4295 -0.98321,-0.9671 -2.38221,-0.9832 -3.01165,-0.9832 v -0.5536 c 0.36985,0 1.38292,0 2.2283,0.4296 v -7.8358 c 0,-0.5054 0,-0.7052 -1.53684,-0.7052 h -0.58349 v -0.5537 h 5.48574 v 0.5537 h -0.58579 c -1.53453,0 -1.53453,0.1975 -1.53453,0.7052 v 8.5135" /><path
       inkscape:connector-curvature="0"
       id="path278"
       style="fill:#231f20;fill-opacity:1;fill-rule:evenodd;stroke:none;stroke-width:0.22972099"
       d="m 727.1175,1869.736 c 0.48242,0 0.70295,0 0.70295,0.5904 0,0.6822 -0.13324,2.2834 -1.22901,3.3815 -0.81321,0.7902 -1.9779,1.1853 -3.49176,1.1853 -3.51013,0 -5.42141,-2.2627 -5.42141,-5.0056 0,-2.9404 2.19613,-5.07 5.72924,-5.07 3.46879,0 4.41294,2.3271 4.41294,2.6993 0,0.3951 -0.41809,0.3951 -0.52836,0.3951 -0.37215,0 -0.41809,-0.1103 -0.54903,-0.4617 -0.45944,-1.0522 -1.71142,-1.7551 -3.13799,-1.7551 -3.09434,0 -3.11731,2.9197 -3.11731,4.0385 z m -6.62974,0.7236 c 0.0436,0.8569 0.0666,1.7757 0.52835,2.5017 0.56971,0.8775 1.44725,1.1394 2.08357,1.1394 2.56828,0 2.61423,-2.8738 2.6349,-3.6434 h -5.24682" /><path
       inkscape:connector-curvature="0"
       id="path280"
       style="fill:#231f20;fill-opacity:1;fill-rule:evenodd;stroke:none;stroke-width:0.22972099"
       d="m 736.36837,1864.5741 h -0.52377 c -0.0436,-0.3399 -0.19756,-1.245 -0.39741,-1.399 -0.12405,-0.092 -1.30712,-0.092 -1.52305,-0.092 h -2.82557 c 1.61264,1.4288 2.15019,1.8584 3.07367,2.5797 1.13711,0.9074 2.19613,1.8585 2.19613,3.3195 0,1.8584 -1.62872,2.9956 -3.59514,2.9956 -1.90438,0 -3.19541,-1.337 -3.19541,-2.7498 0,-0.7834 0.65929,-0.8615 0.81321,-0.8615 0.36755,0 0.81551,0.2619 0.81551,0.8155 0,0.2757 -0.10797,0.8133 -0.9074,0.8133 0.47552,1.0934 1.52075,1.4288 2.24437,1.4288 1.53454,0 2.33397,-1.1968 2.33397,-2.4419 0,-1.337 -0.95334,-2.396 -1.44495,-2.9496 l -3.7031,-3.6572 c -0.15161,-0.1378 -0.15161,-0.17 -0.15161,-0.5996 h 6.32881 l 0.46174,2.798" /><path
       inkscape:connector-curvature="0"
       id="path282"
       style="fill:#231f20;fill-opacity:1;fill-rule:evenodd;stroke:none;stroke-width:0.22972099"
       d="m 636.10434,1936.7594 c 0.48241,0 0.70295,0 0.70295,0.5927 0,0.6799 -0.13094,2.2811 -1.22901,3.3791 -0.81321,0.7903 -1.9756,1.1854 -3.49176,1.1854 -3.51014,0 -5.42142,-2.2604 -5.42142,-5.0056 0,-2.9404 2.19614,-5.07 5.72925,-5.07 3.46878,0 4.41294,2.3271 4.41294,2.6993 0,0.3951 -0.4181,0.3951 -0.52836,0.3951 -0.37215,0 -0.4158,-0.108 -0.54674,-0.4595 -0.46174,-1.0544 -1.71372,-1.7573 -3.14028,-1.7573 -3.09435,0 -3.11502,2.9197 -3.11502,4.0385 z m -6.62745,0.7236 c 0.0413,0.8569 0.0643,1.7757 0.52376,2.5017 0.57201,0.8798 1.44954,1.1417 2.08587,1.1417 2.57058,0 2.61193,-2.8761 2.6349,-3.6434 h -5.24453" /><path
       inkscape:connector-curvature="0"
       id="path284"
       style="fill:#231f20;fill-opacity:1;fill-rule:evenodd;stroke:none;stroke-width:0.22972099"
       d="m 641.79223,1933.9315 c 1.19685,0 2.0583,-0.8293 2.0583,-2.4741 0,-1.9044 -1.10725,-2.4718 -1.99857,-2.4718 -0.61336,0 -1.96641,0.1677 -2.61193,1.0751 0.72133,0.032 0.89132,0.5376 0.89132,0.8592 0,0.4916 -0.36985,0.8453 -0.84537,0.8453 -0.42958,0 -0.85916,-0.2595 -0.85916,-0.8913 0,-1.4426 1.59656,-2.3799 3.455,-2.3799 2.13641,0 3.61122,1.4289 3.61122,2.9634 0,1.1992 -0.98321,2.3983 -2.67166,2.7521 1.61264,0.5835 2.19614,1.7367 2.19614,2.6739 0,1.2129 -1.39901,2.1181 -3.10354,2.1181 -1.70682,0 -3.01164,-0.8293 -3.01164,-2.0583 0,-0.5215 0.33769,-0.8133 0.79943,-0.8133 0.47552,0 0.78335,0.3515 0.78335,0.7834 0,0.4456 -0.30783,0.7673 -0.78335,0.7994 0.53755,0.6754 1.59656,0.8431 2.16627,0.8431 0.69146,0 1.65859,-0.3377 1.65859,-1.6724 0,-0.6455 -0.21594,-1.353 -0.61566,-1.8286 -0.50538,-0.5834 -0.93496,-0.6156 -1.70453,-0.6616 -0.38363,-0.032 -0.41579,-0.032 -0.4916,-0.046 -0.0299,0 -0.15391,-0.03 -0.15391,-0.1999 0,-0.2159 0.14013,-0.2159 0.39971,-0.2159 h 0.83159" /><path
       inkscape:connector-curvature="0"
       id="path286"
       style="fill:#231f20;fill-opacity:1;fill-rule:evenodd;stroke:none;stroke-width:0.22972099"
       d="m 969.9303,1781.7023 3.68703,4.8517 c 0.2412,0.3055 0.26417,0.3285 1.03144,0.3951 0.52606,0.067 0.6593,0.064 1.27266,0.064 h 0.63632 v 1.0292 h -6.27597 v -1.0292 c 0.39512,0 1.24968,0 2.01924,-0.2435 -0.023,-0.044 -0.13323,-0.1746 -0.17688,-0.2412 l -2.89678,-3.8409 -3.13799,4.3256 h 1.82169 v 1.0292 h -7.52796 v -1.0292 h 2.15019 l 4.87238,-6.74 -4.43362,-5.8165 c -0.19756,-0.2619 -0.2412,-0.3078 -0.94415,-0.3722 -0.43877,-0.044 -0.90051,-0.067 -1.33927,-0.067 h -0.63633 v -1.0314 h 6.27828 v 1.0314 c -0.39512,0 -1.25198,0 -2.01925,0.2412 0.0207,0.044 0.13094,0.1769 0.17459,0.2412 l 3.6227,4.8058 3.81796,-5.2882 h -1.82169 v -1.0314 h 7.53026 v 1.0314 h -2.15249 l -5.55236,7.6819" /><path
       inkscape:connector-curvature="0"
       id="path288"
       style="fill:#231f20;fill-opacity:1;fill-rule:evenodd;stroke:none;stroke-width:0.22972099"
       d="m 985.60646,1767.7215 c 0,0.067 0,0.1079 -0.37214,0.4824 -2.74287,2.7658 -3.44582,6.9146 -3.44582,10.2708 0,3.8203 0.83389,7.6382 3.53311,10.3834 0.28485,0.2642 0.28485,0.3078 0.28485,0.3721 0,0.154 -0.0873,0.2206 -0.21823,0.2206 -0.22053,0 -2.19613,-1.4932 -3.49176,-4.2797 -1.11874,-2.4144 -1.38062,-4.8517 -1.38062,-6.6964 0,-1.7091 0.2412,-4.367 1.44724,-6.8457 1.3163,-2.6992 3.20461,-4.1281 3.42514,-4.1281 0.13094,0 0.21823,0.067 0.21823,0.2206 v 0" /><path
       inkscape:connector-curvature="0"
       id="path290"
       style="fill:#231f20;fill-opacity:1;fill-rule:evenodd;stroke:none;stroke-width:0.22972099"
       d="m 996.78928,1783.965 c 0,1.4473 -0.39512,4.498 -2.6349,4.498 -3.05069,0 -6.42989,-6.1887 -6.42989,-11.2173 0,-2.0606 0.63633,-4.4979 2.6326,-4.4979 3.09664,0 6.43219,6.2989 6.43219,11.2149 z m -6.73771,-3.007 c 0.37214,1.4036 0.81091,3.1587 1.68845,4.7162 0.59268,1.0751 1.40589,2.3064 2.39369,2.3064 1.07509,0 1.20603,-1.4059 1.20603,-2.6556 0,-1.0774 -0.17688,-2.1961 -0.70294,-4.3693 z m 4.38767,-0.7029 c -0.24121,-1.0108 -0.70065,-2.8762 -1.53684,-4.4566 -0.76726,-1.4932 -1.60115,-2.5683 -2.54531,-2.5683 -0.72362,0 -1.18536,0.6363 -1.18536,2.6762 0,0.9235 0.13095,2.1962 0.70295,4.3464 h 4.56456" /><path
       inkscape:connector-curvature="0"
       id="path292"
       style="fill:#231f20;fill-opacity:1;fill-rule:evenodd;stroke:none;stroke-width:0.22972099"
       d="m 1002.6196,1791.5826 c 0,0.2458 -0.1838,0.5812 -0.6157,0.5812 -0.4134,0 -0.8591,-0.3974 -0.8591,-0.8431 0,-0.2619 0.1999,-0.5835 0.6133,-0.5835 0.4457,0 0.8615,0.4296 0.8615,0.8431 z m -3.13339,-7.8059 c -0.062,-0.1999 -0.14013,-0.386 -0.14013,-0.6455 0,-0.7214 0.61565,-1.3072 1.45872,-1.3072 1.5368,0 2.2145,2.1204 2.2145,2.3524 0,0.1998 -0.1998,0.1975 -0.2458,0.1975 -0.2159,0 -0.232,-0.092 -0.2917,-0.2595 -0.3538,-1.229 -1.0315,-1.8608 -1.6288,-1.8608 -0.3078,0 -0.3859,0.1999 -0.3859,0.5399 0,0.3537 0.108,0.6455 0.2458,0.9809 0.1539,0.4181 0.3239,0.8316 0.4939,1.2313 0.1379,0.3675 0.6892,1.7665 0.7512,1.9503 0.046,0.1539 0.094,0.3377 0.094,0.4916 0,0.7236 -0.6157,1.3071 -1.461,1.3071 -1.52079,0 -2.22833,-2.0904 -2.22833,-2.3523 0,-0.1976 0.21594,-0.1976 0.26188,-0.1976 0.21594,0 0.22972,0.076 0.27567,0.2458 0.39971,1.3209 1.07509,1.8723 1.64478,1.8723 0.2458,0 0.3837,-0.1218 0.3837,-0.5376 0,-0.3515 -0.092,-0.5835 -0.4756,-1.5368 l -0.96709,-2.4718" /><path
       inkscape:connector-curvature="0"
       id="path294"
       style="fill:#231f20;fill-opacity:1;fill-rule:evenodd;stroke:none;stroke-width:0.22972099"
       d="m 1011.6522,1778.4747 c 0,1.7137 -0.2412,4.3693 -1.4495,6.8503 -1.3163,2.6992 -3.2046,4.1258 -3.4229,4.1258 -0.1332,0 -0.2205,-0.087 -0.2205,-0.2206 0,-0.064 0,-0.1102 0.4181,-0.503 2.1502,-2.1732 3.4022,-5.665 3.4022,-10.2525 0,-3.7513 -0.8132,-7.6152 -3.5354,-10.3811 -0.2849,-0.2642 -0.2849,-0.3078 -0.2849,-0.3721 0,-0.1333 0.087,-0.2206 0.2205,-0.2206 0.2183,0 2.1939,1.4932 3.4895,4.2797 1.1188,2.4167 1.3829,4.8518 1.3829,6.6941 v 0" /><path
       inkscape:connector-curvature="0"
       id="path296"
       style="fill:#231f20;fill-opacity:1;fill-rule:evenodd;stroke:none;stroke-width:0.22972099"
       d="m 667.82422,1939.6102 c 0.54903,0 1.60115,0 2.37072,-0.4594 1.05212,-0.6823 1.13941,-1.8654 1.13941,-1.9986 0.023,-0.3055 0.023,-0.5927 0.39512,-0.5927 0.37445,0 0.37445,0.3078 0.37445,0.703 v 5.9474 c 0,0.3515 0,0.703 -0.37445,0.703 -0.37214,0 -0.39512,-0.3285 -0.39512,-0.5054 -0.13094,-2.8302 -2.37072,-2.9841 -3.51013,-3.007 v 4.6334 c 0,1.4702 0.41579,1.4702 0.94185,1.4702 h 1.05442 c 2.9634,0 4.43362,-1.5161 4.56686,-3.03 0.0207,-0.1746 0.0436,-0.5054 0.39282,-0.5054 0.37444,0 0.37444,0.3515 0.37444,0.726 v 2.8531 c 0,0.68 -0.0436,0.7236 -0.72362,0.7236 h -11.23795 c -0.39512,0 -0.74659,0 -0.74659,-0.3951 0,-0.3722 0.41579,-0.3722 0.59268,-0.3722 1.24968,0 1.33927,-0.1768 1.33927,-1.2519 v -10.9968 c 0,-1.0314 -0.0666,-1.252 -1.2313,-1.252 -0.3285,0 -0.70065,0 -0.70065,-0.3721 0,-0.3951 0.35147,-0.3951 0.74659,-0.3951 h 11.63307 c 0.4158,0 0.63633,0 0.70065,0.3078 0.023,0.021 0.63633,3.687 0.63633,3.7973 0,0.2412 -0.19756,0.3951 -0.37215,0.3951 -0.30783,0 -0.39512,-0.2872 -0.39512,-0.3078 -0.13094,-0.5697 -0.35147,-1.4932 -1.95263,-2.4351 -1.14171,-0.6822 -2.26275,-0.9901 -3.46879,-0.9901 h -1.20833 c -0.52606,0 -0.94185,0 -0.94185,1.4725 z m 6.56313,6.8939 v -1.0544 c -0.37445,0.4181 -0.79254,0.7673 -1.25198,1.0544 z m -4.282,-6.4321 c 0.35147,0.1539 0.83618,0.4824 1.229,0.9441 v -1.8424 c -0.52606,0.5904 -1.20603,0.8776 -1.229,0.8776 z m -4.95968,5.2238 c 0,0.2642 0,0.8109 -0.17689,1.2083 h 2.32708 c -0.24121,-0.5053 -0.24121,-1.2313 -0.24121,-1.4265 v -10.6453 c 0,-0.7902 0.15391,-1.2313 0.24121,-1.4289 h -2.32478 c 0.17459,0.3952 0.17459,0.9442 0.17459,1.2084 z m 8.16428,-12.2924 v 0.023 c 0.70295,0.3515 1.29563,0.8132 1.7344,1.206 -0.0207,-0.087 -0.17459,-1.0521 -0.19756,-1.229 h -1.53684" /><path
       inkscape:connector-curvature="0"
       id="path298"
       style="fill:#231f20;fill-opacity:1;fill-rule:evenodd;stroke:none;stroke-width:0.22972099"
       d="m 680.87237,1946.3571 c 1.19914,0 2.0606,-0.8293 2.0606,-2.4741 0,-1.9044 -1.10726,-2.4741 -1.99858,-2.4741 -0.61335,0 -1.96641,0.17 -2.61192,1.0774 0.72362,0.03 0.89131,0.5376 0.89131,0.8592 0,0.4916 -0.36755,0.8453 -0.84537,0.8453 -0.42958,0 -0.85916,-0.2618 -0.85916,-0.8913 0,-1.4426 1.59656,-2.3799 3.4573,-2.3799 2.13411,0 3.61122,1.4289 3.61122,2.9634 0,1.1992 -0.9855,2.3983 -2.67625,2.7521 1.61494,0.5835 2.19843,1.7344 2.19843,2.6716 0,1.2153 -1.399,2.1204 -3.10353,2.1204 -1.70453,0 -3.01164,-0.8293 -3.01164,-2.0583 0,-0.5215 0.33769,-0.8133 0.79943,-0.8133 0.47552,0 0.78334,0.3515 0.78334,0.7834 0,0.4457 -0.30782,0.7673 -0.78334,0.7994 0.53754,0.6754 1.59656,0.8431 2.16626,0.8431 0.69146,0 1.65859,-0.3377 1.65859,-1.6747 0,-0.6455 -0.21364,-1.3507 -0.61336,-1.8262 -0.50768,-0.5858 -0.93726,-0.6157 -1.70682,-0.6616 -0.38364,-0.032 -0.4135,-0.032 -0.49161,-0.046 -0.0299,0 -0.15391,-0.03 -0.15391,-0.1998 0.002,-0.216 0.14013,-0.216 0.39972,-0.216 h 0.82929" /><path
       inkscape:connector-curvature="0"
       id="path300"
       style="fill:none;stroke:#231f20;stroke-width:2.49805498;stroke-linecap:butt;stroke-linejoin:bevel;stroke-miterlimit:22.92560005;stroke-dasharray:none;stroke-opacity:1"
       d="m 303.03416,1784.2844 c 66.90624,12.1223 146.06121,-9.4806 215.53113,-32.2207" /><path
       inkscape:connector-curvature="0"
       id="path302"
       style="fill:none;stroke:#231f20;stroke-width:2.49805498;stroke-linecap:butt;stroke-linejoin:bevel;stroke-miterlimit:22.92560005;stroke-dasharray:none;stroke-opacity:1"
       d="m 319.78312,1887.0133 c 117.29324,7.3327 179.66939,-21.6673 257.27603,-48.9559" /><path
       inkscape:connector-curvature="0"
       id="path304"
       style="fill:none;stroke:#231f20;stroke-width:2.49805498;stroke-linecap:butt;stroke-linejoin:bevel;stroke-miterlimit:22.92560005;stroke-dasharray:none;stroke-opacity:1"
       d="m 289.26239,1840.1135 c 81.56014,14.7779 162.73895,-9.0074 239.97344,-32.2023" /><path
       inkscape:connector-curvature="0"
       id="path306"
       style="fill:none;stroke:#231f20;stroke-width:1.24902987;stroke-linecap:butt;stroke-linejoin:bevel;stroke-miterlimit:22.92560005;stroke-dasharray:6.24514916, 6.24514916;stroke-dashoffset:0;stroke-opacity:1"
       d="m 320.75254,1886.2897 13.56503,-54.182" /><path
       inkscape:connector-curvature="0"
       id="path308"
       style="fill:none;stroke:#231f20;stroke-width:1.24902987;stroke-linecap:butt;stroke-linejoin:bevel;stroke-miterlimit:22.92560005;stroke-dasharray:6.24514916, 6.24514916;stroke-dashoffset:0;stroke-opacity:1"
       d="m 334.3681,1832.8566 c 106.48717,-1.3094 156.44001,-17.7506 233.5091,-50.9797" /><path
       inkscape:connector-curvature="0"
       id="path310"
       style="fill:none;stroke:#231f20;stroke-width:1.24902987;stroke-linecap:butt;stroke-linejoin:bevel;stroke-miterlimit:22.92560005;stroke-dasharray:6.24514916, 6.24514916;stroke-dashoffset:0;stroke-opacity:1"
       d="m 304.00588,1786.3518 30.31169,45.7559" /><path
       inkscape:connector-curvature="0"
       id="path312"
       style="fill:none;stroke:#231f20;stroke-width:1.24902987;stroke-linecap:butt;stroke-linejoin:bevel;stroke-miterlimit:22.92560005;stroke-dasharray:6.24514916, 6.24514916;stroke-dashoffset:0;stroke-opacity:1"
       d="m 447.16112,1878.7273 1.15549,-53.2953" /><path
       inkscape:connector-curvature="0"
       id="path314"
       style="fill:none;stroke:#231f20;stroke-width:1.24902987;stroke-linecap:butt;stroke-linejoin:bevel;stroke-miterlimit:22.92560005;stroke-dasharray:6.24514916, 6.24514916;stroke-dashoffset:0;stroke-opacity:1"
       d="m 407.23101,1782.1434 39.025,38.0992" /><path
       inkscape:connector-curvature="0"
       id="path316"
       style="fill:none;stroke:#231f20;stroke-width:1.24902987;stroke-linecap:butt;stroke-linejoin:miter;stroke-miterlimit:2.61313009;stroke-dasharray:none;stroke-opacity:1"
       d="m 396.73736,1794.4242 27.1645,26.0963" /><path
       inkscape:connector-curvature="0"
       id="path318"
       style="fill:#231f20;fill-opacity:1;fill-rule:evenodd;stroke:none;stroke-width:0.22972099"
       d="m 392.09469,1789.8046 7.24311,12.2349 c 0.34688,-3.1862 2.10424,-5.0148 5.27209,-5.488 l -12.5152,-6.7469" /><path
       inkscape:connector-curvature="0"
       id="path320"
       style="fill:none;stroke:#231f20;stroke-width:1.24902987;stroke-linecap:butt;stroke-linejoin:miter;stroke-miterlimit:2.61313009;stroke-dasharray:none;stroke-opacity:1"
       d="m 422.15598,1867.8017 0.91889,-47.9818" /><path
       inkscape:connector-curvature="0"
       id="path322"
       style="fill:#231f20;fill-opacity:1;fill-rule:evenodd;stroke:none;stroke-width:0.22972099"
       d="m 421.91478,1874.3465 4.06606,-13.6248 c -2.57288,1.909 -5.1067,1.8608 -7.60606,-0.1447 l 3.54,13.7695" /><path
       inkscape:connector-curvature="0"
       id="path324"
       style="fill:none;stroke:#231f20;stroke-width:1.24902987;stroke-linecap:butt;stroke-linejoin:bevel;stroke-miterlimit:22.92560005;stroke-dasharray:none;stroke-opacity:1"
       d="m 277.09406,1818.267 c 94.60371,21.2078 204.08644,-3.3448 289.15672,-55.0021" /><path
       inkscape:connector-curvature="0"
       id="path326"
       style="fill:none;stroke:#ffffff;stroke-width:4.37159061;stroke-linecap:butt;stroke-linejoin:bevel;stroke-miterlimit:22.92560005;stroke-dasharray:none;stroke-opacity:1"
       d="m 295.12487,1815.2347 -2.83246,11.2976" /><path
       inkscape:connector-curvature="0"
       id="path328"
       style="fill:none;stroke:#ffffff;stroke-width:4.37159061;stroke-linecap:butt;stroke-linejoin:bevel;stroke-miterlimit:22.92560005;stroke-dasharray:none;stroke-opacity:1"
       d="m 525.59246,1791.8123 -2.27424,-11.6331 z" /><path
       inkscape:connector-curvature="0"
       id="path330"
       style="fill:#231f20;fill-opacity:1;fill-rule:evenodd;stroke:none;stroke-width:0.22972099"
       d="m 438.02971,1847.9056 c 2.06748,0 3.74445,-1.6793 3.74445,-3.7468 0,-2.0697 -1.67697,-3.749 -3.74445,-3.749 -2.06979,0 -3.74905,1.6793 -3.74905,3.749 0,2.0675 1.67926,3.7468 3.74905,3.7468" /><path
       inkscape:connector-curvature="0"
       id="path332"
       style="fill:none;stroke:#231f20;stroke-width:2.49805498;stroke-linecap:butt;stroke-linejoin:bevel;stroke-miterlimit:22.92560005;stroke-dasharray:none;stroke-opacity:1"
       d="m 302.95605,1784.0386 -13.93257,55.512 31.36151,48.0692" /><path
       inkscape:connector-curvature="0"
       id="path334"
       style="fill:none;stroke:#ffffff;stroke-width:2.49805498;stroke-linecap:butt;stroke-linejoin:bevel;stroke-miterlimit:22.92560005;stroke-dasharray:none;stroke-opacity:1"
       d="m 406.28226,1815.4529 -0.18837,10.7831" /><path
       inkscape:connector-curvature="0"
       id="path336"
       style="fill:none;stroke:#231f20;stroke-width:1.24902987;stroke-linecap:butt;stroke-linejoin:bevel;stroke-miterlimit:22.92560005;stroke-dasharray:none;stroke-opacity:1"
       d="m 406.86575,1782.1457 -1.00158,57.2235 41.43248,39.721" /><path
       inkscape:connector-curvature="0"
       id="path338"
       style="fill:none;stroke:#231f20;stroke-width:2.49805498;stroke-linecap:butt;stroke-linejoin:bevel;stroke-miterlimit:22.92560005;stroke-dasharray:none;stroke-opacity:1"
       d="m 528.73504,1807.8813 48.82261,30.1784 -10.98756,-56.169 -48.82031,-30.1808 z" /><path
       inkscape:connector-curvature="0"
       id="path340"
       style="fill:none;stroke:#ffffff;stroke-width:3.12257457;stroke-linecap:butt;stroke-linejoin:bevel;stroke-miterlimit:22.92560005;stroke-dasharray:none;stroke-opacity:1"
       d="m 547.56987,1773.963 c 2.27883,-1.2313 4.54388,-2.4787 6.79514,-3.7445" /><path
       inkscape:connector-curvature="0"
       id="path342"
       style="fill:none;stroke:#231f20;stroke-width:1.24902987;stroke-linecap:butt;stroke-linejoin:bevel;stroke-miterlimit:22.92560005;stroke-dasharray:none;stroke-opacity:1"
       d="m 539.98907,1777.9532 c 8.97291,-4.6105 17.73906,-9.515 26.26171,-14.6883" /><path
       inkscape:connector-curvature="0"
       id="path344"
       style="fill:none;stroke:#ffffff;stroke-width:2.49805498;stroke-linecap:butt;stroke-linejoin:bevel;stroke-miterlimit:22.92560005;stroke-dasharray:none;stroke-opacity:1"
       d="m 422.54651,1818.6208 c 14.43337,-2.782 28.77485,-6.3335 42.90499,-10.5925" /><path
       inkscape:connector-curvature="0"
       id="path346"
       style="fill:none;stroke:#231f20;stroke-width:1.24902987;stroke-linecap:butt;stroke-linejoin:miter;stroke-miterlimit:2.61313009;stroke-dasharray:none;stroke-opacity:1"
       d="m 462.62134,1810.7046 -39.80376,8.3044" /><path
       inkscape:connector-curvature="0"
       id="path348"
       style="fill:#231f20;fill-opacity:1;fill-rule:evenodd;stroke:none;stroke-width:0.22972099"
       d="m 469.05353,1809.4802 -14.18987,-0.9281 c 2.43504,2.0836 2.95421,4.5668 1.55521,7.4498 l 12.63466,-6.5217" /><path
       inkscape:connector-curvature="0"
       id="path350"
       style="fill:#231f20;fill-opacity:1;fill-rule:evenodd;stroke:none;stroke-width:0.22972099"
       d="m 423.17135,1822.9303 c 2.06979,0 3.74675,-1.6769 3.74675,-3.7467 0,-2.0698 -1.67696,-3.7468 -3.74675,-3.7468 -2.06749,0 -3.74675,1.677 -3.74675,3.7468 0,2.0698 1.67926,3.7467 3.74675,3.7467" /><path
       inkscape:connector-curvature="0"
       id="path352"
       style="fill:#231f20;fill-opacity:1;fill-rule:evenodd;stroke:none;stroke-width:0.22972099"
       d="m 548.37849,1869.6441 2.56828,2.8531 c 0.28485,0.3078 0.41579,0.4618 2.23748,0.4618 v 1.0314 h -4.2797 v -1.0314 c 0.30782,0 0.5697,-0.044 0.83388,-0.1976 -0.0873,-0.1309 -0.0873,-0.1769 -0.17688,-0.2642 l -1.84236,-2.0629 -2.15019,2.5247 h 0.87753 v 1.0314 h -5.06994 v -1.0314 h 1.55751 l 3.42514,-4.0385 -2.87611,-3.2276 c -0.37444,-0.4158 -1.16468,-0.4158 -2.21681,-0.4158 v -1.0338 h 4.27971 v 1.0338 c -0.39283,0 -0.81092,0.108 -0.81092,0.2412 0,0.021 0,0.044 0.15162,0.2182 l 2.12951,2.3937 2.41437,-2.8531 h -0.85456 v -1.0338 h 5.04697 v 1.0338 h -1.55751 l -3.68702,4.367" /><path
       inkscape:connector-curvature="0"
       id="path354"
       style="fill:#231f20;fill-opacity:1;fill-rule:evenodd;stroke:none;stroke-width:0.22972099"
       d="m 405.65972,1869.0353 v -1.0751 l 4.01552,0.131 v 1.0314 c -1.35995,0 -1.51386,0 -1.51386,0.8546 v 13.3468 l -3.88458,-0.1769 v -1.0315 c 1.35995,0 1.51386,0 1.51386,-0.8545 v -4.2797 c -1.09807,0.8545 -2.23978,0.9878 -2.9634,0.9878 -3.20461,0 -5.50871,-1.932 -5.50871,-5.0263 0,-2.8968 2.01925,-4.9827 5.2675,-4.9827 1.33928,0 2.3914,0.5261 3.07367,1.0751 z m 0,6.8044 v -5.4881 c -0.28715,-0.3928 -1.18766,-1.6011 -2.85543,-1.6011 -2.67625,0 -2.67625,2.6555 -2.67625,4.1924 0,1.0544 0,2.2375 0.56971,3.0943 0.63632,0.9235 1.66777,1.1417 2.34774,1.1417 1.25198,0 2.12952,-0.7029 2.61423,-1.3392 v 0" /><path
       inkscape:connector-curvature="0"
       id="path356"
       style="fill:#231f20;fill-opacity:1;fill-rule:evenodd;stroke:none;stroke-width:0.22972099"
       d="m 415.64339,1874.6911 c 0,0.4158 -0.0322,0.4295 -0.46174,0.4295 -0.9832,-0.9671 -2.3822,-0.9832 -3.01164,-0.9832 v -0.5536 c 0.36985,0 1.38292,0 2.2283,0.4319 v -7.8358 c 0,-0.5077 0,-0.7075 -1.53684,-0.7075 h -0.58349 v -0.5537 h 5.48574 v 0.5537 h -0.58349 c -1.53684,0 -1.53684,0.1998 -1.53684,0.7075 v 8.5112" /><path
       inkscape:connector-curvature="0"
       id="path358"
       style="fill:#231f20;fill-opacity:1;fill-rule:evenodd;stroke:none;stroke-width:0.22972099"
       d="m 375.94071,1797.4198 v -1.0751 l 4.01553,0.131 v 1.0314 c -1.35995,0 -1.51386,0 -1.51386,0.8546 v 13.3467 l -3.88459,-0.1768 v -1.0315 c 1.35995,0 1.51386,0 1.51386,-0.8568 l 0.002,-4.2774 c -1.09806,0.8545 -2.23978,0.9855 -2.9657,0.9855 -3.2046,0 -5.50871,-1.9297 -5.50871,-5.0263 0,-2.8968 2.01925,-4.9827 5.26751,-4.9827 1.33927,0 2.39369,0.5261 3.07366,1.0774 z m 0,6.8043 v -5.488 c -0.28485,-0.3951 -1.18536,-1.6034 -2.85313,-1.6034 -2.67855,0 -2.67855,2.6555 -2.67855,4.1924 0,1.0544 0,2.2397 0.56971,3.0966 0.63862,0.9212 1.67007,1.1394 2.35005,1.1394 1.25198,0 2.12951,-0.7006 2.61192,-1.337 v 0" /><path
       inkscape:connector-curvature="0"
       id="path360"
       style="fill:#231f20;fill-opacity:1;fill-rule:evenodd;stroke:none;stroke-width:0.22972099"
       d="m 388.53632,1796.0989 h -0.52147 c -0.0459,-0.3377 -0.19986,-1.2451 -0.39972,-1.399 -0.12404,-0.092 -1.30711,-0.092 -1.52075,-0.092 h -2.82786 c 1.61494,1.4289 2.15248,1.8585 3.07366,2.5821 1.13712,0.9074 2.19614,1.8584 2.19614,3.3172 0,1.8607 -1.62873,2.9978 -3.59514,2.9978 -1.90668,0 -3.19542,-1.337 -3.19542,-2.7497 0,-0.7857 0.6616,-0.8615 0.81322,-0.8615 0.36985,0 0.81551,0.2619 0.81551,0.8155 0,0.2757 -0.10797,0.8132 -0.9074,0.8132 0.47782,1.0912 1.52075,1.4289 2.24437,1.4289 1.53683,0 2.33397,-1.1992 2.33397,-2.4442 0.002,-1.337 -0.95105,-2.396 -1.44265,-2.9497 l -3.7031,-3.6548 c -0.15392,-0.1379 -0.15392,-0.17 -0.15392,-0.5996 h 6.33111 l 0.45945,2.7957" /><path
       inkscape:connector-curvature="0"
       id="path362"
       style="fill:#231f20;fill-opacity:1;fill-rule:evenodd;stroke:none;stroke-width:0.22972099"
       d="m 456.21212,1789.8505 v -1.0751 l 4.01782,0.1309 v 1.0338 c -1.36224,0 -1.51616,0 -1.51616,0.8545 v 13.3468 l -3.88228,-0.1768 v -1.0315 c 1.35995,0 1.51386,0 1.51386,-0.8569 v -4.2774 c -1.09807,0.8546 -2.23978,0.9855 -2.9657,0.9855 -3.20461,0 -5.50871,-1.9319 -5.50871,-5.0262 0,-2.8968 2.01925,-4.9827 5.2698,-4.9827 1.33698,0 2.3914,0.5284 3.07137,1.0751 z m 0,6.8066 v -5.488 c -0.28485,-0.3951 -1.18536,-1.6035 -2.85313,-1.6035 -2.67855,0 -2.67855,2.6556 -2.67855,4.1925 0,1.0544 0,2.2397 0.57201,3.0943 0.63632,0.9235 1.66777,1.1417 2.34774,1.1417 1.25198,0 2.12952,-0.7029 2.61193,-1.337 v 0" /><path
       inkscape:connector-curvature="0"
       id="path364"
       style="fill:#231f20;fill-opacity:1;fill-rule:evenodd;stroke:none;stroke-width:0.22972099"
       d="m 465.24475,1790.8682 c 1.19915,0 2.0583,-0.8316 2.0583,-2.4741 0,-1.9044 -1.10496,-2.4741 -1.99857,-2.4741 -0.61336,0 -1.96641,0.1677 -2.60963,1.0751 0.72132,0.032 0.89132,0.5375 0.89132,0.8591 0,0.4939 -0.36985,0.8454 -0.84538,0.8454 -0.43187,0 -0.86145,-0.2596 -0.86145,-0.889 0,-1.445 1.59886,-2.3822 3.4573,-2.3822 2.13641,0 3.61121,1.4288 3.61121,2.9657 0,1.1991 -0.9855,2.396 -2.67395,2.7497 1.61494,0.5858 2.19614,1.7344 2.19614,2.674 0,1.2129 -1.39901,2.1203 -3.10354,2.1203 -1.70453,0 -3.01164,-0.8316 -3.01164,-2.0606 0,-0.5215 0.33999,-0.8132 0.79943,-0.8132 0.47782,0 0.78335,0.3515 0.78335,0.7833 0,0.4457 -0.30553,0.7673 -0.78335,0.7995 0.53755,0.6754 1.59886,0.843 2.16627,0.843 0.69376,0 1.66088,-0.3353 1.66088,-1.6723 0,-0.6455 -0.21593,-1.3531 -0.61565,-1.8309 -0.50539,-0.5812 -0.93726,-0.6134 -1.70453,-0.6593 -0.38363,-0.03 -0.41579,-0.03 -0.4916,-0.046 -0.0322,0 -0.15391,-0.03 -0.15391,-0.1999 0,-0.2136 0.13783,-0.2159 0.39741,-0.2159 h 0.83159" /><path
       inkscape:connector-curvature="0"
       id="path366"
       style="fill:none;stroke:#231f20;stroke-width:2.49805498;stroke-linecap:butt;stroke-linejoin:bevel;stroke-miterlimit:22.92560005;stroke-dasharray:none;stroke-opacity:1"
       d="M 885.1265,1768.22 H 712.16267 l -42.12165,-32.3034 v -74.5927 l 173.71043,0.2734 m -0.7443,74.3193 42.1584,32.2919 v -74.5927 l -42.1584,-32.2919 z m -172.93167,-0.01 173.00059,0.1355" /><path
       inkscape:connector-curvature="0"
       id="path368"
       style="fill:none;stroke:#231f20;stroke-width:1.24902987;stroke-linecap:butt;stroke-linejoin:bevel;stroke-miterlimit:22.92560005;stroke-dasharray:6.24514916, 6.24514916;stroke-dashoffset:0;stroke-opacity:1"
       d="m 711.74687,1768.7897 v -74.5904 l -42.16069,-32.2942" /><path
       inkscape:connector-curvature="0"
       id="path370"
       style="fill:none;stroke:#231f20;stroke-width:1.24902987;stroke-linecap:butt;stroke-linejoin:miter;stroke-miterlimit:22.92560005;stroke-dasharray:6.24514916, 6.24514916;stroke-dashoffset:0;stroke-opacity:1"
       d="m 715.5924,1694.6265 h 68.76928" /><path
       inkscape:connector-curvature="0"
       id="path372"
       style="fill:#231f20;fill-opacity:1;fill-rule:evenodd;stroke:none;stroke-width:0.22972099"
       d="m 690.55051,1715.6483 c 2.06749,0 3.74675,-1.6792 3.74675,-3.7467 0,-2.0698 -1.67926,-3.7468 -3.74675,-3.7468 -2.06978,0 -3.74904,1.677 -3.74904,3.7468 0,2.0675 1.67926,3.7467 3.74904,3.7467" /><path
       inkscape:connector-curvature="0"
       id="path374"
       style="fill:none;stroke:#231f20;stroke-width:1.24902987;stroke-linecap:butt;stroke-linejoin:miter;stroke-miterlimit:2.61313009;stroke-dasharray:none;stroke-opacity:1"
       d="m 650.08516,1679.5201 47.48793,37.989" /><path
       inkscape:connector-curvature="0"
       id="path376"
       style="fill:#231f20;fill-opacity:1;fill-rule:evenodd;stroke:none;stroke-width:0.22972099"
       d="m 645.04508,1675.3392 8.3205,11.5297 c 0.0551,-3.2046 1.6402,-5.1848 4.75292,-5.9429 l -13.07342,-5.5868" /><path
       inkscape:connector-curvature="0"
       id="path378"
       style="fill:none;stroke:#231f20;stroke-width:1.24902987;stroke-linecap:butt;stroke-linejoin:miter;stroke-miterlimit:2.61313009;stroke-dasharray:none;stroke-opacity:1"
       d="M 741.76681,1711.3962 H 679.46188" /><path
       inkscape:connector-curvature="0"
       id="path380"
       style="fill:#231f20;fill-opacity:1;fill-rule:evenodd;stroke:none;stroke-width:0.22972099"
       d="m 748.31616,1711.511 -13.70056,-3.8064 c 1.95722,2.5361 1.95722,5.0745 0,7.6106 l 13.70056,-3.8042" /><path
       inkscape:connector-curvature="0"
       id="path382"
       style="fill:none;stroke:#231f20;stroke-width:1.24902987;stroke-linecap:butt;stroke-linejoin:miter;stroke-miterlimit:2.61313009;stroke-dasharray:none;stroke-opacity:1"
       d="m 690.55051,1772.7064 v -69.8995" /><path
       inkscape:connector-curvature="0"
       id="path384"
       style="fill:#231f20;fill-opacity:1;fill-rule:evenodd;stroke:none;stroke-width:0.22972099"
       d="m 690.43565,1779.2558 3.80418,-13.7029 c -2.53841,1.9572 -5.07453,1.9572 -7.61065,0 l 3.80647,13.7029" /><path
       inkscape:connector-curvature="0"
       id="path386"
       style="fill:#231f20;fill-opacity:1;fill-rule:evenodd;stroke:none;stroke-width:0.22972099"
       d="m 789.11001,1689.8369 c 2.06979,0 3.74675,-1.6793 3.74675,-3.7491 0,-2.0675 -1.67696,-3.7467 -3.74675,-3.7467 -2.06749,0 -3.74675,1.6792 -3.74675,3.7467 0,2.0698 1.67926,3.7491 3.74675,3.7491" /><path
       inkscape:connector-curvature="0"
       id="path388"
       style="fill:#231f20;fill-opacity:1;fill-rule:evenodd;stroke:none;stroke-width:0.22972099"
       d="m 705.06429,1796.9305 h 0.79024 l 3.2919,-5.0906 c 0.22053,-0.3515 0.74659,-1.2084 0.9878,-1.5369 0.15391,-0.2641 0.21824,-0.2641 0.72362,-0.2641 h 3.03002 c 0.39512,0 0.72362,0 0.72362,0.3951 0,0.1769 -0.13324,0.3285 -0.3285,0.3721 -0.81091,0.1769 -1.88831,1.6242 -2.41437,2.3271 -0.15391,0.2205 -1.25198,1.6678 -2.72219,4.0408 1.95263,0.3515 3.84093,1.1831 3.84093,3.795 0,3.053 -3.22758,4.1051 -5.81653,4.1051 h -6.89163 c -0.39512,0 -0.74659,0 -0.74659,-0.3951 0,-0.3722 0.41579,-0.3722 0.59268,-0.3722 1.25198,0 1.35994,-0.1539 1.35994,-1.2519 v -10.9968 c 0,-1.0981 -0.11026,-1.252 -1.35994,-1.252 -0.17689,0 -0.59268,0 -0.59268,-0.3721 0,-0.3951 0.35147,-0.3951 0.74659,-0.3951 h 6.01409 c 0.39513,0 0.72363,0 0.72363,0.3951 0,0.3721 -0.37445,0.3721 -0.61336,0.3721 -1.25198,0 -1.33927,0.1769 -1.33927,1.252 z m 4.23605,1.0774 c 0.61336,0.8109 0.67998,1.9733 0.67998,2.9381 0,1.0544 -0.13094,2.2191 -0.83389,3.1196 0.90051,-0.1975 3.07137,-0.8798 3.07137,-3.0966 0.002,-1.4266 -0.657,-2.5453 -2.91746,-2.9634 z m -4.23605,5.1136 c 0,0.4594 0,1.1853 1.35995,1.1853 1.86763,0 2.78651,-0.7695 2.78651,-3.3608 0.002,-2.8301 -0.67997,-3.2459 -4.14646,-3.2459 z m -2.98638,-12.3154 c 0.17689,0.3975 0.17459,1.0108 0.17459,1.2084 l 0.002,11.0863 c 0,0.2182 -0.002,0.8109 -0.17689,1.206 h 2.50396 c -0.28485,-0.3514 -0.28485,-0.7902 -0.28485,-1.121 v -11.1713 c 0,-0.2183 0,-0.8109 0.17459,-1.2084 z m 4.67483,6.1244 c 0.15391,0.023 0.2435,0.044 0.41809,0.044 0.3285,0 0.81091,0.044 1.14171,0.087 0.3285,-0.5237 2.69922,-4.4336 4.52091,-6.2553 h -2.12951 l -3.9512,6.1244" /><path
       inkscape:connector-curvature="0"
       id="path390"
       style="fill:#231f20;fill-opacity:1;fill-rule:evenodd;stroke:none;stroke-width:0.22972099"
       d="m 719.23807,1804.1598 c 1.19915,0 2.0583,-0.8293 2.0583,-2.4741 0,-1.9044 -1.10495,-2.4718 -1.99627,-2.4718 -0.61336,0 -1.96641,0.1677 -2.61193,1.0751 0.72132,0.03 0.89132,0.5376 0.89132,0.8592 0,0.4939 -0.36985,0.8453 -0.84538,0.8453 -0.42957,0 -0.86145,-0.2595 -0.86145,-0.8913 0,-1.4426 1.59886,-2.3799 3.4573,-2.3799 2.13641,0 3.61122,1.4289 3.61122,2.9634 0,1.1992 -0.98321,2.3983 -2.67396,2.7521 1.61494,0.5835 2.19614,1.7344 2.19614,2.6739 0.002,1.213 -1.39671,2.1204 -3.10124,2.1204 -1.70453,0 -3.01164,-0.8316 -3.01164,-2.0606 0,-0.5215 0.33769,-0.8133 0.79713,-0.8133 0.47782,0 0.78335,0.3515 0.78335,0.7834 0,0.4457 -0.30553,0.7673 -0.78335,0.7994 0.53755,0.6754 1.59886,0.8454 2.16627,0.8454 0.69376,0 1.66088,-0.34 1.66088,-1.6747 0,-0.6455 -0.21593,-1.353 -0.61565,-1.8285 -0.50538,-0.5858 -0.93726,-0.6157 -1.70453,-0.6616 -0.38363,-0.03 -0.41579,-0.03 -0.4916,-0.046 -0.0299,0 -0.15391,-0.03 -0.15391,-0.1998 0,-0.216 0.13783,-0.216 0.39971,-0.216 h 0.82929" /><g
       id="g392"
       transform="scale(0.229721)"><g
         clip-path="url(#clipPath398)"
         id="g394"><g
           transform="matrix(66.9819,0,0,-4.83627,3136.88,7666.3)"
           id="g400"><rect
             id="rect402"
             style="fill:#231f20;fill-opacity:1;fill-rule:nonzero"
             transform="matrix(1,0,0,-1,0,1)"
             height="1"
             width="1"
             y="0"
             x="0" /></g></g></g><path
       inkscape:connector-curvature="0"
       id="path404"
       style="fill:#231f20;fill-opacity:1;fill-rule:evenodd;stroke:none;stroke-width:0.22972099"
       d="m 726.80738,1757.2715 c 0.0437,0.2412 0.0437,0.2848 0.0437,0.3491 0,0.1563 -0.0437,0.2206 -0.24121,0.2206 -0.24121,0 -0.90051,-0.3285 -1.33927,-0.5491 -1.00848,-0.503 -1.84466,-0.9211 -1.84466,-1.3163 0,-0.1309 0.15391,-0.1309 0.2412,-0.1309 0.26418,0 0.83619,0.3055 1.25198,0.5031 -0.26418,-2.1502 -0.79024,-4.9597 -1.18536,-6.848 -0.81091,-3.7307 -1.229,-5.0699 -2.3041,-7.1995 -0.11026,-0.1952 -0.11026,-0.2412 -0.11026,-0.2641 0,-0.1516 0.17688,-0.1516 0.22053,-0.1516 0.34917,0 1.27265,0.3951 1.62413,1.0084 0.28485,0.5054 1.11874,2.1089 1.77804,4.6542 0.48241,1.886 1.3163,4.7621 2.87381,7.0225 1.01077,1.4266 1.93195,2.0859 3.31487,2.0859 1.18536,0 2.26045,-0.7673 2.26045,-1.9319 0.002,-1.932 -2.08586,-2.6326 -4.36699,-3.4022 -0.26418,-0.085 -1.77804,-0.6134 -1.77804,-1.1624 0,-0.1309 0.15391,-0.1539 0.21823,-0.1539 0.0896,0 0.59498,0.087 1.05442,0.087 2.21681,0 4.01552,-1.3163 4.01552,-3.4022 0.002,-2.7222 -2.32477,-3.5997 -4.32334,-3.5997 -1.68845,0 -2.50167,0.9235 -2.78652,1.229 -0.0896,0.1103 -0.11027,0.1539 -0.28485,0.1539 -0.48472,0 -1.60346,-0.68 -1.60346,-1.0751 0,-0.064 0.85686,-1.5138 3.22758,-1.5138 3.09435,0 7.63823,2.1938 7.63823,5.7269 0,1.8447 -1.22901,3.2276 -3.46879,3.6434 1.75737,0.7489 4.32335,2.3293 4.32335,4.3922 0.002,1.2727 -1.05212,2.2145 -2.67625,2.2145 -0.74659,0 -3.55608,-0.1975 -6.21166,-3.4894 l 0.43877,2.8991" /><path
       inkscape:connector-curvature="0"
       id="path406"
       style="fill:#231f20;fill-opacity:1;fill-rule:evenodd;stroke:none;stroke-width:0.22972099"
       d="m 552.06321,1751.935 c 0.21823,-0.021 0.26188,-0.021 0.52606,-0.021 3.97188,0 7.79214,2.9404 7.79214,6.6504 0,1.8653 -1.05442,3.4458 -3.03002,3.4458 -3.46649,0 -5.11359,-4.5645 -6.29895,-7.9024 -2.58896,0.2872 -3.90526,1.0544 -3.90526,2.4603 0,0.5054 0.52376,2.9634 1.88601,4.5209 0.30783,0.3079 0.30783,0.3515 0.30783,0.4388 0,0.3078 -0.30783,0.3078 -0.50539,0.3078 -0.35147,0 -0.37215,-0.023 -0.74659,-0.4181 -1.44725,-1.7321 -2.01925,-4.3233 -2.01925,-5.1572 0,-2.0422 1.66777,-3.5791 4.2797,-4.1051 -0.21823,-0.68 -0.56971,-1.6908 -0.89821,-2.612 -0.15391,-0.3951 -0.37444,-0.9878 -0.37444,-1.229 0,-0.7902 0.72362,-0.9648 1.03144,-0.9648 1.29563,0 1.47022,1.2727 1.51387,1.5575 0.13323,0.9235 0.35147,2.5247 0.43876,3.0277 z m 0.30553,2.0882 c 0.22053,1.6678 0.35147,2.7199 1.36224,4.0592 0.76727,0.9878 1.93196,1.8217 3.24826,1.8217 1.29563,0 2.28113,-0.7696 2.28113,-1.9756 0,-0.7466 -0.4158,-2.0859 -2.23748,-3.0278 -1.71143,-0.8775 -3.48947,-0.8798 -4.65415,-0.8798 v 0" /><path
       inkscape:connector-curvature="0"
       id="path408"
       style="fill:none;stroke:#ffffff;stroke-width:3.12257457;stroke-linecap:butt;stroke-linejoin:miter;stroke-miterlimit:22.92560005;stroke-dasharray:none;stroke-opacity:1"
       d="m 552.06321,1751.935 c 0.21823,-0.021 0.26188,-0.021 0.52606,-0.021 3.97188,0 7.79214,2.9404 7.79214,6.6504 0,1.8653 -1.05442,3.4458 -3.03002,3.4458 -3.46649,0 -5.11359,-4.5645 -6.29895,-7.9024 -2.58896,0.2872 -3.90526,1.0544 -3.90526,2.4603 0,0.5054 0.52376,2.9634 1.88601,4.5209 0.30783,0.3079 0.30783,0.3515 0.30783,0.4388 0,0.3078 -0.30783,0.3078 -0.50539,0.3078 -0.35147,0 -0.37215,-0.023 -0.74659,-0.4181 -1.44725,-1.7321 -2.01925,-4.3233 -2.01925,-5.1572 0,-2.0422 1.66777,-3.5791 4.2797,-4.1051 -0.21823,-0.68 -0.56971,-1.6908 -0.89821,-2.612 -0.15391,-0.3951 -0.37444,-0.9878 -0.37444,-1.229 0,-0.7902 0.72362,-0.9648 1.03144,-0.9648 1.29563,0 1.47022,1.2727 1.51387,1.5575 0.13323,0.9235 0.35147,2.5247 0.43876,3.0277 z m 0.30553,2.0882 c 0.22053,1.6678 0.35147,2.7199 1.36224,4.0592 0.76727,0.9878 1.93196,1.8217 3.24826,1.8217 1.29563,0 2.28113,-0.7696 2.28113,-1.9756 0,-0.7466 -0.4158,-2.0859 -2.23748,-3.0278 -1.71143,-0.8775 -3.48947,-0.8798 -4.65415,-0.8798 z" /><path
       inkscape:connector-curvature="0"
       id="path410"
       style="fill:#231f20;fill-opacity:1;fill-rule:evenodd;stroke:none;stroke-width:0.22972099"
       d="m 552.06321,1751.935 c 0.21823,-0.021 0.26188,-0.021 0.52606,-0.021 3.97188,0 7.79214,2.9404 7.79214,6.6504 0,1.8653 -1.05442,3.4458 -3.03002,3.4458 -3.46649,0 -5.11359,-4.5645 -6.29895,-7.9024 -2.58896,0.2872 -3.90526,1.0544 -3.90526,2.4603 0,0.5054 0.52376,2.9634 1.88601,4.5209 0.30783,0.3079 0.30783,0.3515 0.30783,0.4388 0,0.3078 -0.30783,0.3078 -0.50539,0.3078 -0.35147,0 -0.37215,-0.023 -0.74659,-0.4181 -1.44725,-1.7321 -2.01925,-4.3233 -2.01925,-5.1572 0,-2.0422 1.66777,-3.5791 4.2797,-4.1051 -0.21823,-0.68 -0.56971,-1.6908 -0.89821,-2.612 -0.15391,-0.3951 -0.37444,-0.9878 -0.37444,-1.229 0,-0.7902 0.72362,-0.9648 1.03144,-0.9648 1.29563,0 1.47022,1.2727 1.51387,1.5575 0.13323,0.9235 0.35147,2.5247 0.43876,3.0277 z m 0.30553,2.0882 c 0.22053,1.6678 0.35147,2.7199 1.36224,4.0592 0.76727,0.9878 1.93196,1.8217 3.24826,1.8217 1.29563,0 2.28113,-0.7696 2.28113,-1.9756 0,-0.7466 -0.4158,-2.0859 -2.23748,-3.0278 -1.71143,-0.8775 -3.48947,-0.8798 -4.65415,-0.8798 v 0" /><path
       inkscape:connector-curvature="0"
       id="path412"
       style="fill:none;stroke:#231f20;stroke-width:2.49805498;stroke-linecap:butt;stroke-linejoin:bevel;stroke-miterlimit:22.92560005;stroke-dasharray:none;stroke-opacity:1"
       d="m 777.5918,1736.3324 42.1584,32.2919 v -74.5927 l -42.1584,-32.2919 z" /><path
       inkscape:connector-curvature="0"
       id="path414"
       style="fill:#231f20;fill-opacity:1;fill-rule:evenodd;stroke:none;stroke-width:0.22972099"
       d="m 643.32907,1887.4544 c 0,3.5354 -2.32478,5.9038 -5.59601,5.9038 -4.74144,0 -9.57017,-4.9827 -9.57017,-10.0963 0,-3.6433 2.45801,-5.8601 5.61897,-5.8601 4.65415,0 9.54721,4.8057 9.54721,10.0526 z m -9.41397,-9.4806 c -2.17316,0 -3.70999,1.7757 -3.70999,4.6748 0,0.9648 0.30552,4.1694 1.99627,6.7377 1.51616,2.2834 3.66635,3.4229 5.40074,3.4229 1.79872,0 3.77432,-1.2291 3.77432,-4.498 0,-1.5805 -0.59268,-5.0056 -2.76584,-7.7048 -1.05213,-1.3393 -2.85314,-2.6326 -4.6955,-2.6326 v 0" /><path
       inkscape:connector-curvature="0"
       id="path416"
       style="fill:#231f20;fill-opacity:1;fill-rule:evenodd;stroke:none;stroke-width:0.22972099"
       d="m 506.7898,1684.868 2.56828,2.8554 c 0.28485,0.3056 0.41579,0.4595 2.23748,0.4595 v 1.0314 h -4.2797 v -1.0314 c 0.30553,0 0.5697,-0.044 0.83388,-0.1976 -0.0873,-0.1309 -0.0873,-0.1769 -0.17458,-0.2642 l -1.84466,-2.0629 -2.15019,2.5247 h 0.87753 v 1.0314 h -5.06994 v -1.0314 h 1.55751 l 3.42514,-4.0385 -2.87611,-3.2276 c -0.37215,-0.4158 -1.16468,-0.4158 -2.21681,-0.4158 v -1.0314 h 4.282 v 1.0314 c -0.39741,0 -0.81551,0.1103 -0.81551,0.2412 0.002,0.023 0,0.044 0.15392,0.2205 l 2.12951,2.3914 2.41437,-2.8531 h -0.85686 v -1.0314 h 5.04927 v 1.0314 h -1.55751 l -3.68702,4.367" /><path
       inkscape:connector-curvature="0"
       id="path418"
       style="fill:#231f20;fill-opacity:1;fill-rule:evenodd;stroke:none;stroke-width:0.22972099"
       d="m 519.67714,1674.2021 c 0,0.067 0,0.1079 -0.37214,0.4824 -2.74287,2.7658 -3.44582,6.9146 -3.44582,10.2708 0,3.8203 0.83389,7.6382 3.53311,10.3834 0.28485,0.2642 0.28485,0.3078 0.28485,0.3721 0,0.1539 -0.085,0.2206 -0.21823,0.2206 -0.21824,0 -2.19384,-1.4932 -3.48946,-4.282 -1.11874,-2.4121 -1.38292,-4.8494 -1.38292,-6.6941 0,-1.7114 0.2412,-4.367 1.44954,-6.848 1.3163,-2.6992 3.20231,-4.1258 3.42284,-4.1258 0.13324,0 0.21823,0.067 0.21823,0.2206 v 0" /><path
       inkscape:connector-curvature="0"
       id="path420"
       style="fill:#231f20;fill-opacity:1;fill-rule:evenodd;stroke:none;stroke-width:0.22972099"
       d="m 530.85996,1690.4433 c 0,1.4496 -0.39512,4.5003 -2.6326,4.5003 -3.05299,0 -6.43219,-6.191 -6.43219,-11.2173 0,-2.0629 0.63633,-4.498 2.6326,-4.498 3.09664,0 6.43219,6.299 6.43219,11.215 z m -6.73772,-3.0047 c 0.37215,1.4036 0.81092,3.1586 1.68845,4.7161 0.59498,1.0751 1.4059,2.3064 2.3937,2.3064 1.07509,0 1.20833,-1.4058 1.20833,-2.6555 0,-1.0774 -0.17689,-2.1962 -0.70295,-4.3693 z m 4.38997,-0.703 c -0.2412,-1.0107 -0.70294,-2.8761 -1.53683,-4.4566 -0.76727,-1.4931 -1.60345,-2.5682 -2.54761,-2.5682 -0.72132,0 -1.18536,0.6363 -1.18536,2.6762 0,0.9235 0.13324,2.1961 0.70295,4.3463 h 4.56685" /><path
       inkscape:connector-curvature="0"
       id="path422"
       style="fill:#231f20;fill-opacity:1;fill-rule:evenodd;stroke:none;stroke-width:0.22972099"
       d="m 536.69028,1698.0609 c 0,0.2458 -0.18378,0.5835 -0.61335,0.5835 -0.4158,0 -0.86146,-0.3997 -0.86146,-0.8454 0,-0.2596 0.19986,-0.5835 0.61565,-0.5835 0.44566,0 0.85916,0.4319 0.85916,0.8454 z m -3.13339,-7.8036 c -0.062,-0.1999 -0.13784,-0.386 -0.13784,-0.6479 0,-0.719 0.61336,-1.3048 1.45873,-1.3048 1.53684,0 2.21222,2.1204 2.21222,2.3524 0,0.1998 -0.19986,0.1975 -0.24581,0.1975 -0.21364,0 -0.22972,-0.092 -0.29174,-0.2596 -0.35377,-1.229 -1.02915,-1.8607 -1.62872,-1.8607 -0.30783,0 -0.38364,0.1999 -0.38364,0.5398 0,0.3538 0.10797,0.6433 0.2458,0.981 0.15392,0.418 0.32161,0.8315 0.49161,1.229 0.13783,0.3698 0.69146,1.7688 0.75118,1.9526 0.0482,0.1539 0.0942,0.3377 0.0942,0.4916 0,0.7236 -0.61565,1.3071 -1.46103,1.3071 -1.52075,0 -2.22599,-2.0905 -2.22599,-2.3523 0,-0.1999 0.21364,-0.1999 0.25958,-0.1999 0.21594,0 0.23202,0.078 0.27796,0.2458 0.39742,1.3209 1.0751,1.8745 1.64251,1.8745 0.2481,0 0.38363,-0.1217 0.38363,-0.5375 0,-0.3515 -0.0919,-0.5835 -0.47552,-1.5368 l -0.96712,-2.4718" /><path
       inkscape:connector-curvature="0"
       id="path424"
       style="fill:#231f20;fill-opacity:1;fill-rule:evenodd;stroke:none;stroke-width:0.22972099"
       d="m 543.8346,1679.4902 c 0,1.4496 -0.54903,2.3064 -1.40359,2.3064 -0.72362,0 -1.16239,-0.5513 -1.16239,-1.1647 0,-0.5926 0.43647,-1.1623 1.16239,-1.1623 0.26188,0 0.54673,0.087 0.76727,0.2848 0.0666,0.044 0.0873,0.064 0.11026,0.064 0.023,0 0.0436,-0.021 0.0436,-0.3285 0,-1.6218 -0.76727,-2.9404 -1.49319,-3.664 -0.23891,-0.2412 -0.2412,-0.2872 -0.2412,-0.3515 0.002,-0.1539 0.11026,-0.2412 0.22053,-0.2412 0.24121,0 1.99627,1.6885 1.99627,4.2567 v 0" /><path
       inkscape:connector-curvature="0"
       id="path426"
       style="fill:#231f20;fill-opacity:1;fill-rule:evenodd;stroke:none;stroke-width:0.22972099"
       d="m 553.68504,1688.2495 h 2.0606 c 0.44106,0 0.6593,0 0.6593,0.4388 0,0.2412 -0.22054,0.2412 -0.61566,0.2412 h -1.92965 c 0.79024,3.1173 0.89821,3.556 0.89821,3.687 0,0.3744 -0.26188,0.5927 -0.63633,0.5927 -0.0643,0 -0.67997,-0.023 -0.87753,-0.7903 l -0.85457,-3.4894 h -2.06289 c -0.44107,0 -0.6593,0 -0.6593,-0.4181 0,-0.2619 0.17459,-0.2619 0.61336,-0.2619 h 1.93195 c -1.58048,-6.2346 -1.66778,-6.6091 -1.66778,-7.0042 0,-1.1831 0.83389,-2.017 2.01925,-2.017 2.23978,0 3.48946,3.2024 3.48946,3.3792 0,0.2206 -0.17458,0.2183 -0.26418,0.2183 -0.19756,0 -0.21823,-0.064 -0.3285,-0.3055 -0.94185,-2.2835 -2.10654,-2.8095 -2.85313,-2.8095 -0.46174,0 -0.67998,0.2848 -0.67998,1.0084 0,0.5284 0.0436,0.6823 0.13095,1.0545 l 1.62642,6.4758" /><path
       inkscape:connector-curvature="0"
       id="path428"
       style="fill:#231f20;fill-opacity:1;fill-rule:evenodd;stroke:none;stroke-width:0.22972099"
       d="m 563.4367,1684.9553 c 0,1.7137 -0.24351,4.367 -1.44954,6.8503 -1.3163,2.6992 -3.20461,4.1258 -3.42514,4.1258 -0.13094,0 -0.21824,-0.09 -0.21824,-0.2206 0.002,-0.064 0,-0.1102 0.41809,-0.5054 2.15019,-2.1708 3.40217,-5.6626 3.40217,-10.2501 0,-3.7514 -0.81321,-7.6153 -3.5354,-10.3811 -0.28256,-0.2642 -0.28486,-0.3078 -0.28486,-0.3721 0.002,-0.1333 0.0873,-0.2206 0.21824,-0.2206 0.22053,0 2.19613,1.4932 3.49176,4.2797 1.11874,2.4167 1.38292,4.8517 1.38292,6.6941 v 0" /><path
       inkscape:connector-curvature="0"
       id="path430"
       style="fill:none;stroke:#231f20;stroke-width:1.24902987;stroke-linecap:butt;stroke-linejoin:miter;stroke-miterlimit:22.92560005;stroke-dasharray:none;stroke-opacity:1"
       d="m 809.44262,1746.6744 22.44374,33.4635" /><path
       inkscape:connector-curvature="0"
       id="path432"
       style="fill:none;stroke:#231f20;stroke-width:1.24902987;stroke-linecap:butt;stroke-linejoin:miter;stroke-miterlimit:2.61313009;stroke-dasharray:none;stroke-opacity:1"
       d="M 896.39891,1950.453 651.46349,1873.0991" /><path
       inkscape:connector-curvature="0"
       id="path434"
       style="fill:#231f20;fill-opacity:1;fill-rule:evenodd;stroke:none;stroke-width:0.22972099"
       d="m 902.60827,1952.5343 -11.91793,-7.7531 c 1.10266,3.0071 0.33769,5.426 -2.29261,7.2569 l 14.21054,0.4962" /><path
       inkscape:connector-curvature="0"
       id="path436"
       style="fill:none;stroke:#231f20;stroke-width:2.49805498;stroke-linecap:butt;stroke-linejoin:bevel;stroke-miterlimit:22.92560005;stroke-dasharray:none;stroke-opacity:1"
       d="m 770.21546,1892.9309 c 66.90394,12.1224 146.06121,-9.4806 215.53113,-32.2207" /><path
       inkscape:connector-curvature="0"
       id="path438"
       style="fill:none;stroke:#231f20;stroke-width:2.49805498;stroke-linecap:butt;stroke-linejoin:bevel;stroke-miterlimit:22.92560005;stroke-dasharray:none;stroke-opacity:1"
       d="m 786.96442,1995.6598 c 117.29095,7.335 179.66939,-21.6672 257.27608,-48.9558" /><path
       inkscape:connector-curvature="0"
       id="path440"
       style="fill:none;stroke:#231f20;stroke-width:2.49805498;stroke-linecap:butt;stroke-linejoin:bevel;stroke-miterlimit:22.92560005;stroke-dasharray:none;stroke-opacity:1"
       d="m 756.44369,1948.76 c 81.56014,14.7802 162.73665,-9.0074 239.97344,-32.2023" /><path
       inkscape:connector-curvature="0"
       id="path442"
       style="fill:none;stroke:#231f20;stroke-width:1.24902987;stroke-linecap:butt;stroke-linejoin:bevel;stroke-miterlimit:22.92560005;stroke-dasharray:6.24514916, 6.24514916;stroke-dashoffset:0;stroke-opacity:1"
       d="m 787.93384,1994.9385 13.56503,-54.1843" /><path
       inkscape:connector-curvature="0"
       id="path444"
       style="fill:none;stroke:#231f20;stroke-width:1.24902987;stroke-linecap:butt;stroke-linejoin:bevel;stroke-miterlimit:22.92560005;stroke-dasharray:6.24514916, 6.24514916;stroke-dashoffset:0;stroke-opacity:1"
       d="m 801.54711,1941.5031 c 106.48946,-1.3071 156.4423,-17.7505 233.50909,-50.9797" /><path
       inkscape:connector-curvature="0"
       id="path446"
       style="fill:none;stroke:#231f20;stroke-width:1.24902987;stroke-linecap:butt;stroke-linejoin:bevel;stroke-miterlimit:22.92560005;stroke-dasharray:6.24514916, 6.24514916;stroke-dashoffset:0;stroke-opacity:1"
       d="m 771.18488,1894.9984 30.31399,45.7558" /><path
       inkscape:connector-curvature="0"
       id="path448"
       style="fill:none;stroke:#231f20;stroke-width:1.24902987;stroke-linecap:butt;stroke-linejoin:bevel;stroke-miterlimit:22.92560005;stroke-dasharray:6.24514916, 6.24514916;stroke-dashoffset:0;stroke-opacity:1"
       d="m 914.34012,1987.3738 1.1555,-53.2953" /><path
       inkscape:connector-curvature="0"
       id="path450"
       style="fill:none;stroke:#231f20;stroke-width:1.24902987;stroke-linecap:butt;stroke-linejoin:bevel;stroke-miterlimit:22.92560005;stroke-dasharray:6.24514916, 6.24514916;stroke-dashoffset:0;stroke-opacity:1"
       d="m 874.41231,1890.7899 39.02501,38.0992" /><path
       inkscape:connector-curvature="0"
       id="path452"
       style="fill:none;stroke:#231f20;stroke-width:1.24902987;stroke-linecap:butt;stroke-linejoin:miter;stroke-miterlimit:2.61313009;stroke-dasharray:none;stroke-opacity:1"
       d="m 863.91866,1903.0708 27.1645,26.0963" /><path
       inkscape:connector-curvature="0"
       id="path454"
       style="fill:#231f20;fill-opacity:1;fill-rule:evenodd;stroke:none;stroke-width:0.22972099"
       d="m 859.27599,1898.4511 7.24311,12.2349 c 0.34688,-3.1862 2.10424,-5.0148 5.2721,-5.488 l -12.51521,-6.7469" /><path
       inkscape:connector-curvature="0"
       id="path456"
       style="fill:none;stroke:#231f20;stroke-width:1.24902987;stroke-linecap:butt;stroke-linejoin:miter;stroke-miterlimit:2.61313009;stroke-dasharray:none;stroke-opacity:1"
       d="m 889.33728,1976.4506 0.91889,-47.9842" /><path
       inkscape:connector-curvature="0"
       id="path458"
       style="fill:#231f20;fill-opacity:1;fill-rule:evenodd;stroke:none;stroke-width:0.22972099"
       d="m 889.09608,1982.993 4.06836,-13.6224 c -2.57518,1.9067 -5.1113,1.8561 -7.61066,-0.1471 l 3.5423,13.7695" /><path
       inkscape:connector-curvature="0"
       id="path460"
       style="fill:none;stroke:#231f20;stroke-width:1.24902987;stroke-linecap:butt;stroke-linejoin:bevel;stroke-miterlimit:22.92560005;stroke-dasharray:none;stroke-opacity:1"
       d="m 744.27537,1926.9135 c 94.6014,21.2079 204.08643,-3.3447 289.15673,-55.0021" /><path
       inkscape:connector-curvature="0"
       id="path462"
       style="fill:none;stroke:#ffffff;stroke-width:4.37159061;stroke-linecap:butt;stroke-linejoin:bevel;stroke-miterlimit:22.92560005;stroke-dasharray:none;stroke-opacity:1"
       d="m 762.30846,1923.8812 -2.83705,11.2977" /><path
       inkscape:connector-curvature="0"
       id="path464"
       style="fill:none;stroke:#ffffff;stroke-width:4.37159061;stroke-linecap:butt;stroke-linejoin:bevel;stroke-miterlimit:22.92560005;stroke-dasharray:none;stroke-opacity:1"
       d="m 992.77376,1900.4566 -2.27424,-11.6285 z" /><path
       inkscape:connector-curvature="0"
       id="path466"
       style="fill:#231f20;fill-opacity:1;fill-rule:evenodd;stroke:none;stroke-width:0.22972099"
       d="m 905.20871,1956.5521 c 2.06979,0 3.74905,-1.6792 3.74905,-3.7467 0,-2.0698 -1.67926,-3.7491 -3.74905,-3.7491 -2.06979,0 -3.74675,1.6793 -3.74675,3.7491 0,2.0675 1.67696,3.7467 3.74675,3.7467" /><path
       inkscape:connector-curvature="0"
       id="path468"
       style="fill:none;stroke:#231f20;stroke-width:2.49805498;stroke-linecap:butt;stroke-linejoin:bevel;stroke-miterlimit:22.92560005;stroke-dasharray:none;stroke-opacity:1"
       d="m 770.13736,1892.6851 -13.93258,55.5121 31.36151,48.0691" /><path
       inkscape:connector-curvature="0"
       id="path470"
       style="fill:none;stroke:#ffffff;stroke-width:2.49805498;stroke-linecap:butt;stroke-linejoin:bevel;stroke-miterlimit:22.92560005;stroke-dasharray:none;stroke-opacity:1"
       d="m 873.46356,1924.0994 -0.18837,10.7854" /><path
       inkscape:connector-curvature="0"
       id="path472"
       style="fill:none;stroke:#231f20;stroke-width:1.24902987;stroke-linecap:butt;stroke-linejoin:bevel;stroke-miterlimit:22.92560005;stroke-dasharray:none;stroke-opacity:1"
       d="m 874.04706,1890.7922 -1.00159,57.2235 41.43248,39.7211" /><path
       inkscape:connector-curvature="0"
       id="path474"
       style="fill:none;stroke:#231f20;stroke-width:2.49805498;stroke-linecap:butt;stroke-linejoin:bevel;stroke-miterlimit:22.92560005;stroke-dasharray:none;stroke-opacity:1"
       d="m 995.91634,1916.5278 48.82256,30.1785 -10.9852,-56.1691 -48.82262,-30.1784 z" /><path
       inkscape:connector-curvature="0"
       id="path476"
       style="fill:none;stroke:#ffffff;stroke-width:3.12257457;stroke-linecap:butt;stroke-linejoin:bevel;stroke-miterlimit:22.92560005;stroke-dasharray:none;stroke-opacity:1"
       d="m 1014.7512,1882.6095 c 2.2788,-1.2313 4.5438,-2.4787 6.7928,-3.7467" /><path
       inkscape:connector-curvature="0"
       id="path478"
       style="fill:none;stroke:#231f20;stroke-width:1.24902987;stroke-linecap:butt;stroke-linejoin:bevel;stroke-miterlimit:22.92560005;stroke-dasharray:none;stroke-opacity:1"
       d="m 1007.1704,1886.5998 c 8.9729,-4.6105 17.739,-9.5151 26.2617,-14.6884" /><path
       inkscape:connector-curvature="0"
       id="path480"
       style="fill:none;stroke:#ffffff;stroke-width:2.49805498;stroke-linecap:butt;stroke-linejoin:bevel;stroke-miterlimit:22.92560005;stroke-dasharray:none;stroke-opacity:1"
       d="m 889.72551,1927.2673 c 14.43567,-2.7819 28.77715,-6.3311 42.90499,-10.5901" /><path
       inkscape:connector-curvature="0"
       id="path482"
       style="fill:none;stroke:#231f20;stroke-width:1.24902987;stroke-linecap:butt;stroke-linejoin:miter;stroke-miterlimit:2.61313009;stroke-dasharray:none;stroke-opacity:1"
       d="m 929.80034,1919.3511 -39.80146,8.3044" /><path
       inkscape:connector-curvature="0"
       id="path484"
       style="fill:#231f20;fill-opacity:1;fill-rule:evenodd;stroke:none;stroke-width:0.22972099"
       d="m 936.23483,1918.1244 -14.18757,-0.9258 c 2.43274,2.0836 2.95191,4.5669 1.55291,7.4499 l 12.63466,-6.5241" /><path
       inkscape:connector-curvature="0"
       id="path486"
       style="fill:#231f20;fill-opacity:1;fill-rule:evenodd;stroke:none;stroke-width:0.22972099"
       d="m 890.35265,1931.5769 c 2.06749,0 3.74675,-1.677 3.74675,-3.7468 0,-2.0675 -1.67926,-3.7467 -3.74675,-3.7467 -2.06978,0 -3.74675,1.6792 -3.74675,3.7467 0,2.0698 1.67697,3.7468 3.74675,3.7468" /><path
       inkscape:connector-curvature="0"
       id="path488"
       style="fill:#231f20;fill-opacity:1;fill-rule:evenodd;stroke:none;stroke-width:0.22972099"
       d="m 726.20321,1912.6157 3.68932,4.8494 c 0.24121,0.3078 0.26418,0.3285 1.03145,0.3951 0.52606,0.067 0.657,0.067 1.27265,0.067 h 0.63633 v 1.0315 h -6.27827 v -1.0315 c 0.39741,0 1.25198,0 2.01924,-0.2412 -0.0207,-0.044 -0.13094,-0.1768 -0.17458,-0.2412 l -2.89679,-3.8409 -3.14028,4.3233 h 1.82398 v 1.0315 h -7.53025 v -1.0315 h 2.15249 l 4.87238,-6.7377 -4.43362,-5.8165 c -0.19756,-0.2642 -0.2412,-0.3078 -0.94415,-0.3745 -0.43877,-0.044 -0.90051,-0.064 -1.33927,-0.064 h -0.63633 v -1.0337 h 6.27827 v 1.0337 c -0.39512,0 -1.25198,0 -2.01924,0.2389 0.0207,0.046 0.13094,0.1769 0.17458,0.2412 l 3.62041,4.8081 3.82026,-5.2882 h -1.82169 v -1.0337 h 7.52796 v 1.0337 h -2.15019 l -5.55466,7.6819" /><path
       inkscape:connector-curvature="0"
       id="path490"
       style="fill:#231f20;fill-opacity:1;fill-rule:evenodd;stroke:none;stroke-width:0.22972099"
       d="m 798.17021,1703.5099 c 0,1.4495 -0.39512,4.4979 -2.6349,4.4979 -3.0507,0 -6.43219,-6.1887 -6.43219,-11.215 0,-2.0629 0.63633,-4.5002 2.6349,-4.5002 3.09434,0 6.43219,6.3012 6.43219,11.2173 z m -6.74002,-3.0071 c 0.37445,1.4059 0.81322,3.161 1.69075,4.7185 0.59268,1.0751 1.40589,2.3041 2.3914,2.3041 1.07739,0 1.20833,-1.4036 1.20833,-2.6556 0,-1.0751 -0.17459,-2.1938 -0.70295,-4.367 z m 4.38997,-0.7029 c -0.2412,-1.0085 -0.70294,-2.8761 -1.53453,-4.4543 -0.76957,-1.4932 -1.60346,-2.5683 -2.54761,-2.5683 -0.72362,0 -1.18536,0.6363 -1.18536,2.6762 0,0.9235 0.13094,2.1962 0.70295,4.3464 h 4.56455" /><path
       inkscape:connector-curvature="0"
       id="path492"
       style="fill:#231f20;fill-opacity:1;fill-rule:evenodd;stroke:none;stroke-width:0.22972099"
       d="m 803.83053,1711.727 c 0.0161,0.03 0.062,0.2297 0.062,0.2458 0,0.076 -0.062,0.2136 -0.2458,0.2136 -0.30783,0 -1.58278,-0.1217 -1.96641,-0.1516 -0.12176,-0.016 -0.33769,-0.032 -0.33769,-0.3538 0,-0.2159 0.21364,-0.2159 0.39971,-0.2159 0.7374,0 0.73511,-0.108 0.73511,-0.2297 0.002,-0.108 -0.0299,-0.1999 -0.0597,-0.34 l -2.16627,-8.695 c -0.0781,-0.2756 -0.0781,-0.3078 -0.0781,-0.3376 0,-0.2298 0.18377,-0.4916 0.52376,-0.4916 0.4135,0 0.61335,0.3078 0.70524,0.6455 0.0322,0.062 0.69146,2.7658 0.75349,2.9818 1.09117,-0.108 1.96641,-0.4618 1.96641,-1.2612 0,-0.076 0,-0.1539 -0.0299,-0.3078 -0.062,-0.2298 -0.062,-0.3079 -0.062,-0.4756 0,-1.0911 0.89132,-1.5827 1.62872,-1.5827 1.49089,0 1.95263,2.3339 1.95263,2.35 0,0.2022 -0.19986,0.1999 -0.2481,0.1999 -0.21364,0 -0.22972,-0.076 -0.30553,-0.3676 -0.18377,-0.6616 -0.59957,-1.7528 -1.35305,-1.7528 -0.4135,0 -0.53755,0.386 -0.53755,0.7995 0,0.2618 0,0.2917 0.0919,0.6914 0.0161,0.046 0.0781,0.3078 0.0781,0.4755 0,1.3692 -1.84466,1.5828 -2.49017,1.6288 0.44566,0.2779 1.01537,0.7833 1.27495,1.0153 0.78335,0.7374 1.55291,1.4588 2.41207,1.4588 0.18378,0 0.38593,-0.046 0.50768,-0.1999 -0.6593,-0.1057 -0.79943,-0.6294 -0.79943,-0.8592 0,-0.3376 0.26189,-0.5697 0.61566,-0.5697 0.41349,0 0.87523,0.3377 0.87523,0.9832 0,0.5077 -0.36985,1.0751 -1.18306,1.0751 -0.87524,0 -1.67467,-0.6294 -2.45801,-1.3507 -0.64552,-0.6134 -1.15091,-1.0912 -1.78264,-1.3531 l 1.52075,6.1313" /><path
       inkscape:connector-curvature="0"
       id="path494"
       style="fill:#231f20;fill-opacity:1;fill-rule:evenodd;stroke:none;stroke-width:0.22972099"
       d="m 683.76456,1791.8353 c 0,0.4135 -0.0322,0.4296 -0.46404,0.4296 -0.98091,-0.9672 -2.37991,-0.9832 -3.00935,-0.9832 v -0.5537 c 0.36756,0 1.38063,0 2.2283,0.4296 v -7.8335 c 0,-0.5077 0,-0.7098 -1.53683,-0.7098 h -0.5835 v -0.5536 h 5.48344 v 0.5536 h -0.58349 c -1.53453,0 -1.53683,0.1998 -1.53683,0.7052 l 0.002,8.5135" /><path
       inkscape:connector-curvature="0"
       id="path496"
       style="fill:#231f20;fill-opacity:1;fill-rule:evenodd;stroke:none;stroke-width:0.22972099"
       d="m 648.47482,1688.6952 h -0.52377 c -0.0459,-0.3377 -0.19985,-1.2451 -0.39971,-1.399 -0.12405,-0.092 -1.30711,-0.092 -1.52075,-0.092 h -2.82787 c 1.61264,1.4288 2.15249,1.8584 3.07367,2.582 1.13712,0.9074 2.19843,1.8585 2.19843,3.3172 0,1.8607 -1.62873,2.9956 -3.59743,2.9956 -1.90439,0 -3.19542,-1.337 -3.19542,-2.7498 0,-0.7833 0.66159,-0.8592 0.81551,-0.8592 0.36755,0 0.81321,0.2596 0.81321,0.8133 0,0.2779 -0.10797,0.8155 -0.9074,0.8155 0.47782,1.0911 1.52305,1.4288 2.24437,1.4288 1.53684,0 2.33397,-1.1991 2.33397,-2.4442 0.002,-1.3347 -0.95104,-2.396 -1.44265,-2.9496 l -3.7031,-3.6572 c -0.15391,-0.1378 -0.15391,-0.1677 -0.15391,-0.5996 h 6.33111 l 0.46174,2.7981" /><path
       inkscape:connector-curvature="0"
       id="path498"
       style="fill:#231f20;fill-opacity:1;fill-rule:evenodd;stroke:none;stroke-width:0.22972099"
       d="m 766.57668,1723.6059 c 1.19914,0 2.0583,-0.8293 2.0583,-2.4741 0,-1.9044 -1.10496,-2.4718 -1.99628,-2.4718 -0.61335,0 -1.96641,0.1677 -2.61192,1.0751 0.72362,0.03 0.89131,0.5375 0.89131,0.8591 0,0.4916 -0.36985,0.8454 -0.84537,0.8454 -0.43187,0 -0.86145,-0.2596 -0.86145,-0.8913 0,-1.4427 1.59886,-2.3799 3.4573,-2.3799 2.1364,0 3.61121,1.4288 3.61121,2.9634 0,1.1991 -0.9832,2.3982 -2.67395,2.752 1.61494,0.5835 2.19843,1.7344 2.19843,2.6717 0,1.2152 -1.399,2.1203 -3.10353,2.1203 -1.70683,0 -3.01164,-0.8293 -3.01164,-2.0583 0,-0.5215 0.33769,-0.8132 0.79713,-0.8132 0.47782,0 0.78564,0.3515 0.78564,0.7833 0,0.4457 -0.30782,0.7673 -0.78564,0.7995 0.53755,0.6753 1.59886,0.843 2.16627,0.843 0.69376,0 1.66088,-0.3377 1.66088,-1.6746 0,-0.6432 -0.21594,-1.3508 -0.61335,-1.8263 -0.50769,-0.5858 -0.93956,-0.6157 -1.70683,-0.6616 -0.38364,-0.032 -0.4158,-0.032 -0.4916,-0.046 -0.0299,0 -0.15392,-0.032 -0.15392,-0.1998 0,-0.2159 0.13784,-0.2159 0.39972,-0.2159 h 0.82929" /><g
       id="g500"
       transform="scale(0.229721)"><g
         clip-path="url(#clipPath506)"
         id="g502"><g
           transform="matrix(78.0301,0,0,-4.83627,3565.19,7334.06)"
           id="g508"><rect
             id="rect510"
             style="fill:#231f20;fill-opacity:1;fill-rule:nonzero"
             transform="matrix(1,0,0,-1,0,1)"
             height="1"
             width="1"
             y="0"
             x="0" /></g></g></g><path
       inkscape:connector-curvature="0"
       id="path512"
       style="fill:#231f20;fill-opacity:1;fill-rule:evenodd;stroke:none;stroke-width:0.22972099"
       d="m 822.51145,1667.7032 c -0.21824,-0.8568 -0.26189,-1.0314 -1.99628,-1.0314 -0.37444,0 -0.59268,0 -0.59268,-0.4388 0,-0.2435 0.19756,-0.2435 0.59268,-0.2435 h 7.83578 c 3.46649,0 6.05775,2.5913 6.05775,4.7415 0,1.5804 -1.27266,2.8531 -3.40217,3.0943 2.28343,0.4181 4.58753,2.0422 4.58753,4.1281 0,1.6241 -1.44954,3.0277 -4.08215,3.0277 h -7.37634 c -0.41579,0 -0.63632,0 -0.63632,-0.4387 0,-0.2413 0.19756,-0.2413 0.61565,-0.2413 0.0436,0 0.45944,0 0.83389,-0.044 0.39512,-0.044 0.59268,-0.067 0.59268,-0.3515 0,-0.087 -0.023,-0.1539 -0.0873,-0.4158 z m 3.31487,6.322 1.36225,5.4421 c 0.19756,0.7695 0.23891,0.8338 1.18306,0.8338 h 2.83246 c 1.93195,0 2.39139,-1.2956 2.39139,-2.2604 0,-1.932 -1.88601,-4.0178 -4.56455,-4.0178 z m -0.9878,-7.3534 c -0.30783,0 -0.35147,0 -0.48241,0.021 -0.22054,0.023 -0.28486,0.044 -0.28486,0.2205 0,0.067 0,0.1103 0.10797,0.5054 l 1.51616,6.1244 h 4.14646 c 2.10884,0 2.52464,-1.6242 2.52464,-2.5706 0,-2.1732 -1.95263,-4.3004 -4.54159,-4.3004 h -2.98637" /><path
       inkscape:connector-curvature="0"
       id="path514"
       style="fill:#231f20;fill-opacity:1;fill-rule:evenodd;stroke:none;stroke-width:0.22972099"
       d="m 854.93427,1987.0545 v -12.9953 h -2.37072 v -1.0315 h 9.45991 c 4.32335,0 7.61755,2.6992 7.61755,7.397 0,4.8288 -3.2942,7.6589 -7.64052,7.6589 h -9.43694 v -1.0291 z m 2.98407,-12.9953 v 12.9953 h 3.20461 c 1.44954,0 3.27123,-0.4181 4.34632,-1.9549 0.76727,-1.1188 0.94416,-2.612 0.94416,-4.6542 0,-2.3914 -0.26189,-3.5561 -0.96483,-4.5416 -1.05442,-1.4932 -2.98637,-1.8446 -4.32565,-1.8446 h -3.20461" /><path
       inkscape:connector-curvature="0"
       id="path516"
       style="fill:#231f20;fill-opacity:1;fill-rule:evenodd;stroke:none;stroke-width:0.22972099"
       d="m 876.1536,1979.6276 c 0,0.4135 -0.0299,0.4296 -0.46174,0.4296 -0.98321,-0.9671 -2.37991,-0.9832 -3.00935,-0.9832 v -0.5536 c 0.36756,0 1.38063,0 2.226,0.4295 v -7.8358 c 0,-0.5053 0,-0.7075 -1.53454,-0.7075 h -0.58579 v -0.5536 h 5.48574 v 0.5536 h -0.58349 c -1.53683,0 -1.53683,0.1999 -1.53683,0.7052 v 8.5135" /><path
       inkscape:connector-curvature="0"
       id="path518"
       style="fill:#231f20;fill-opacity:1;fill-rule:evenodd;stroke:none;stroke-width:0.22972099"
       d="m 832.37107,1920.6582 v -12.993 h -2.37072 v -1.0337 h 9.45991 c 4.32335,0 7.61525,2.7015 7.61525,7.397 0,4.831 -3.2919,7.6612 -7.63822,7.6612 h -9.43694 v -1.0315 z m 2.98408,-12.993 v 12.993 h 3.20461 c 1.44953,0 3.27122,-0.4181 4.34632,-1.9549 0.76956,-1.1187 0.94415,-2.6119 0.94415,-4.6518 0,-2.3937 -0.26188,-3.5561 -0.96483,-4.5439 -1.05442,-1.4932 -2.98637,-1.8447 -4.32564,-1.8447 h -3.20461" /><path
       inkscape:connector-curvature="0"
       id="path520"
       style="fill:#231f20;fill-opacity:1;fill-rule:evenodd;stroke:none;stroke-width:0.22972099"
       d="m 856.20233,1906.257 h -0.52147 c -0.0459,-0.3377 -0.19986,-1.2451 -0.39971,-1.399 -0.12405,-0.092 -1.30482,-0.092 -1.52076,-0.092 h -2.82786 c 1.61494,1.4289 2.15248,1.8585 3.07367,2.5798 1.13711,0.9074 2.19613,1.8607 2.19613,3.3195 0,1.8584 -1.62872,2.9978 -3.59514,2.9978 -1.90438,0 -3.19541,-1.3392 -3.19541,-2.752 0,-0.7834 0.66159,-0.8592 0.8155,-0.8592 0.36756,0 0.81322,0.2596 0.81322,0.8132 0,0.2757 -0.10797,0.8155 -0.9074,0.8155 0.47782,1.0912 1.52305,1.4266 2.24437,1.4266 1.53684,0 2.33627,-1.1968 2.33627,-2.4419 0,-1.337 -0.95335,-2.3983 -1.44495,-2.9497 l -3.7031,-3.6571 c -0.15391,-0.1378 -0.15391,-0.17 -0.15391,-0.5996 h 6.33111 l 0.45944,2.798" /><path
       inkscape:connector-curvature="0"
       id="path522"
       style="fill:#231f20;fill-opacity:1;fill-rule:evenodd;stroke:none;stroke-width:0.22972099"
       d="m 909.7411,1909.7947 v -12.9953 h -2.37072 v -1.0314 h 9.45762 c 4.32564,0 7.61755,2.6992 7.61755,7.397 0,4.8287 -3.29191,7.6589 -7.63823,7.6589 h -9.43694 v -1.0292 z m 2.98408,-12.9953 v 12.9953 h 3.20461 c 1.44954,0 3.27122,-0.4204 4.34632,-1.9549 0.76727,-1.1187 0.94186,-2.6119 0.94186,-4.6542 0,-2.3913 -0.26189,-3.556 -0.96483,-4.5415 -1.05213,-1.4932 -2.98408,-1.847 -4.32335,-1.847 h -3.20461" /><path
       inkscape:connector-curvature="0"
       id="path524"
       style="fill:#231f20;fill-opacity:1;fill-rule:evenodd;stroke:none;stroke-width:0.22972099"
       d="m 930.00709,1897.7275 c 1.19914,0 2.0583,-0.8316 2.0583,-2.4741 0,-1.9044 -1.10496,-2.4741 -1.99627,-2.4741 -0.61336,0 -1.96642,0.1677 -2.61193,1.0751 0.72132,0.032 0.89132,0.5375 0.89132,0.8614 0,0.4916 -0.36986,0.8431 -0.84538,0.8431 -0.42958,0 -0.86145,-0.2596 -0.86145,-0.889 0,-1.445 1.59886,-2.3822 3.4573,-2.3822 2.1364,0 3.61121,1.4288 3.61121,2.9657 0,1.1968 -0.9832,2.396 -2.67395,2.7497 1.61494,0.5835 2.19843,1.7367 2.19843,2.674 0,1.2129 -1.399,2.1203 -3.10353,2.1203 -1.70683,0 -3.01164,-0.8316 -3.01164,-2.0606 0,-0.5214 0.33769,-0.8132 0.79713,-0.8132 0.47782,0 0.78565,0.3538 0.78565,0.7834 0,0.4456 -0.30783,0.7672 -0.78565,0.7994 0.53755,0.6777 1.59886,0.8454 2.16627,0.8454 0.69376,0 1.66088,-0.3377 1.66088,-1.6747 0,-0.6455 -0.21594,-1.3531 -0.61565,-1.8286 -0.50539,-0.5835 -0.93726,-0.6156 -1.70453,-0.6616 -0.38363,-0.03 -0.4158,-0.03 -0.4916,-0.046 -0.0299,0 -0.15392,-0.03 -0.15392,-0.1999 0,-0.2136 0.13784,-0.2136 0.39972,-0.2136 h 0.82929" /><path
       inkscape:connector-curvature="0"
       id="path526"
       style="fill:#231f20;fill-opacity:1;fill-rule:evenodd;stroke:none;stroke-width:0.22972099"
       d="m 1019.3479,1860.3036 c 0.2205,-0.021 0.2619,-0.023 0.526,-0.023 3.9742,0 7.7922,2.9427 7.7922,6.6527 0,1.8653 -1.0521,3.4458 -3.0277,3.4458 -3.4688,0 -5.1159,-4.5669 -6.3013,-7.9024 -2.5889,0.2848 -3.9052,1.0544 -3.9052,2.458 0,0.5054 0.526,2.9634 1.886,4.5232 0.3078,0.3078 0.3078,0.3492 0.3078,0.4388 0,0.3078 -0.3078,0.3078 -0.5054,0.3078 -0.3515,0 -0.3721,-0.023 -0.7443,-0.4181 -1.4495,-1.7321 -2.0192,-4.3256 -2.0192,-5.1572 0,-2.0422 1.6677,-3.5791 4.2797,-4.1051 -0.2206,-0.68 -0.572,-1.6908 -0.9005,-2.612 -0.154,-0.3951 -0.3722,-0.9878 -0.3722,-1.229 0,-0.7902 0.7213,-0.9671 1.0292,-0.9671 1.2956,0 1.4725,1.275 1.5161,1.5598 0.131,0.9212 0.3515,2.5223 0.4388,3.0277 z m 0.3078,2.0859 c 0.2182,1.6678 0.3515,2.7199 1.36,4.0615 0.7672,0.9878 1.9319,1.8217 3.2482,1.8217 1.2956,0 2.2834,-0.7696 2.2834,-1.9756 0,-0.7466 -0.4158,-2.0859 -2.2397,-3.0301 -1.7115,-0.8775 -3.4895,-0.8775 -4.6542,-0.8775 v 0" /><path
       inkscape:connector-curvature="0"
       id="path528"
       style="fill:#231f20;fill-opacity:1;fill-rule:evenodd;stroke:none;stroke-width:0.22972099"
       d="m 1036.5333,1860.0716 c 0,1.6908 -0.1998,2.9037 -0.9051,3.9788 -0.4755,0.7075 -1.4289,1.3209 -2.6579,1.3209 -3.5652,0 -3.5652,-4.1947 -3.5652,-5.2997 0,-1.1072 0,-5.2101 3.5652,-5.2101 3.563,0 3.563,4.1029 3.563,5.2101 z m -3.563,-4.7782 c -0.7075,0 -1.6471,0.4135 -1.9526,1.6747 -0.2136,0.9051 -0.2136,2.1663 -0.2136,3.3034 0,1.121 0,2.288 0.2297,3.1334 0.3216,1.2152 1.3048,1.5368 1.9365,1.5368 0.827,0 1.6265,-0.5077 1.9044,-1.399 0.2458,-0.8293 0.2596,-1.9343 0.2596,-3.2712 0,-1.1371 0,-2.2743 -0.1998,-3.2437 -0.3056,-1.3967 -1.3508,-1.7344 -1.9642,-1.7344 v 0" /><path
       inkscape:connector-curvature="0"
       id="path530"
       style="fill:#231f20;fill-opacity:1;fill-rule:evenodd;stroke:none;stroke-width:0.22972099"
       d="m 463.81129,1905.3979 2.56828,2.8531 c 0.28716,0.3078 0.4181,0.4617 2.23978,0.4617 v 1.0315 h -4.2797 v -1.0315 c 0.30783,0 0.56971,-0.044 0.83389,-0.1975 -0.0873,-0.1333 -0.0873,-0.1769 -0.17689,-0.2642 l -1.84236,-2.0629 -2.15019,2.5246 h 0.87754 v 1.0315 h -5.06995 v -1.0315 h 1.55751 l 3.42285,-4.0385 -2.87381,-3.2275 c -0.37445,-0.4158 -1.16469,-0.4158 -2.21681,-0.4158 v -1.0338 h 4.2797 v 1.0338 c -0.39512,0 -0.81321,0.1079 -0.81321,0.2412 0,0.021 0,0.044 0.15391,0.2182 l 2.12952,2.3937 2.41436,-2.8531 h -0.85456 v -1.0338 h 5.04697 v 1.0338 h -1.55751 l -3.68932,4.367" /><path
       inkscape:connector-curvature="0"
       id="path532"
       style="fill:#231f20;fill-opacity:1;fill-rule:evenodd;stroke:none;stroke-width:0.22972099"
       d="m 476.70324,1894.7319 c 0,0.064 -0.002,0.108 -0.37445,0.4824 -2.74287,2.7659 -3.44581,6.9123 -3.44581,10.2709 0,3.8202 0.83388,7.6382 3.5331,10.3833 0.28716,0.2642 0.28486,0.3056 0.28486,0.3722 0.002,0.1539 -0.0873,0.2182 -0.21824,0.2182 -0.22053,0 -2.19383,-1.4909 -3.49176,-4.2774 -1.11644,-2.4143 -1.38292,-4.8517 -1.38292,-6.6963 0.002,-1.7115 0.24351,-4.367 1.44954,-6.848 1.3186,-2.6992 3.20461,-4.1258 3.42514,-4.1258 0.13094,0 0.21824,0.067 0.21824,0.2182 h 0.002" /><path
       inkscape:connector-curvature="0"
       id="path534"
       style="fill:#231f20;fill-opacity:1;fill-rule:evenodd;stroke:none;stroke-width:0.22972099"
       d="m 485.49236,1917.8212 h 7.92269 v 0.6802 h -7.92269 z" /><path
       inkscape:connector-curvature="0"
       id="path536"
       style="fill:#231f20;fill-opacity:1;fill-rule:evenodd;stroke:none;stroke-width:0.22972099"
       d="m 481.82601,1902.5241 c -0.87753,-1.4726 -1.73439,-1.7804 -2.69922,-1.8447 -0.26418,-0.021 -0.46174,-0.023 -0.46174,-0.4388 0,-0.1309 0.11027,-0.2435 0.28486,-0.2435 h 4.08444 c 0.13094,0 0.41579,0 0.41579,0.4181 0,0.2435 -0.19756,0.2642 -0.35147,0.2642 -0.50309,0.044 -1.03145,0.2182 -1.03145,0.7673 0,0.2641 0.13094,0.5053 0.30783,0.8132 l 1.66777,2.8095 h 5.50871 c 0.046,-0.4618 0.35147,-3.4482 0.35147,-3.6664 0,-0.657 -1.14171,-0.7236 -1.58048,-0.7236 -0.30782,0 -0.52606,0 -0.52606,-0.4388 0,-0.2435 0.26188,-0.2435 0.30783,-0.2435 h 5.22385 c 0.13095,0 0.39512,0 0.39512,0.4411 0,0.2412 -0.22053,0.2412 -0.50538,0.2412 -1.35995,0 -1.35995,0.1539 -1.42657,0.7902 l -1.33927,13.719 c -0.0437,0.4387 -0.0437,0.526 -0.41809,0.526 -0.35148,0 -0.43877,-0.1539 -0.56971,-0.3744 z m 2.6349,3.2252 4.32335,7.2431 0.70295,-7.2431 h -5.0263" /><path
       inkscape:connector-curvature="0"
       id="path538"
       style="fill:#231f20;fill-opacity:1;fill-rule:evenodd;stroke:none;stroke-width:0.22972099"
       d="m 499.00685,1900.0201 c 0,1.4495 -0.54674,2.3041 -1.4036,2.3041 -0.72362,0 -1.16239,-0.549 -1.16239,-1.1624 0,-0.5927 0.43877,-1.1647 1.16239,-1.1647 0.26418,0 0.54904,0.09 0.76727,0.2872 0.0666,0.044 0.0896,0.067 0.11256,0.067 0.0207,0 0.0414,-0.023 0.0414,-0.3308 0.002,-1.6218 -0.76726,-2.9404 -1.49089,-3.6641 -0.2412,-0.2412 -0.2412,-0.2871 -0.2412,-0.3537 0,-0.1516 0.10797,-0.2389 0.21823,-0.2389 0.24121,0 1.99628,1.6884 1.99628,4.2567 v 0" /><path
       inkscape:connector-curvature="0"
       id="path540"
       style="fill:#231f20;fill-opacity:1;fill-rule:evenodd;stroke:none;stroke-width:0.22972099"
       d="m 508.85728,1908.7794 h 2.0629 c 0.43877,0 0.6593,0 0.6593,0.4387 0,0.2412 -0.22053,0.2412 -0.61565,0.2412 h -1.93196 c 0.79024,3.115 0.90051,3.5538 0.90051,3.6871 0,0.3744 -0.26418,0.5926 -0.63633,0.5926 -0.0666,0 -0.68227,-0.023 -0.87753,-0.7902 l -0.85686,-3.4895 h -2.0629 c -0.43876,0 -0.6593,0 -0.6593,-0.4181 0,-0.2618 0.17689,-0.2641 0.61566,-0.2641 h 1.93195 c -1.58048,-6.2347 -1.66777,-6.6068 -1.66777,-7.0042 0,-1.1831 0.83159,-2.0193 2.01695,-2.0193 2.23978,0 3.49176,3.2046 3.49176,3.3815 0,0.2205 -0.17689,0.2205 -0.26418,0.2205 -0.19756,0 -0.22054,-0.067 -0.3308,-0.3078 -0.94186,-2.2834 -2.10654,-2.8095 -2.85084,-2.8095 -0.46174,0 -0.68227,0.2849 -0.68227,1.0085 0,0.5284 0.0437,0.68 0.13324,1.0544 l 1.62412,6.4759" /><path
       inkscape:connector-curvature="0"
       id="path542"
       style="fill:#231f20;fill-opacity:1;fill-rule:evenodd;stroke:none;stroke-width:0.22972099"
       d="m 518.60894,1905.4852 c 0,1.7137 -0.24121,4.3692 -1.44724,6.8479 -1.3186,2.7016 -3.20461,4.1258 -3.42514,4.1258 -0.13094,0 -0.21824,-0.087 -0.21824,-0.2182 0,-0.064 0,-0.108 0.4158,-0.5054 2.15019,-2.1709 3.40217,-5.6626 3.40217,-10.2501 0,-3.7514 -0.81092,-7.6153 -3.53311,-10.3811 -0.28486,-0.2619 -0.28486,-0.3079 -0.28486,-0.3745 0,-0.1309 0.0873,-0.2182 0.21824,-0.2182 0.22053,0 2.19613,1.4909 3.48946,4.2797 1.12104,2.4144 1.38292,4.8517 1.38292,6.6941 v 0" /><path
       inkscape:connector-curvature="0"
       id="path544"
       style="fill:#231f20;fill-opacity:1;fill-rule:evenodd;stroke:none;stroke-width:0.22972099"
       d="m 871.78201,1854.9856 3.68702,4.8494 c 0.24121,0.3078 0.26418,0.3285 1.03145,0.3951 0.52606,0.067 0.657,0.067 1.27265,0.067 h 0.63633 v 1.0292 h -6.27828 v -1.0292 c 0.39742,0 1.25198,0 2.01925,-0.2435 -0.0207,-0.044 -0.13094,-0.1746 -0.17459,-0.2412 l -2.89678,-3.8386 -3.14029,4.3233 h 1.82399 v 1.0292 h -7.53026 v -1.0292 h 2.15249 l 4.87238,-6.7377 -4.43361,-5.8188 c -0.19756,-0.2619 -0.24121,-0.3078 -0.94416,-0.3722 -0.43876,-0.044 -0.9005,-0.067 -1.33927,-0.067 H 861.904 v -1.0314 h 6.27828 v 1.0314 c -0.39512,0 -1.25198,0 -2.01925,0.2412 0.0207,0.046 0.13094,0.1769 0.17459,0.2435 l 3.6227,4.8058 3.81796,-5.2905 h -1.82169 v -1.0314 h 7.53026 v 1.0314 h -2.15249 l -5.55235,7.6842" /><path
       inkscape:connector-curvature="0"
       id="path546"
       style="fill:#231f20;fill-opacity:1;fill-rule:evenodd;stroke:none;stroke-width:0.22972099"
       d="m 887.45817,1841.0025 c 0,0.067 0,0.1079 -0.37215,0.4824 -2.74517,2.7658 -3.44811,6.9146 -3.44811,10.2731 0,3.818 0.83388,7.6382 3.5354,10.3811 0.28486,0.2642 0.28486,0.3078 0.28486,0.3721 0,0.1563 -0.0873,0.2206 -0.21824,0.2206 -0.22053,0 -2.19613,-1.4932 -3.49176,-4.2797 -1.11874,-2.4144 -1.38062,-4.8517 -1.38062,-6.6941 0,-1.7114 0.24121,-4.3693 1.44724,-6.848 1.3163,-2.6992 3.20461,-4.1258 3.42514,-4.1258 0.13094,0 0.21824,0.064 0.21824,0.2183 v 0" /><path
       inkscape:connector-curvature="0"
       id="path548"
       style="fill:#231f20;fill-opacity:1;fill-rule:evenodd;stroke:none;stroke-width:0.22972099"
       d="m 895.98541,1864.0917 h 7.92269 v 0.6802 h -7.92269 z" /><path
       inkscape:connector-curvature="0"
       id="path550"
       style="fill:#231f20;fill-opacity:1;fill-rule:evenodd;stroke:none;stroke-width:0.22972099"
       d="m 892.58095,1848.7946 c -0.87754,-1.4702 -1.7321,-1.778 -2.69923,-1.8447 -0.26188,-0.021 -0.46174,-0.021 -0.46174,-0.4387 0,-0.131 0.11027,-0.2412 0.28486,-0.2412 h 4.08444 c 0.13094,0 0.41579,0 0.41579,0.4158 0,0.2435 -0.19756,0.2641 -0.34917,0.2641 -0.50539,0.046 -1.03375,0.2206 -1.03375,0.7696 0,0.2619 0.13324,0.5054 0.30783,0.8109 l 1.67007,2.8118 h 5.50871 c 0.0436,-0.4617 0.34918,-3.4481 0.34918,-3.6663 0.002,-0.6593 -1.13942,-0.726 -1.57819,-0.726 -0.30782,0 -0.52836,0 -0.52836,-0.4387 0,-0.2412 0.26418,-0.2412 0.30783,-0.2412 h 5.22386 c 0.13094,0 0.39512,0 0.39512,0.4387 0,0.2412 -0.21824,0.2412 -0.50539,0.2412 -1.35995,0 -1.35995,0.154 -1.42657,0.7903 l -1.33927,13.7189 c -0.0436,0.4388 -0.0436,0.5261 -0.4158,0.5261 -0.35147,0 -0.43876,-0.1539 -0.572,-0.3722 z m 2.6349,3.2276 4.32334,7.2431 0.70295,-7.2431 h -5.02629" /><path
       inkscape:connector-curvature="0"
       id="path552"
       style="fill:#231f20;fill-opacity:1;fill-rule:evenodd;stroke:none;stroke-width:0.22972099"
       d="m 911.65238,1851.758 c 0,1.7137 -0.2412,4.367 -1.44954,6.848 -1.3163,2.6992 -3.2046,4.1258 -3.42514,4.1258 -0.13094,0 -0.21823,-0.087 -0.21823,-0.2206 0,-0.064 0,-0.1079 0.41579,-0.503 2.15249,-2.1732 3.40447,-5.6627 3.40447,-10.2502 0,-3.7536 -0.81321,-7.6175 -3.53541,-10.3834 -0.28485,-0.2619 -0.28485,-0.3055 -0.28485,-0.3721 0,-0.131 0.0873,-0.2183 0.21823,-0.2183 0.22054,0 2.19614,1.4909 3.49176,4.2797 1.11874,2.4144 1.38292,4.8494 1.38292,6.6941 v 0" /><path
       inkscape:connector-curvature="0"
       id="path554"
       style="fill:#231f20;fill-opacity:1;fill-rule:evenodd;stroke:none;stroke-width:0.22972099"
       d="m 833.79075,1804.1621 h 7.92268 v 0.6802 h -7.92268 z" /><path
       inkscape:connector-curvature="0"
       id="path556"
       style="fill:#231f20;fill-opacity:1;fill-rule:evenodd;stroke:none;stroke-width:0.22972099"
       d="m 830.38858,1788.865 c -0.87754,-1.4702 -1.73439,-1.778 -2.69922,-1.8447 -0.26418,-0.021 -0.46174,-0.021 -0.46174,-0.4387 0,-0.131 0.11026,-0.2412 0.28485,-0.2412 h 4.08214 c 0.13324,0 0.4181,0 0.4181,0.4181 0,0.2412 -0.19756,0.2618 -0.35148,0.2618 -0.50538,0.046 -1.03144,0.2206 -1.03144,0.7696 0,0.2642 0.13094,0.5054 0.30782,0.8132 l 1.66778,2.8095 h 5.50871 c 0.0436,-0.4617 0.35147,-3.4481 0.35147,-3.6663 0,-0.657 -1.14171,-0.726 -1.58048,-0.726 -0.30783,0 -0.52606,0 -0.52606,-0.4387 0,-0.2412 0.26188,-0.2412 0.30553,-0.2412 h 5.22615 c 0.13094,0 0.39282,0 0.39282,0.441 0,0.2389 -0.21823,0.2389 -0.50309,0.2389 -1.36224,0 -1.36224,0.1539 -1.42886,0.7926 l -1.33698,13.7166 c -0.0436,0.4411 -0.0436,0.5261 -0.41809,0.5261 -0.35147,0 -0.43877,-0.1516 -0.56971,-0.3722 z m 2.6326,3.2276 4.32565,7.2431 0.70294,-7.2431 h -5.02859" /><path
       inkscape:connector-curvature="0"
       id="path558"
       style="fill:none;stroke:#231f20;stroke-width:1.24902987;stroke-linecap:butt;stroke-linejoin:miter;stroke-miterlimit:22.92560005;stroke-dasharray:6.24514916, 6.24514916;stroke-dashoffset:0;stroke-opacity:1"
       d="m 801.25306,1694.6265 h 83.96303" /><path
       inkscape:connector-curvature="0"
       id="path560"
       style="fill:none;stroke:#231f20;stroke-width:1.24902987;stroke-linecap:butt;stroke-linejoin:miter;stroke-miterlimit:22.92560005;stroke-dasharray:none;stroke-opacity:1"
       d="m 878.82066,1866.7266 5.55235,45.5307" /><path
       inkscape:connector-curvature="0"
       id="path562"
       style="fill:none;stroke:#231f20;stroke-width:1.24902987;stroke-linecap:butt;stroke-linejoin:miter;stroke-miterlimit:22.92560005;stroke-dasharray:none;stroke-opacity:1"
       d="m 441.25039,1862.5641 22.44375,33.4634" /><path
       inkscape:connector-curvature="0"
       id="path564"
       style="fill:#231f20;fill-opacity:1;fill-rule:evenodd;stroke:none;stroke-width:0.22972099"
       d="m 638.92302,1687.8245 c 0,1.4495 -0.39283,4.5002 -2.63261,4.5002 -3.05069,0 -6.42989,-6.1909 -6.42989,-11.2172 0,-2.0629 0.63633,-4.5003 2.63261,-4.5003 3.09664,0 6.42989,6.3013 6.42989,11.2173 z m -6.73542,-3.0047 c 0.37215,1.4013 0.81091,3.1586 1.68845,4.7161 0.59268,1.0751 1.40589,2.3064 2.39139,2.3064 1.07739,0 1.20833,-1.4059 1.20833,-2.6578 0,-1.0751 -0.17688,-2.1939 -0.70294,-4.367 z m 4.38997,-0.7053 c -0.24351,-1.0085 -0.70295,-2.8761 -1.53913,-4.4566 -0.76727,-1.4909 -1.60116,-2.566 -2.54531,-2.566 -0.72362,0 -1.18536,0.6364 -1.18536,2.6763 0,0.9235 0.13094,2.1961 0.70294,4.3463 h 4.56686" /><path
       inkscape:connector-curvature="0"
       id="path566"
       style="fill:#231f20;fill-opacity:1;fill-rule:evenodd;stroke:none;stroke-width:0.22972099"
       d="m 677.84694,1783.1426 c 0,1.4496 -0.39512,4.5003 -2.6349,4.5003 -3.05069,0 -6.42989,-6.191 -6.42989,-11.2173 0,-2.0606 0.63633,-4.5002 2.63261,-4.5002 3.09434,0 6.43218,6.2989 6.43218,11.2172 z m -6.73771,-3.0047 c 0.37214,1.4036 0.81091,3.1587 1.69074,4.7162 0.59039,1.0751 1.4036,2.3064 2.3914,2.3064 1.07509,0 1.20603,-1.4059 1.20603,-2.6579 0,-1.0751 -0.17458,-2.1938 -0.70065,-4.367 z m 4.38996,-0.7053 c -0.2435,-1.0084 -0.70294,-2.8761 -1.53683,-4.4542 -0.76956,-1.4932 -1.60345,-2.5683 -2.5476,-2.5683 -0.72363,0 -1.18536,0.6363 -1.18536,2.6762 0.002,0.9235 0.13323,2.1962 0.70294,4.3463 h 4.56685" /></g></svg>