%!PS-Adobe-2.0 EPSF-2.0
%%Title: felisce-fig-ex-small-mesh.fig
%%Creator: fig2dev Version 3.2 Patchlevel 5a
%%CreationDate: Thu Jul 26 15:52:01 2012
%%BoundingBox: 0 0 728 198
%Magnification: 1.0000
%%EndComments
%%BeginProlog
/$F2psDict 200 dict def
$F2psDict begin
$F2psDict /mtrx matrix put
/col-1 {0 setgray} bind def
/col0 {0.000 0.000 0.000 srgb} bind def
/col1 {0.000 0.000 1.000 srgb} bind def
/col2 {0.000 1.000 0.000 srgb} bind def
/col3 {0.000 1.000 1.000 srgb} bind def
/col4 {1.000 0.000 0.000 srgb} bind def
/col5 {1.000 0.000 1.000 srgb} bind def
/col6 {1.000 1.000 0.000 srgb} bind def
/col7 {1.000 1.000 1.000 srgb} bind def
/col8 {0.000 0.000 0.560 srgb} bind def
/col9 {0.000 0.000 0.690 srgb} bind def
/col10 {0.000 0.000 0.820 srgb} bind def
/col11 {0.530 0.810 1.000 srgb} bind def
/col12 {0.000 0.560 0.000 srgb} bind def
/col13 {0.000 0.690 0.000 srgb} bind def
/col14 {0.000 0.820 0.000 srgb} bind def
/col15 {0.000 0.560 0.560 srgb} bind def
/col16 {0.000 0.690 0.690 srgb} bind def
/col17 {0.000 0.820 0.820 srgb} bind def
/col18 {0.560 0.000 0.000 srgb} bind def
/col19 {0.690 0.000 0.000 srgb} bind def
/col20 {0.820 0.000 0.000 srgb} bind def
/col21 {0.560 0.000 0.560 srgb} bind def
/col22 {0.690 0.000 0.690 srgb} bind def
/col23 {0.820 0.000 0.820 srgb} bind def
/col24 {0.500 0.190 0.000 srgb} bind def
/col25 {0.630 0.250 0.000 srgb} bind def
/col26 {0.750 0.380 0.000 srgb} bind def
/col27 {1.000 0.500 0.500 srgb} bind def
/col28 {1.000 0.630 0.630 srgb} bind def
/col29 {1.000 0.750 0.750 srgb} bind def
/col30 {1.000 0.880 0.880 srgb} bind def
/col31 {1.000 0.840 0.000 srgb} bind def

end

/cp {closepath} bind def
/ef {eofill} bind def
/gr {grestore} bind def
/gs {gsave} bind def
/sa {save} bind def
/rs {restore} bind def
/l {lineto} bind def
/m {moveto} bind def
/rm {rmoveto} bind def
/n {newpath} bind def
/s {stroke} bind def
/sh {show} bind def
/slc {setlinecap} bind def
/slj {setlinejoin} bind def
/slw {setlinewidth} bind def
/srgb {setrgbcolor} bind def
/rot {rotate} bind def
/sc {scale} bind def
/sd {setdash} bind def
/ff {findfont} bind def
/sf {setfont} bind def
/scf {scalefont} bind def
/sw {stringwidth} bind def
/tr {translate} bind def
/tnt {dup dup currentrgbcolor
  4 -2 roll dup 1 exch sub 3 -1 roll mul add
  4 -2 roll dup 1 exch sub 3 -1 roll mul add
  4 -2 roll dup 1 exch sub 3 -1 roll mul add srgb}
  bind def
/shd {dup dup currentrgbcolor 4 -2 roll mul 4 -2 roll mul
  4 -2 roll mul srgb} bind def
/$F2psBegin {$F2psDict begin /$F2psEnteredState save def} def
/$F2psEnd {$F2psEnteredState restore end} def

/pageheader {
save
newpath 0 198 moveto 0 0 lineto 728 0 lineto 728 198 lineto closepath clip newpath
-27.0 211.0 translate
1 -1 scale
$F2psBegin
10 setmiterlimit
0 slj 0 slc
 0.06299 0.06299 sc
} bind def
/pagefooter {
$F2psEnd
restore
} bind def
%%EndProlog
pageheader
%
% Fig objects follow
%
% 
% here starts figure with depth 50
% Polyline
0 slj
0 slc
7.500 slw
n 450 1575 m
 2250 1125 l gs col0 s gr 
% Polyline
15.000 slw
n 1575 2025 m 2700 2025 l
 2250 1125 l gs col0 s gr 
% Polyline
n 1350 900 m
 2700 2025 l gs col0 s gr 
% Polyline
n 1350 900 m
 2250 1125 l gs col0 s gr 
% Polyline
7.500 slw
n 1575 2025 m
 2250 1125 l gs col0 s gr 
% Polyline
15.000 slw
n 1350 900 m 450 1575 l 1575 2025 l
 cp gs col0 s gr 
% Polyline
7.500 slw
n 1260 1170 m 1530 1170 l 1530 1530 l 1260 1530 l
 cp gs col0 s gr 
% Polyline
n 1845 1350 m 2115 1350 l 2115 1710 l 1845 1710 l
 cp gs col0 s gr 
% Polyline
n 2880 900 m 3150 900 l 3150 1260 l 2880 1260 l
 cp gs col0 s gr 
% Polyline
n 2880 1395 m 3150 1395 l 3150 1755 l 2880 1755 l
 cp gs col0 s gr 
% Polyline
gs  clippath
8953 795 m 9105 795 l 9105 735 l 8953 735 l 8953 735 l 9073 765 l 8953 795 l cp
eoclip
n 8640 765 m
 9090 765 l gs col0 s gr gr

% arrowhead
n 8953 795 m 9073 765 l 8953 735 l  col0 s
% Polyline
gs  clippath
7977 780 m 7860 780 l 7860 840 l 7977 840 l 7977 840 l 7887 810 l 7977 780 l cp
eoclip
n 9225 675 m 9225 540 l 8055 540 l 8055 810 l
 7875 810 l gs col0 s gr gr

% arrowhead
n 7977 780 m 7887 810 l 7977 840 l 8007 810 l 7977 780 l 
 cp gs 0.00 setgray ef gr  col0 s
% Polyline
gs  clippath
9313 2370 m 9465 2370 l 9465 2310 l 9313 2310 l 9313 2310 l 9433 2340 l 9313 2370 l cp
eoclip
n 9000 2340 m
 9450 2340 l gs col0 s gr gr

% arrowhead
n 9313 2370 m 9433 2340 l 9313 2310 l  col0 s
% Polyline
gs  clippath
8022 1725 m 7905 1725 l 7905 1785 l 8022 1785 l 8022 1785 l 7932 1755 l 8022 1725 l cp
eoclip
n 9270 1170 m 9270 1035 l 8100 1035 l 8100 1755 l
 7920 1755 l gs col0 s gr gr

% arrowhead
n 8022 1725 m 7932 1755 l 8022 1785 l 8052 1755 l 8022 1725 l 
 cp gs 0.00 setgray ef gr  col0 s
% Polyline
gs  clippath
8953 1290 m 9105 1290 l 9105 1230 l 8953 1230 l 8953 1230 l 9073 1260 l 8953 1290 l cp
eoclip
n 8640 1260 m
 9090 1260 l gs col0 s gr gr

% arrowhead
n 8953 1290 m 9073 1260 l 8953 1230 l  col0 s
% Polyline
gs  clippath
9313 1965 m 9465 1965 l 9465 1905 l 9313 1905 l 9313 1905 l 9433 1935 l 9313 1965 l cp
eoclip
n 9000 1935 m
 9450 1935 l gs col0 s gr gr

% arrowhead
n 9313 1965 m 9433 1935 l 9313 1905 l  col0 s
% Polyline
gs  clippath
9358 2820 m 9510 2820 l 9510 2760 l 9358 2760 l 9358 2760 l 9478 2790 l 9358 2820 l cp
eoclip
n 9045 2790 m
 9495 2790 l gs col0 s gr gr

% arrowhead
n 9358 2820 m 9478 2790 l 9358 2760 l  col0 s
% Polyline
n 10800 2655 m 11115 2655 l 11115 765 l
 11475 765 l gs col4 s gr 
% Polyline
gs  clippath
10573 905 m 10652 819 l 10607 778 l 10529 865 l 10529 865 l 10612 819 l 10573 905 l cp
eoclip
n 9675 1845 m
 10620 810 l gs col0 s gr gr

% arrowhead
n 10573 905 m 10612 819 l 10529 865 l 10531 907 l 10573 905 l 
 cp gs 0.00 setgray ef gr  col0 s
% Polyline
gs  clippath
10523 2205 m 10639 2187 l 10630 2128 l 10514 2145 l 10514 2145 l 10608 2162 l 10523 2205 l cp
eoclip
n 9720 2295 m
 10620 2160 l gs col0 s gr gr

% arrowhead
n 10523 2205 m 10608 2162 l 10514 2145 l 10489 2179 l 10523 2205 l 
 cp gs 0.00 setgray ef gr  col0 s
% Polyline
gs  clippath
11802 2130 m 11685 2130 l 11685 2190 l 11802 2190 l 11802 2190 l 11712 2160 l 11802 2130 l cp
eoclip
n 9630 2925 m 9630 3060 l 11970 3060 l 11970 2160 l
 11700 2160 l gs col0 s gr gr

% arrowhead
n 11802 2130 m 11712 2160 l 11802 2190 l 11832 2160 l 11802 2130 l 
 cp gs 0.00 setgray ef gr  col0 s
% Polyline
n 7110 270 m
 7110 3240 l gs col0 s gr 
% Polyline
n 6975 270 m
 6975 3240 l gs col0 s gr 
% Polyline
n 10530 450 m 11835 450 l 11835 2925 l 10530 2925 l
 cp gs col4 s gr 
% Polyline
n 7335 225 m 8235 225 l 8235 2565 l 7335 2565 l
 cp gs col4 s gr 
% Polyline
n 8775 1800 m 10080 1800 l 10080 2970 l 8775 2970 l
 cp gs col0 s gr 
% Polyline
n 8370 630 m 9810 630 l 9810 1440 l 8370 1440 l
 cp gs col0 s gr 
/Helvetica-Bold ff 190.50 scf sf
7740 900 m
gs 1 -1 sc (4) col4 sh gr
/Helvetica-Bold ff 190.50 scf sf
7740 1125 m
gs 1 -1 sc (1) col4 sh gr
/Helvetica-Bold ff 190.50 scf sf
7740 1350 m
gs 1 -1 sc (3) col4 sh gr
/Helvetica-Bold ff 190.50 scf sf
7740 1575 m
gs 1 -1 sc (2) col4 sh gr
/Helvetica-Bold ff 190.50 scf sf
7740 1800 m
gs 1 -1 sc (1) col4 sh gr
/Helvetica-Bold ff 190.50 scf sf
7740 2025 m
gs 1 -1 sc (3) col4 sh gr
/Helvetica-Bold ff 190.50 scf sf
7740 2250 m
gs 1 -1 sc (2) col4 sh gr
/Helvetica-Bold ff 190.50 scf sf
7740 2475 m
gs 1 -1 sc (0) col4 sh gr
/Helvetica-Bold ff 190.50 scf sf
450 1800 m
gs 1 -1 sc (0) col4 sh gr
/Helvetica-Bold ff 190.50 scf sf
1260 900 m
gs 1 -1 sc (1) col4 sh gr
/Helvetica-Bold ff 190.50 scf sf
2250 1080 m
gs 1 -1 sc (3) col4 sh gr
/Helvetica-Bold ff 190.50 scf sf
1530 2250 m
gs 1 -1 sc (2) col4 sh gr
/Helvetica-Bold ff 190.50 scf sf
2790 2160 m
gs 1 -1 sc (4) col4 sh gr
/Times-Roman ff 254.00 scf sf
1350 1440 m
gs 1 -1 sc (0) col0 sh gr
/Times-Roman ff 254.00 scf sf
1935 1620 m
gs 1 -1 sc (1) col0 sh gr
/Helvetica-BoldOblique ff 222.25 scf sf
1035 1620 m
gs 1 -1 sc (0) col21 sh gr
/Helvetica-BoldOblique ff 222.25 scf sf
1575 1575 m
gs 1 -1 sc (1) col21 sh gr
/Helvetica-BoldOblique ff 222.25 scf sf
1170 1215 m
gs 1 -1 sc (2) col21 sh gr
/Helvetica-BoldOblique ff 222.25 scf sf
2070 1935 m
gs 1 -1 sc (3) col21 sh gr
/Helvetica-BoldOblique ff 222.25 scf sf
1890 1305 m
gs 1 -1 sc (4) col21 sh gr
/Helvetica-BoldOblique ff 222.25 scf sf
2115 1665 m
gs 1 -1 sc (5) col21 sh gr
/Helvetica-Bold ff 190.50 scf sf
3735 1125 m
gs 1 -1 sc (2) col4 sh gr
/Helvetica-Bold ff 190.50 scf sf
3465 1125 m
gs 1 -1 sc (3) col4 sh gr
/Helvetica-Bold ff 190.50 scf sf
3240 1125 m
gs 1 -1 sc (1) col4 sh gr
/Helvetica-Bold ff 190.50 scf sf
4005 1125 m
gs 1 -1 sc (0) col4 sh gr
/Times-Roman ff 254.00 scf sf
2970 1170 m
gs 1 -1 sc (0) col0 sh gr
/Times-Roman ff 254.00 scf sf
2970 1665 m
gs 1 -1 sc (1) col0 sh gr
/Helvetica-Bold ff 190.50 scf sf
3240 1620 m
gs 1 -1 sc (4) col4 sh gr
/Helvetica-Bold ff 190.50 scf sf
3735 1620 m
gs 1 -1 sc (3) col4 sh gr
/Helvetica-Bold ff 190.50 scf sf
4005 1620 m
gs 1 -1 sc (2) col4 sh gr
/Helvetica-Bold ff 190.50 scf sf
3465 1620 m
gs 1 -1 sc (1) col4 sh gr
/Times-Roman ff 254.00 scf sf
2970 810 m
gs 1 -1 sc (2) col0 sh gr
/Times-Roman ff 254.00 scf sf
2925 495 m
gs 1 -1 sc (Tetrahedra) col0 sh gr
/Helvetica-BoldOblique ff 190.50 scf sf
9135 855 m
gs 1 -1 sc (0) col1 sh gr
/Times-Roman ff 254.00 scf sf
4950 450 m
gs 1 -1 sc (Triangles) col0 sh gr
/Times-Roman ff 254.00 scf sf
4995 765 m
gs 1 -1 sc (6) col0 sh gr
/Helvetica-BoldOblique ff 222.25 scf sf
4995 1755 m
gs 1 -1 sc (2) col21 sh gr
/Helvetica-BoldOblique ff 222.25 scf sf
4995 2070 m
gs 1 -1 sc (3) col21 sh gr
/Helvetica-BoldOblique ff 222.25 scf sf
4995 2430 m
gs 1 -1 sc (4) col21 sh gr
/Helvetica-BoldOblique ff 222.25 scf sf
4995 2790 m
gs 1 -1 sc (5) col21 sh gr
/Helvetica-BoldOblique ff 222.25 scf sf
4995 1440 m
gs 1 -1 sc (1) col21 sh gr
/Helvetica-Bold ff 190.50 scf sf
5445 1395 m
gs 1 -1 sc (2) col4 sh gr
/Helvetica-Bold ff 190.50 scf sf
5805 1395 m
gs 1 -1 sc (0) col4 sh gr
/Helvetica-Bold ff 190.50 scf sf
6120 1395 m
gs 1 -1 sc (3) col4 sh gr
/Helvetica-Bold ff 190.50 scf sf
5445 1710 m
gs 1 -1 sc (0) col4 sh gr
/Helvetica-Bold ff 190.50 scf sf
6120 1710 m
gs 1 -1 sc (3) col4 sh gr
/Helvetica-Bold ff 190.50 scf sf
5805 1710 m
gs 1 -1 sc (1) col4 sh gr
/Helvetica-Bold ff 190.50 scf sf
5445 2025 m
gs 1 -1 sc (2) col4 sh gr
/Helvetica-Bold ff 190.50 scf sf
5805 2025 m
gs 1 -1 sc (4) col4 sh gr
/Helvetica-Bold ff 190.50 scf sf
6120 2025 m
gs 1 -1 sc (1) col4 sh gr
/Helvetica-Bold ff 190.50 scf sf
5445 2385 m
gs 1 -1 sc (3) col4 sh gr
/Helvetica-Bold ff 190.50 scf sf
6120 2385 m
gs 1 -1 sc (4) col4 sh gr
/Helvetica-Bold ff 190.50 scf sf
5445 2745 m
gs 1 -1 sc (2) col4 sh gr
/Helvetica-Bold ff 190.50 scf sf
6615 1395 m
gs 1 -1 sc (2) col24 sh gr
/Helvetica-Bold ff 190.50 scf sf
5445 1080 m
gs 1 -1 sc (0) col4 sh gr
/Helvetica-Bold ff 190.50 scf sf
5805 1080 m
gs 1 -1 sc (2) col4 sh gr
/Helvetica-Bold ff 190.50 scf sf
6120 1080 m
gs 1 -1 sc (1) col4 sh gr
/Helvetica-BoldOblique ff 222.25 scf sf
4995 1125 m
gs 1 -1 sc (0) col21 sh gr
/Helvetica-Bold ff 190.50 scf sf
6615 1710 m
gs 1 -1 sc (1) col24 sh gr
/Helvetica-Bold ff 190.50 scf sf
6615 2745 m
gs 1 -1 sc (1) col24 sh gr
/Helvetica-Bold ff 190.50 scf sf
6615 2025 m
gs 1 -1 sc (2) col24 sh gr
/Helvetica-Bold ff 190.50 scf sf
6570 1080 m
gs 1 -1 sc (21) col24 sh gr
/Helvetica-Bold ff 190.50 scf sf
9540 855 m
gs 1 -1 sc (1) col1 sh gr
/Helvetica-Bold ff 190.50 scf sf
8415 855 m
gs 1 -1 sc (14) col24 sh gr
/Helvetica-Bold ff 190.50 scf sf
10665 855 m
gs 1 -1 sc (0) col4 sh gr
/Helvetica-Bold ff 190.50 scf sf
10665 1125 m
gs 1 -1 sc (1) col4 sh gr
/Helvetica-Bold ff 190.50 scf sf
10665 1350 m
gs 1 -1 sc (3) col4 sh gr
/Helvetica-Bold ff 190.50 scf sf
8910 1980 m
gs 1 -1 sc (1) col24 sh gr
/Helvetica-Bold ff 190.50 scf sf
8910 2430 m
gs 1 -1 sc (2) col24 sh gr
/Helvetica-Bold ff 190.50 scf sf
8865 2880 m
gs 1 -1 sc (21) col24 sh gr
/Helvetica-Bold ff 190.50 scf sf
8415 1305 m
gs 1 -1 sc (18) col24 sh gr
/Helvetica-BoldOblique ff 190.50 scf sf
9180 1305 m
gs 1 -1 sc (4) col1 sh gr
/Helvetica-Bold ff 190.50 scf sf
9585 1305 m
gs 1 -1 sc (1) col1 sh gr
/Helvetica-BoldOblique ff 190.50 scf sf
9540 2025 m
gs 1 -1 sc (0) col1 sh gr
/Helvetica-Bold ff 190.50 scf sf
9945 2025 m
gs 1 -1 sc (2) col1 sh gr
/Helvetica-BoldOblique ff 190.50 scf sf
9540 2430 m
gs 1 -1 sc (6) col1 sh gr
/Helvetica-BoldOblique ff 190.50 scf sf
9540 2880 m
gs 1 -1 sc (15) col1 sh gr
/Helvetica-Bold ff 190.50 scf sf
9945 2430 m
gs 1 -1 sc (3) col1 sh gr
/Helvetica-Bold ff 190.50 scf sf
9945 2880 m
gs 1 -1 sc (1) col1 sh gr
/Helvetica-Bold ff 190.50 scf sf
6615 2385 m
gs 1 -1 sc (2) col24 sh gr
/Helvetica-Bold ff 190.50 scf sf
10665 1575 m
gs 1 -1 sc (2) col4 sh gr
/Helvetica-Bold ff 190.50 scf sf
10665 1800 m
gs 1 -1 sc (3) col4 sh gr
/Helvetica-Bold ff 190.50 scf sf
10665 2025 m
gs 1 -1 sc (4) col4 sh gr
/Helvetica-Bold ff 190.50 scf sf
10665 2250 m
gs 1 -1 sc (2) col4 sh gr
/Helvetica-Bold ff 190.50 scf sf
10665 2475 m
gs 1 -1 sc (0) col4 sh gr
/Helvetica-Bold ff 190.50 scf sf
10665 2700 m
gs 1 -1 sc (3) col4 sh gr
/Helvetica-Bold ff 190.50 scf sf
10665 2880 m
gs 1 -1 sc (...) col4 sh gr
/Helvetica-Bold ff 190.50 scf sf
11565 855 m
gs 1 -1 sc (2) col4 sh gr
/Helvetica-Bold ff 190.50 scf sf
11565 1125 m
gs 1 -1 sc (4) col4 sh gr
/Helvetica-Bold ff 190.50 scf sf
11565 1350 m
gs 1 -1 sc (1) col4 sh gr
/Helvetica-Bold ff 190.50 scf sf
11565 1575 m
gs 1 -1 sc (3) col4 sh gr
/Helvetica-Bold ff 190.50 scf sf
11565 1800 m
gs 1 -1 sc (1) col4 sh gr
/Helvetica-Bold ff 190.50 scf sf
11565 2025 m
gs 1 -1 sc (4) col4 sh gr
/Helvetica-Bold ff 190.50 scf sf
11565 2250 m
gs 1 -1 sc (0) col4 sh gr
/Helvetica-Bold ff 190.50 scf sf
11565 2475 m
gs 1 -1 sc (2) col4 sh gr
/Helvetica-Bold ff 190.50 scf sf
11565 2700 m
gs 1 -1 sc (1) col4 sh gr
/Courier-Bold ff 190.50 scf sf
7830 3285 m
gs 1 -1 sc (intRefToBegEndMaps[Tria3]) col0 sh gr
/Courier-Bold ff 222.25 scf sf
10710 630 m
gs 1 -1 sc (Tria3) col0 sh gr
/Courier-Bold ff 190.50 scf sf
8505 405 m
gs 1 -1 sc (intRefToBegEndMaps[Tetra4]) col0 sh gr
/Courier-Bold ff 222.25 scf sf
7380 450 m
gs 1 -1 sc (Tetra4) col0 sh gr
/Helvetica-Bold ff 190.50 scf sf
4365 1620 m
gs 1 -1 sc (14) col24 sh gr
/Helvetica-Bold ff 190.50 scf sf
4365 1125 m
gs 1 -1 sc (18) col24 sh gr
/Helvetica-Bold ff 190.50 scf sf
5805 2385 m
gs 1 -1 sc (1) col4 sh gr
/Helvetica-Bold ff 190.50 scf sf
5805 2745 m
gs 1 -1 sc (3) col4 sh gr
/Helvetica-Bold ff 190.50 scf sf
6120 2745 m
gs 1 -1 sc (4) col4 sh gr
% here ends figure;
pagefooter
showpage
%%Trailer
%EOF
