%!PS-Adobe-2.0 EPSF-2.0
%%Title: felisce-fig-finite-elements.fig
%%Creator: fig2dev Version 3.2 Patchlevel 5a
%%CreationDate: Thu Jul 26 10:40:32 2012
%%BoundingBox: 0 0 688 269
%Magnification: 1.0000
%%EndComments
%%BeginProlog
/$F2psDict 200 dict def
$F2psDict begin
$F2psDict /mtrx matrix put
/col-1 {0 setgray} bind def
/col0 {0.000 0.000 0.000 srgb} bind def
/col1 {0.000 0.000 1.000 srgb} bind def
/col2 {0.000 1.000 0.000 srgb} bind def
/col3 {0.000 1.000 1.000 srgb} bind def
/col4 {1.000 0.000 0.000 srgb} bind def
/col5 {1.000 0.000 1.000 srgb} bind def
/col6 {1.000 1.000 0.000 srgb} bind def
/col7 {1.000 1.000 1.000 srgb} bind def
/col8 {0.000 0.000 0.560 srgb} bind def
/col9 {0.000 0.000 0.690 srgb} bind def
/col10 {0.000 0.000 0.820 srgb} bind def
/col11 {0.530 0.810 1.000 srgb} bind def
/col12 {0.000 0.560 0.000 srgb} bind def
/col13 {0.000 0.690 0.000 srgb} bind def
/col14 {0.000 0.820 0.000 srgb} bind def
/col15 {0.000 0.560 0.560 srgb} bind def
/col16 {0.000 0.690 0.690 srgb} bind def
/col17 {0.000 0.820 0.820 srgb} bind def
/col18 {0.560 0.000 0.000 srgb} bind def
/col19 {0.690 0.000 0.000 srgb} bind def
/col20 {0.820 0.000 0.000 srgb} bind def
/col21 {0.560 0.000 0.560 srgb} bind def
/col22 {0.690 0.000 0.690 srgb} bind def
/col23 {0.820 0.000 0.820 srgb} bind def
/col24 {0.500 0.190 0.000 srgb} bind def
/col25 {0.630 0.250 0.000 srgb} bind def
/col26 {0.750 0.380 0.000 srgb} bind def
/col27 {1.000 0.500 0.500 srgb} bind def
/col28 {1.000 0.630 0.630 srgb} bind def
/col29 {1.000 0.750 0.750 srgb} bind def
/col30 {1.000 0.880 0.880 srgb} bind def
/col31 {1.000 0.840 0.000 srgb} bind def

end

/cp {closepath} bind def
/ef {eofill} bind def
/gr {grestore} bind def
/gs {gsave} bind def
/sa {save} bind def
/rs {restore} bind def
/l {lineto} bind def
/m {moveto} bind def
/rm {rmoveto} bind def
/n {newpath} bind def
/s {stroke} bind def
/sh {show} bind def
/slc {setlinecap} bind def
/slj {setlinejoin} bind def
/slw {setlinewidth} bind def
/srgb {setrgbcolor} bind def
/rot {rotate} bind def
/sc {scale} bind def
/sd {setdash} bind def
/ff {findfont} bind def
/sf {setfont} bind def
/scf {scalefont} bind def
/sw {stringwidth} bind def
/tr {translate} bind def
/tnt {dup dup currentrgbcolor
  4 -2 roll dup 1 exch sub 3 -1 roll mul add
  4 -2 roll dup 1 exch sub 3 -1 roll mul add
  4 -2 roll dup 1 exch sub 3 -1 roll mul add srgb}
  bind def
/shd {dup dup currentrgbcolor 4 -2 roll mul 4 -2 roll mul
  4 -2 roll mul srgb} bind def
 /DrawEllipse {
	/endangle exch def
	/startangle exch def
	/yrad exch def
	/xrad exch def
	/y exch def
	/x exch def
	/savematrix mtrx currentmatrix def
	x y tr xrad yrad sc 0 0 1 startangle endangle arc
	closepath
	savematrix setmatrix
	} def

/$F2psBegin {$F2psDict begin /$F2psEnteredState save def} def
/$F2psEnd {$F2psEnteredState restore end} def

/pageheader {
save
newpath 0 269 moveto 0 0 lineto 688 0 lineto 688 269 lineto closepath clip newpath
-50.1 284.3 translate
1 -1 scale
$F2psBegin
10 setmiterlimit
0 slj 0 slc
 0.06299 0.06299 sc
} bind def
/pagefooter {
$F2psEnd
restore
} bind def
%%EndProlog
pageheader
%
% Fig objects follow
%
% 
% here starts figure with depth 50
% Ellipse
15.000 slw
n 900 900 90 90 0 360 DrawEllipse gs col0 s gr

% Ellipse
n 900 1620 90 90 0 360 DrawEllipse gs col0 s gr

% Polyline
0 slj
0 slc
n 900 900 m
 900 1620 l gs col0 s gr 
% Ellipse
n 900 1980 90 90 0 360 DrawEllipse gs col0 s gr

% Ellipse
n 900 2880 90 90 0 360 DrawEllipse gs col0 s gr

% Ellipse
n 1800 2880 90 90 0 360 DrawEllipse gs col0 s gr

% Polyline
n 900 1980 m 900 2880 l 1800 2880 l
 cp gs col0 s gr 
% Ellipse
n 1620 900 90 90 0 360 DrawEllipse gs col0 s gr

% Ellipse
n 1620 1620 90 90 0 360 DrawEllipse gs col0 s gr

% Polyline
n 1620 900 m
 1620 1620 l gs col0 s gr 
% Ellipse
n 1620 1260 90 90 0 360 DrawEllipse gs col0 s gr

% Ellipse
n 2160 1980 90 90 0 360 DrawEllipse gs col0 s gr

% Ellipse
n 2160 2880 90 90 0 360 DrawEllipse gs col0 s gr

% Ellipse
n 3060 2880 90 90 0 360 DrawEllipse gs col0 s gr

% Polyline
n 2160 1980 m 2160 2880 l 3060 2880 l
 cp gs col0 s gr 
% Ellipse
n 2160 2430 90 90 0 360 DrawEllipse gs col0 s gr

% Ellipse
n 2610 2880 90 90 0 360 DrawEllipse gs col0 s gr

% Ellipse
n 2610 2430 90 90 0 360 DrawEllipse gs col0 s gr

% Ellipse
n 900 3330 90 90 0 360 DrawEllipse gs col0 s gr

% Ellipse
n 900 4230 90 90 0 360 DrawEllipse gs col0 s gr

% Ellipse
n 1800 4230 90 90 0 360 DrawEllipse gs col0 s gr

% Ellipse
n 1800 3330 90 90 0 360 DrawEllipse gs col0 s gr

% Polyline
n 900 3330 m 1800 3330 l 1800 4230 l 900 4230 l
 cp gs col0 s gr 
% Ellipse
n 4860 450 90 90 0 360 DrawEllipse gs col0 s gr

% Ellipse
n 4860 1350 90 90 0 360 DrawEllipse gs col0 s gr

% Ellipse
n 5760 1350 90 90 0 360 DrawEllipse gs col0 s gr

% Ellipse
n 5850 720 90 90 0 360 DrawEllipse gs col0 s gr

% Polyline
n 4860 450 m 4860 1350 l 5760 1350 l
 cp gs col0 s gr 
% Polyline
7.500 slw
n 4860 1350 m
 5850 720 l gs col0 s gr 
% Polyline
15.000 slw
n 4860 450 m 5850 720 l 5760 1350 l
 cp gs col0 s gr 
% Ellipse
n 6210 450 90 90 0 360 DrawEllipse gs col0 s gr

% Ellipse
n 6210 1350 90 90 0 360 DrawEllipse gs col0 s gr

% Ellipse
n 7110 1350 90 90 0 360 DrawEllipse gs col0 s gr

% Ellipse
n 7200 720 90 90 0 360 DrawEllipse gs col0 s gr

% Polyline
n 6210 450 m 6210 1350 l 7110 1350 l
 cp gs col0 s gr 
% Polyline
7.500 slw
n 6210 1350 m
 7200 720 l gs col0 s gr 
% Polyline
15.000 slw
n 6210 450 m 7200 720 l 7110 1350 l
 cp gs col0 s gr 
% Ellipse
n 6210 900 90 90 0 360 DrawEllipse gs col0 s gr

% Ellipse
n 6750 630 90 90 0 360 DrawEllipse gs col0 s gr

% Ellipse
n 7200 990 90 90 0 360 DrawEllipse gs col0 s gr

% Ellipse
n 6660 1350 90 90 0 360 DrawEllipse gs col0 s gr

% Ellipse
n 6660 900 90 90 0 360 DrawEllipse gs col0 s gr

% Ellipse
7.500 slw
n 6660 1080 90 90 0 360 DrawEllipse gs col0 s gr

% Ellipse
15.000 slw
n 5220 1800 90 90 0 360 DrawEllipse gs col0 s gr

% Ellipse
n 4680 2880 90 90 0 360 DrawEllipse gs col0 s gr

% Ellipse
n 6030 2340 90 90 0 360 DrawEllipse gs col0 s gr

% Ellipse
n 5670 2880 90 90 0 360 DrawEllipse gs col0 s gr

% Polyline
n 5220 1800 m
 6030 2340 l gs col0 s gr 
% Polyline
7.500 slw
n 4680 2880 m 5130 2340 l
 6030 2340 l gs col0 s gr 
% Polyline
15.000 slw
n 4680 2880 m 5670 2880 l
 6030 2340 l gs col0 s gr 
% Ellipse
7.500 slw
n 5130 2340 90 90 0 360 DrawEllipse gs col0 s gr

% Polyline
15.000 slw
n 5220 1800 m
 4680 2880 l gs col0 s gr 
% Polyline
n 5220 1800 m
 5670 2880 l gs col0 s gr 
% Polyline
7.500 slw
n 5220 1800 m
 5130 2340 l gs col0 s gr 
% Ellipse
15.000 slw
n 6930 1800 90 90 0 360 DrawEllipse gs col0 s gr

% Ellipse
n 6390 2880 90 90 0 360 DrawEllipse gs col0 s gr

% Ellipse
n 7740 2340 90 90 0 360 DrawEllipse gs col0 s gr

% Ellipse
n 7380 2880 90 90 0 360 DrawEllipse gs col0 s gr

% Polyline
n 6930 1800 m
 7740 2340 l gs col0 s gr 
% Polyline
7.500 slw
n 6390 2880 m 6840 2340 l
 7740 2340 l gs col0 s gr 
% Polyline
15.000 slw
n 6390 2880 m 7380 2880 l
 7740 2340 l gs col0 s gr 
% Ellipse
7.500 slw
n 6840 2340 90 90 0 360 DrawEllipse gs col0 s gr

% Polyline
15.000 slw
n 6930 1800 m
 6390 2880 l gs col0 s gr 
% Polyline
n 6930 1800 m
 7380 2880 l gs col0 s gr 
% Ellipse
n 6840 2880 90 90 0 360 DrawEllipse gs col0 s gr

% Ellipse
n 7560 2610 90 90 0 360 DrawEllipse gs col0 s gr

% Ellipse
n 7380 2070 90 90 0 360 DrawEllipse gs col0 s gr

% Ellipse
7.500 slw
n 7380 2340 90 90 0 360 DrawEllipse gs col0 s gr

% Ellipse
n 6885 2070 90 90 0 360 DrawEllipse gs col0 s gr

% Ellipse
15.000 slw
n 6660 2295 90 90 0 360 DrawEllipse gs col0 s gr

% Ellipse
7.500 slw
n 6660 2565 90 90 0 360 DrawEllipse gs col0 s gr

% Polyline
n 6930 1800 m
 6840 2340 l gs col0 s gr 
% Ellipse
15.000 slw
n 7200 2430 90 90 0 360 DrawEllipse gs col0 s gr

% Polyline
n 6210 3330 m
 7380 3330 l gs col0 s gr 
% Polyline
n 6210 3330 m 7110 3690 l
 7380 3330 l gs col0 s gr 
% Polyline
n 6210 3330 m
 6210 4050 l gs col0 s gr 
% Polyline
n 7110 3690 m
 7110 4410 l gs col0 s gr 
% Polyline
n 7380 3330 m
 7380 4050 l gs col0 s gr 
% Polyline
7.500 slw
n 6210 4050 m
 7380 4050 l gs col0 s gr 
% Polyline
15.000 slw
n 6210 4050 m 7110 4410 l
 7380 4050 l gs col0 s gr 
% Ellipse
n 7110 4410 90 90 0 360 DrawEllipse gs col0 s gr

% Ellipse
n 7380 4050 90 90 0 360 DrawEllipse gs col0 s gr

% Ellipse
n 7380 3330 90 90 0 360 DrawEllipse gs col0 s gr

% Ellipse
n 7110 3690 90 90 0 360 DrawEllipse gs col0 s gr

% Ellipse
n 6210 3330 90 90 0 360 DrawEllipse gs col0 s gr

% Ellipse
n 6210 4050 90 90 0 360 DrawEllipse gs col0 s gr

% Ellipse
7.500 slw
n 6840 4050 90 90 0 360 DrawEllipse gs col0 s gr

% Ellipse
15.000 slw
n 6660 3510 90 90 0 360 DrawEllipse gs col0 s gr

% Ellipse
n 6840 3330 90 90 0 360 DrawEllipse gs col0 s gr

% Ellipse
n 6660 4230 90 90 0 360 DrawEllipse gs col0 s gr

% Ellipse
n 7245 4230 90 90 0 360 DrawEllipse gs col0 s gr

% Ellipse
n 7380 3735 90 90 0 360 DrawEllipse gs col0 s gr

% Ellipse
n 7245 3510 90 90 0 360 DrawEllipse gs col0 s gr

% Ellipse
n 6210 3690 90 90 0 360 DrawEllipse gs col0 s gr

% Ellipse
n 7110 4005 90 90 0 360 DrawEllipse gs col0 s gr

% Ellipse
n 8370 1800 90 90 0 360 DrawEllipse gs col0 s gr

% Ellipse
7.500 slw
n 8820 1260 90 90 0 360 DrawEllipse gs col0 s gr

% Ellipse
15.000 slw
n 9360 1800 90 90 0 360 DrawEllipse gs col0 s gr

% Ellipse
n 9720 360 90 90 0 360 DrawEllipse gs col0 s gr

% Ellipse
n 9720 1260 90 90 0 360 DrawEllipse gs col0 s gr

% Ellipse
n 8820 360 90 90 0 360 DrawEllipse gs col0 s gr

% Ellipse
n 8370 900 90 90 0 360 DrawEllipse gs col0 s gr

% Polyline
n 8370 900 m 9360 900 l
 9720 360 l gs col0 s gr 
% Polyline
n 8370 900 m 8820 360 l
 9720 360 l gs col0 s gr 
% Polyline
n 8370 1800 m 9360 1800 l
 9720 1260 l gs col0 s gr 
% Polyline
7.500 slw
n 8370 1800 m 8820 1260 l
 9720 1260 l gs col0 s gr 
% Ellipse
15.000 slw
n 9360 900 90 90 0 360 DrawEllipse gs col0 s gr

% Polyline
n 8370 900 m
 8370 1800 l gs col0 s gr 
% Polyline
n 9360 900 m
 9360 1800 l gs col0 s gr 
% Polyline
n 9720 360 m
 9720 1260 l gs col0 s gr 
% Polyline
7.500 slw
n 8820 360 m
 8820 1260 l gs col0 s gr 
% Ellipse
15.000 slw
n 10080 1800 90 90 0 360 DrawEllipse gs col0 s gr

% Ellipse
7.500 slw
n 10530 1260 90 90 0 360 DrawEllipse gs col0 s gr

% Ellipse
15.000 slw
n 11070 1800 90 90 0 360 DrawEllipse gs col0 s gr

% Ellipse
n 11430 360 90 90 0 360 DrawEllipse gs col0 s gr

% Ellipse
n 11430 1260 90 90 0 360 DrawEllipse gs col0 s gr

% Ellipse
n 10530 360 90 90 0 360 DrawEllipse gs col0 s gr

% Ellipse
n 10080 900 90 90 0 360 DrawEllipse gs col0 s gr

% Polyline
n 10080 900 m 11070 900 l
 11430 360 l gs col0 s gr 
% Polyline
n 10080 900 m 10530 360 l
 11430 360 l gs col0 s gr 
% Polyline
n 10080 1800 m 11070 1800 l
 11430 1260 l gs col0 s gr 
% Polyline
7.500 slw
n 10080 1800 m 10530 1260 l
 11430 1260 l gs col0 s gr 
% Ellipse
15.000 slw
n 11070 900 90 90 0 360 DrawEllipse gs col0 s gr

% Polyline
n 10080 900 m
 10080 1800 l gs col0 s gr 
% Polyline
n 11070 900 m
 11070 1800 l gs col0 s gr 
% Polyline
n 11430 360 m
 11430 1260 l gs col0 s gr 
% Polyline
7.500 slw
n 10530 360 m
 10530 1260 l gs col0 s gr 
% Ellipse
15.000 slw
n 10530 1800 90 90 0 360 DrawEllipse gs col0 s gr

% Ellipse
n 10620 900 90 90 0 360 DrawEllipse gs col0 s gr

% Ellipse
n 11250 1530 90 90 0 360 DrawEllipse gs col0 s gr

% Ellipse
n 10980 360 90 90 0 360 DrawEllipse gs col0 s gr

% Ellipse
n 11250 630 90 90 0 360 DrawEllipse gs col0 s gr

% Ellipse
7.500 slw
n 10530 810 90 90 0 360 DrawEllipse gs col0 s gr

% Ellipse
15.000 slw
n 10350 585 90 90 0 360 DrawEllipse gs col0 s gr

% Ellipse
7.500 slw
n 10350 1485 90 90 0 360 DrawEllipse gs col0 s gr

% Ellipse
15.000 slw
n 11430 855 90 90 0 360 DrawEllipse gs col0 s gr

% Ellipse
n 11070 1350 90 90 0 360 DrawEllipse gs col0 s gr

% Ellipse
7.500 slw
n 10980 1260 90 90 0 360 DrawEllipse gs col0 s gr

% Ellipse
15.000 slw
n 10080 1350 90 90 0 360 DrawEllipse gs col0 s gr

% Ellipse
n 2160 3330 90 90 0 360 DrawEllipse gs col0 s gr

% Ellipse
n 2160 4230 90 90 0 360 DrawEllipse gs col0 s gr

% Ellipse
n 3060 4230 90 90 0 360 DrawEllipse gs col0 s gr

% Ellipse
n 3060 3330 90 90 0 360 DrawEllipse gs col0 s gr

% Polyline
n 2160 3330 m 3060 3330 l 3060 4230 l 2160 4230 l
 cp gs col0 s gr 
% Polyline
n 4680 3330 m
 5850 3330 l gs col0 s gr 
% Polyline
n 4680 3330 m 5580 3690 l
 5850 3330 l gs col0 s gr 
% Polyline
n 4680 3330 m
 4680 4050 l gs col0 s gr 
% Polyline
n 5580 3690 m
 5580 4410 l gs col0 s gr 
% Polyline
n 5850 3330 m
 5850 4050 l gs col0 s gr 
% Polyline
7.500 slw
n 4680 4050 m
 5850 4050 l gs col0 s gr 
% Polyline
15.000 slw
n 4680 4050 m 5580 4410 l
 5850 4050 l gs col0 s gr 
% Ellipse
n 5580 4410 90 90 0 360 DrawEllipse gs col0 s gr

% Ellipse
n 5850 4050 90 90 0 360 DrawEllipse gs col0 s gr

% Ellipse
n 5850 3330 90 90 0 360 DrawEllipse gs col0 s gr

% Ellipse
n 5580 3690 90 90 0 360 DrawEllipse gs col0 s gr

% Ellipse
n 4680 3330 90 90 0 360 DrawEllipse gs col0 s gr

% Ellipse
n 4680 4050 90 90 0 360 DrawEllipse gs col0 s gr

% Polyline
n 3420 3330 m 4320 3330 l 4320 4230 l 3420 4230 l
 cp gs col0 s gr 
% Ellipse
n 3420 3780 90 90 0 360 DrawEllipse gs col0 s gr

% Ellipse
n 3870 3330 90 90 0 360 DrawEllipse gs col0 s gr

% Ellipse
n 4320 3780 90 90 0 360 DrawEllipse gs col0 s gr

% Ellipse
n 3870 4230 90 90 0 360 DrawEllipse gs col0 s gr

% Ellipse
n 3420 3330 90 90 0 360 DrawEllipse gs col0 s gr

% Ellipse
n 3420 4230 90 90 0 360 DrawEllipse gs col0 s gr

% Ellipse
n 4320 4230 90 90 0 360 DrawEllipse gs col0 s gr

% Ellipse
n 4320 3330 90 90 0 360 DrawEllipse gs col0 s gr

% Polyline
n 3825 3735 m 3915 3735 l 3915 3825 l 3825 3825 l
 cp gs col4 s gr 
% Ellipse
n 8370 3960 90 90 0 360 DrawEllipse gs col0 s gr

% Ellipse
7.500 slw
n 8820 3420 90 90 0 360 DrawEllipse gs col0 s gr

% Ellipse
15.000 slw
n 9360 3960 90 90 0 360 DrawEllipse gs col0 s gr

% Ellipse
n 9720 2520 90 90 0 360 DrawEllipse gs col0 s gr

% Ellipse
n 9720 3420 90 90 0 360 DrawEllipse gs col0 s gr

% Ellipse
n 8820 2520 90 90 0 360 DrawEllipse gs col0 s gr

% Ellipse
n 8370 3060 90 90 0 360 DrawEllipse gs col0 s gr

% Polyline
n 8370 3060 m 9360 3060 l
 9720 2520 l gs col0 s gr 
% Polyline
n 8370 3060 m 8820 2520 l
 9720 2520 l gs col0 s gr 
% Polyline
n 8370 3960 m 9360 3960 l
 9720 3420 l gs col0 s gr 
% Polyline
7.500 slw
n 8370 3960 m 8820 3420 l
 9720 3420 l gs col0 s gr 
% Ellipse
15.000 slw
n 9360 3060 90 90 0 360 DrawEllipse gs col0 s gr

% Polyline
n 8370 3060 m
 8370 3960 l gs col0 s gr 
% Polyline
n 9360 3060 m
 9360 3960 l gs col0 s gr 
% Polyline
n 9720 2520 m
 9720 3420 l gs col0 s gr 
% Polyline
7.500 slw
n 8820 2520 m
 8820 3420 l gs col0 s gr 
% Ellipse
15.000 slw
n 8820 3960 90 90 0 360 DrawEllipse gs col0 s gr

% Ellipse
n 8910 3060 90 90 0 360 DrawEllipse gs col0 s gr

% Ellipse
n 9540 3690 90 90 0 360 DrawEllipse gs col0 s gr

% Ellipse
n 9270 2520 90 90 0 360 DrawEllipse gs col0 s gr

% Ellipse
n 9540 2790 90 90 0 360 DrawEllipse gs col0 s gr

% Ellipse
7.500 slw
n 8820 2970 90 90 0 360 DrawEllipse gs col0 s gr

% Ellipse
15.000 slw
n 8640 2745 90 90 0 360 DrawEllipse gs col0 s gr

% Ellipse
7.500 slw
n 8640 3645 90 90 0 360 DrawEllipse gs col0 s gr

% Ellipse
15.000 slw
n 9720 3015 90 90 0 360 DrawEllipse gs col0 s gr

% Ellipse
n 9360 3510 90 90 0 360 DrawEllipse gs col0 s gr

% Ellipse
7.500 slw
n 9270 3420 90 90 0 360 DrawEllipse gs col0 s gr

% Ellipse
15.000 slw
n 8370 3510 90 90 0 360 DrawEllipse gs col0 s gr

% Polyline
n 9450 3150 m 9540 3150 l 9540 3240 l 9450 3240 l
 cp gs col4 s gr 
% Polyline
7.500 slw
n 8550 3150 m 8640 3150 l 8640 3240 l 8550 3240 l
 cp gs col4 s gr 
% Polyline
n 9270 2880 m 9360 2880 l 9360 2970 l 9270 2970 l
 cp gs col4 s gr 
% Polyline
n 9045 3600 m 9135 3600 l 9135 3690 l 9045 3690 l
 cp gs col4 s gr 
% Polyline
15.000 slw
n 8910 3330 m 9000 3330 l 9000 3420 l 8910 3420 l
 cp gs col4 s gr 
% Polyline
n 9090 2790 m 9180 2790 l 9180 2880 l 9090 2880 l
 cp gs col4 s gr 
% Polyline
n 10890 3150 m
 11070 3330 l gs col1 s gr 
% Polyline
n 10890 3330 m
 11070 3150 l gs col1 s gr 
% Ellipse
n 10260 3960 90 90 0 360 DrawEllipse gs col0 s gr

% Ellipse
7.500 slw
n 10710 3420 90 90 0 360 DrawEllipse gs col0 s gr

% Ellipse
15.000 slw
n 11250 3960 90 90 0 360 DrawEllipse gs col0 s gr

% Ellipse
n 11610 2520 90 90 0 360 DrawEllipse gs col0 s gr

% Ellipse
n 11610 3420 90 90 0 360 DrawEllipse gs col0 s gr

% Ellipse
n 10710 2520 90 90 0 360 DrawEllipse gs col0 s gr

% Ellipse
n 10260 3060 90 90 0 360 DrawEllipse gs col0 s gr

% Polyline
n 10260 3060 m 11250 3060 l
 11610 2520 l gs col0 s gr 
% Polyline
n 10260 3060 m 10710 2520 l
 11610 2520 l gs col0 s gr 
% Polyline
n 10260 3960 m 11250 3960 l
 11610 3420 l gs col0 s gr 
% Polyline
7.500 slw
n 10260 3960 m 10710 3420 l
 11610 3420 l gs col0 s gr 
% Ellipse
15.000 slw
n 11250 3060 90 90 0 360 DrawEllipse gs col0 s gr

% Polyline
n 10260 3060 m
 10260 3960 l gs col0 s gr 
% Polyline
n 11250 3060 m
 11250 3960 l gs col0 s gr 
% Polyline
n 11610 2520 m
 11610 3420 l gs col0 s gr 
% Polyline
7.500 slw
n 10710 2520 m
 10710 3420 l gs col0 s gr 
% Ellipse
15.000 slw
n 10710 3960 90 90 0 360 DrawEllipse gs col0 s gr

% Ellipse
n 10800 3060 90 90 0 360 DrawEllipse gs col0 s gr

% Ellipse
n 11430 3690 90 90 0 360 DrawEllipse gs col0 s gr

% Ellipse
n 11160 2520 90 90 0 360 DrawEllipse gs col0 s gr

% Ellipse
n 11430 2790 90 90 0 360 DrawEllipse gs col0 s gr

% Ellipse
7.500 slw
n 10710 2970 90 90 0 360 DrawEllipse gs col0 s gr

% Ellipse
15.000 slw
n 10530 2745 90 90 0 360 DrawEllipse gs col0 s gr

% Ellipse
7.500 slw
n 10530 3645 90 90 0 360 DrawEllipse gs col0 s gr

% Ellipse
15.000 slw
n 11610 3015 90 90 0 360 DrawEllipse gs col0 s gr

% Ellipse
7.500 slw
n 11160 3420 90 90 0 360 DrawEllipse gs col0 s gr

% Ellipse
15.000 slw
n 10260 3510 90 90 0 360 DrawEllipse gs col0 s gr

% Ellipse
n 11250 3510 90 90 0 360 DrawEllipse gs col0 s gr

% Polyline
7.500 slw
n 10935 3600 m 11025 3600 l 11025 3690 l 10935 3690 l
 cp gs col4 s gr 
% Polyline
15.000 slw
n 11340 3150 m 11430 3150 l 11430 3240 l 11340 3240 l
 cp gs col4 s gr 
% Polyline
7.500 slw
n 11160 2880 m 11250 2880 l 11250 2970 l 11160 2970 l
 cp gs col4 s gr 
% Polyline
n 10440 3150 m 10530 3150 l 10530 3240 l 10440 3240 l
 cp gs col4 s gr 
% Polyline
15.000 slw
n 10980 2790 m 11070 2790 l 11070 2880 l 10980 2880 l
 cp gs col4 s gr 
% Polyline
n 10800 3330 m 10890 3330 l 10890 3420 l 10800 3420 l
 cp gs col4 s gr 
% Ellipse
n 900 450 90 90 0 360 DrawEllipse gs col0 s gr

% Ellipse
n 2160 3780 90 90 0 360 DrawEllipse gs col0 s gr

% Ellipse
n 2610 3330 90 90 0 360 DrawEllipse gs col0 s gr

% Ellipse
n 3060 3780 90 90 0 360 DrawEllipse gs col0 s gr

% Ellipse
n 2610 4230 90 90 0 360 DrawEllipse gs col0 s gr

% here ends figure;
pagefooter
showpage
%%Trailer
%EOF
