#FIG 3.2  Produced by xfig version 3.2.5b
Landscape
Center
Metric
A4      
100.00
Single
-2
1200 2
6 990 1935 1170 2205
6 990 1935 1170 2205
2 2 0 1 0 7 50 -1 -1 0.000 0 0 -1 0 0 5
	 990 1935 1170 1935 1170 2205 990 2205 990 1935
-6
4 0 0 50 -1 0 14 0.0000 4 165 120 1035 2160 1\001
-6
6 7650 450 7830 720
6 7650 450 7830 720
2 2 0 1 0 7 50 -1 -1 0.000 0 0 -1 0 0 5
	 7650 450 7830 450 7830 720 7650 720 7650 450
-6
4 0 0 50 -1 0 14 0.0000 4 165 120 7695 675 1\001
-6
6 3600 0 4725 2925
2 1 0 1 0 7 50 -1 -1 0.000 0 0 -1 0 0 2
	 3825 2025 4500 2025
2 2 0 2 0 7 50 -1 -1 0.000 0 0 -1 0 0 5
	 3825 225 4500 225 4500 2700 3825 2700 3825 225
2 1 0 1 0 7 50 -1 -1 0.000 0 0 -1 0 0 2
	 3825 450 4500 450
2 1 0 1 0 7 50 -1 -1 0.000 0 0 -1 0 0 2
	 3825 675 4500 675
2 1 0 1 0 7 50 -1 -1 0.000 0 0 -1 0 0 2
	 3825 900 4500 900
2 1 0 1 0 7 50 -1 -1 0.000 0 0 -1 0 0 2
	 3825 1125 4500 1125
2 1 0 1 0 7 50 -1 -1 0.000 0 0 -1 0 0 2
	 3825 1350 4500 1350
2 1 0 1 0 7 50 -1 -1 0.000 0 0 -1 0 0 2
	 3825 1575 4500 1575
2 1 0 1 0 7 50 -1 -1 0.000 0 0 -1 0 0 2
	 3825 1800 4500 1800
2 1 0 1 0 7 50 -1 -1 0.000 0 0 -1 0 0 2
	 3825 2250 4500 2250
2 1 0 1 0 7 50 -1 -1 0.000 0 0 -1 0 0 2
	 3825 2475 4500 2475
-6
6 450 450 3150 2520
6 450 450 3150 2520
6 450 450 3150 2520
6 450 450 3150 2520
2 3 0 1 0 7 50 -1 -1 0.000 0 0 -1 0 0 4
	 1080 1620 450 1378 540 2250 1080 1620
2 3 0 1 0 7 50 -1 -1 0.000 0 0 -1 0 0 4
	 450 1378 1080 1620 848 848 450 1378
2 3 0 1 0 7 50 -1 -1 0.000 0 0 -1 0 0 4
	 2306 1909 2703 2307 1776 2439 2306 1909
2 3 0 1 0 7 50 -1 -1 0.000 0 0 -1 0 0 4
	 3101 1511 2703 2307 2306 1909 3101 1511
2 3 0 1 0 7 50 -1 -1 0.000 0 0 -1 0 0 4
	 848 848 1643 450 1643 1378 848 848
-6
2 3 0 1 0 7 50 -1 -1 0.000 0 0 -1 0 0 4
	 2571 848 2306 1909 1643 1378 2571 848
2 3 0 1 0 7 50 -1 -1 0.000 0 0 -1 0 0 4
	 1080 1620 848 848 1643 1378 1080 1620
-6
2 3 0 1 0 7 50 -1 -1 0.000 0 0 -1 0 0 4
	 1080 1620 1643 1378 1776 2439 1080 1620
2 3 0 1 0 7 50 -1 -1 0.000 0 0 -1 0 0 4
	 1643 1378 2571 848 1643 450 1643 1378
2 3 0 1 0 7 50 -1 -1 0.000 0 0 -1 0 0 4
	 2306 1909 3101 1511 2571 848 2306 1909
-6
2 3 0 1 0 7 50 -1 -1 0.000 0 0 -1 0 0 4
	 1080 1620 540 2250 1776 2439 1080 1620
2 3 0 1 0 7 50 -1 -1 0.000 0 0 -1 0 0 4
	 1776 2439 2306 1909 1643 1378 1776 2439
-6
2 2 0 1 0 7 50 -1 -1 0.000 0 0 -1 0 0 5
	 1395 1620 1575 1620 1575 1890 1395 1890 1395 1620
2 2 0 1 0 7 50 -1 -1 0.000 0 0 -1 0 0 5
	 1845 1800 2025 1800 2025 2070 1845 2070 1845 1800
2 2 0 1 0 7 50 -1 -1 0.000 0 0 -1 0 0 5
	 2205 2025 2385 2025 2385 2295 2205 2295 2205 2025
2 2 0 1 0 7 50 -1 -1 0.000 0 0 -1 0 0 5
	 2565 1800 2745 1800 2745 2070 2565 2070 2565 1800
2 2 0 1 0 7 50 -1 -1 0.000 0 0 -1 0 0 5
	 2610 1260 2790 1260 2790 1530 2610 1530 2610 1260
2 2 0 1 0 7 50 -1 -1 0.000 0 0 -1 0 0 5
	 1935 720 2115 720 2115 990 1935 990 1935 720
2 2 0 1 0 7 50 -1 -1 0.000 0 0 -1 0 0 5
	 630 1170 900 1170 900 1440 630 1440 630 1170
2 2 0 1 0 7 50 -1 -1 0.000 0 0 -1 0 0 5
	 1080 1125 1395 1125 1395 1395 1080 1395 1080 1125
2 2 0 1 0 7 50 -1 -1 0.000 0 0 -1 0 0 5
	 2070 1260 2250 1260 2250 1530 2070 1530 2070 1260
2 2 0 1 0 7 50 -1 -1 0.000 0 0 -1 0 0 5
	 585 1620 765 1620 765 1890 585 1890 585 1620
2 2 0 1 0 7 50 -1 -1 0.000 0 0 -1 0 0 5
	 1305 765 1485 765 1485 1035 1305 1035 1305 765
2 2 0 1 0 7 50 -1 -1 0.000 0 0 -1 0 0 5
	 7650 900 7830 900 7830 1170 7650 1170 7650 900
2 2 0 1 0 7 50 -1 -1 0.000 0 0 -1 0 0 5
	 7650 1350 7830 1350 7830 1620 7650 1620 7650 1350
2 2 0 1 0 7 50 -1 -1 0.000 0 0 -1 0 0 5
	 7650 1800 7830 1800 7830 2070 7650 2070 7650 1800
2 2 0 1 0 7 50 -1 -1 0.000 0 0 -1 0 0 5
	 7650 0 7830 0 7830 270 7650 270 7650 0
2 1 0 1 0 7 50 -1 -1 0.000 0 0 -1 1 0 4
	3 1 1.00 60.00 120.00
	 4500 1710 4635 1710 4770 585 5175 585
2 1 0 1 0 7 50 -1 -1 0.000 0 0 -1 1 0 4
	3 1 1.00 60.00 120.00
	 4500 2160 4680 2160 4950 360 5175 360
2 1 0 1 0 7 50 -1 -1 0.000 0 0 -1 0 0 2
	 8595 540 8910 540
2 1 0 1 0 7 50 -1 -1 0.000 0 0 -1 0 0 2
	 8595 990 9045 990
2 1 0 1 0 7 50 -1 -1 0.000 0 0 -1 0 0 2
	 8640 1890 9045 1890
2 1 0 1 0 7 50 -1 -1 0.000 0 0 -1 0 0 2
	 9270 1440 9720 1440
2 1 0 1 0 7 50 -1 -1 0.000 0 0 -1 1 0 4
	3 1 1.00 60.00 120.00
	 7200 495 7425 495 7425 720 7200 720
2 1 0 1 0 7 50 -1 -1 0.000 0 0 -1 1 0 4
	3 1 1.00 60.00 120.00
	 7200 810 7425 810 7425 1035 7200 1035
2 1 0 1 0 7 50 -1 -1 0.000 0 0 -1 1 0 4
	3 1 1.00 60.00 120.00
	 7200 1440 7425 1440 7425 1665 7200 1665
2 1 0 1 0 7 50 -1 -1 0.000 0 0 -1 1 0 4
	3 1 1.00 60.00 120.00
	 4500 2385 4770 2385 4995 1260 5220 1260
2 1 0 1 0 7 50 -1 -1 0.000 0 0 -1 1 0 4
	3 1 1.00 60.00 120.00
	 4500 990 4635 990 4995 1485 5220 1485
2 1 0 1 0 7 50 -1 -1 0.000 0 0 -1 1 0 4
	3 1 1.00 60.00 120.00
	 7200 1710 7425 1710 7425 2160 7200 2160
2 1 0 1 0 7 50 -1 -1 0.000 0 0 -1 1 0 4
	3 1 1.00 60.00 120.00
	 7200 1890 7560 1890 7560 2340 7200 2340
2 1 0 1 0 7 50 -1 -1 0.000 0 0 -1 1 0 4
	3 1 1.00 60.00 120.00
	 4500 1215 4635 1215 4995 1890 5220 1890
2 1 0 1 0 7 50 -1 -1 0.000 0 0 -1 1 0 4
	3 1 1.00 60.00 120.00
	 4500 1890 4635 1890 4995 2565 5220 2565
2 1 0 1 0 7 50 -1 -1 0.000 0 0 -1 0 0 2
	 5400 450 7200 450
2 1 0 1 0 7 50 -1 -1 0.000 0 0 -1 0 0 2
	 5400 675 7200 675
2 1 0 1 0 7 50 -1 -1 0.000 0 0 -1 0 0 2
	 5400 900 7200 900
2 1 0 1 0 7 50 -1 -1 0.000 0 0 -1 0 0 2
	 5400 1125 7200 1125
2 1 0 1 0 7 50 -1 -1 0.000 0 0 -1 0 0 2
	 5400 1350 7200 1350
2 1 0 1 0 7 50 -1 -1 0.000 0 0 -1 0 0 2
	 5400 1575 7200 1575
2 1 0 1 0 7 50 -1 -1 0.000 0 0 -1 0 0 2
	 5400 1800 7200 1800
2 1 0 1 0 7 50 -1 -1 0.000 0 0 -1 0 0 2
	 5400 2025 7200 2025
2 1 0 1 0 7 50 -1 -1 0.000 0 0 -1 0 0 2
	 5400 2250 7200 2250
2 2 0 2 0 7 50 -1 -1 0.000 0 0 -1 0 0 5
	 5400 225 7200 225 7200 2700 5400 2700 5400 225
2 1 0 1 0 7 50 -1 -1 0.000 0 0 -1 0 0 2
	 6525 225 6525 2700
2 1 0 1 0 7 50 -1 -1 0.000 0 0 -1 0 0 2
	 5400 2475 7200 2475
4 0 0 50 -1 0 14 0.0000 4 165 120 1890 2025 3\001
4 0 0 50 -1 0 14 0.0000 4 165 120 2250 2250 4\001
4 0 0 50 -1 0 14 0.0000 4 165 120 2610 2025 5\001
4 0 0 50 -1 0 14 0.0000 4 165 120 2655 1485 6\001
4 0 0 50 -1 0 14 0.0000 4 165 120 2115 1485 7\001
4 0 0 50 -1 0 14 0.0000 4 165 120 1980 945 8\001
4 0 0 50 -1 0 14 0.0000 4 165 120 1350 990 9\001
4 0 0 50 -1 0 14 0.0000 4 165 240 675 1395 11\001
4 0 0 50 -1 0 14 0.0000 4 165 240 1125 1350 10\001
4 0 0 50 -1 0 14 0.0000 4 165 120 1440 1845 2\001
4 0 4 50 -1 18 12 0.0000 4 135 105 1575 1350 3\001
4 0 4 50 -1 18 12 0.0000 4 135 105 1080 1845 6\001
4 0 4 50 -1 18 12 0.0000 4 135 105 405 2340 9\001
4 0 4 50 -1 18 12 0.0000 4 135 105 2565 855 0\001
4 0 4 50 -1 18 12 0.0000 4 135 105 2700 2385 7\001
4 0 4 50 -1 18 12 0.0000 4 135 105 1710 450 1\001
4 0 4 50 -1 18 12 0.0000 4 135 105 810 810 2\001
4 0 4 50 -1 18 12 0.0000 4 135 105 3690 630 1\001
4 0 4 50 -1 18 12 0.0000 4 135 105 3690 1080 3\001
4 0 4 50 -1 18 12 0.0000 4 135 105 3690 1530 5\001
4 0 4 50 -1 18 12 0.0000 4 135 105 3690 1980 7\001
4 0 4 50 -1 18 12 0.0000 4 135 105 3690 2430 9\001
4 0 4 50 -1 18 12 0.0000 4 135 105 3690 855 2\001
4 0 4 50 -1 18 12 0.0000 4 135 105 3690 2205 8\001
4 0 4 50 -1 18 12 0.0000 4 135 105 3690 1755 6\001
4 0 4 50 -1 18 12 0.0000 4 135 210 1530 2565 10\001
4 0 0 50 -1 0 14 0.0000 4 165 120 7695 1125 2\001
4 0 0 50 -1 0 14 0.0000 4 165 120 7695 1575 3\001
4 0 0 50 -1 0 14 0.0000 4 165 120 7695 2025 4\001
4 0 0 50 -1 0 14 0.0000 4 165 120 630 1845 0\001
4 0 4 50 -1 18 12 0.0000 4 135 105 2250 1800 4\001
4 0 4 50 -1 18 12 0.0000 4 135 105 3105 1755 5\001
4 0 4 50 -1 18 12 0.0000 4 135 105 360 1395 8\001
4 0 0 50 -1 0 14 0.0000 4 165 120 7695 225 0\001
4 0 4 50 -1 18 12 0.0000 4 135 105 3690 405 0\001
4 0 0 50 -1 0 16 0.0000 4 255 990 3645 90 listBegin\001
4 0 0 50 -1 0 16 0.0000 4 255 990 5445 90 listEdges\001
4 0 1 50 -1 19 12 0.0000 4 135 105 4095 2205 0\001
4 0 4 50 -1 18 12 0.0000 4 135 105 5715 405 8\001
4 0 4 50 -1 18 12 0.0000 4 135 105 6165 405 9\001
4 0 4 50 -1 18 12 0.0000 4 135 210 8010 630 10\001
4 0 4 50 -1 18 12 0.0000 4 135 210 8010 1530 10\001
4 0 4 50 -1 18 12 0.0000 4 135 105 8055 180 8\001
4 0 4 50 -1 18 12 0.0000 4 135 210 8775 1080 10\001
4 0 4 50 -1 18 12 0.0000 4 135 210 9180 1080 10\001
4 0 4 50 -1 18 12 0.0000 4 135 105 9450 1080 3\001
4 0 4 50 -1 18 12 0.0000 4 135 105 8325 630 6\001
4 0 4 50 -1 18 12 0.0000 4 135 105 8820 630 9\001
4 0 4 50 -1 18 12 0.0000 4 135 210 9405 630 10\001
4 0 4 50 -1 18 12 0.0000 4 135 105 9225 630 9\001
4 0 4 50 -1 18 12 0.0000 4 135 105 8280 180 9\001
4 0 4 50 -1 18 12 0.0000 4 135 105 8820 180 6\001
4 0 4 50 -1 18 12 0.0000 4 135 105 9450 180 8\001
4 0 4 50 -1 18 12 0.0000 4 135 105 9270 180 6\001
4 0 4 50 -1 18 12 0.0000 4 135 105 8640 180 9\001
4 0 4 50 -1 18 12 0.0000 4 135 105 8640 630 6\001
4 0 4 50 -1 18 12 0.0000 4 135 210 9450 1530 10\001
4 0 4 50 -1 18 12 0.0000 4 135 105 9270 1530 3\001
4 0 4 50 -1 18 12 0.0000 4 135 105 8640 1530 4\001
4 0 4 50 -1 18 12 0.0000 4 135 105 8640 1080 6\001
4 0 4 50 -1 18 12 0.0000 4 135 105 8820 1530 3\001
4 0 4 50 -1 18 12 0.0000 4 135 105 8325 1530 4\001
4 0 4 50 -1 18 12 0.0000 4 135 105 8325 1080 6\001
4 0 4 50 -1 18 12 0.0000 4 135 105 8100 1080 3\001
4 0 4 50 -1 18 12 0.0000 4 135 105 9540 1980 7\001
4 0 4 50 -1 18 12 0.0000 4 135 210 9225 1980 10\001
4 0 4 50 -1 18 12 0.0000 4 135 210 8820 1980 10\001
4 0 4 50 -1 18 12 0.0000 4 135 105 8640 1980 4\001
4 0 4 50 -1 18 12 0.0000 4 135 105 8280 1980 4\001
4 0 4 50 -1 18 12 0.0000 4 135 105 8100 1980 7\001
4 0 4 50 -1 18 12 0.0000 4 135 210 3600 2655 10\001
4 0 1 50 -1 19 12 0.0000 4 135 105 4095 1755 1\001
4 0 1 50 -1 19 12 0.0000 4 135 105 5220 405 0\001
4 0 1 50 -1 19 12 0.0000 4 135 105 5220 630 1\001
4 0 1 50 -1 19 12 0.0000 4 135 105 5220 855 2\001
4 0 1 50 -1 19 12 0.0000 4 135 105 5220 1080 3\001
4 0 1 50 -1 19 12 0.0000 4 135 105 5220 1530 5\001
4 0 1 50 -1 19 12 0.0000 4 135 105 5220 1755 6\001
4 0 1 50 -1 19 12 0.0000 4 135 105 5220 1980 7\001
4 0 1 50 -1 19 12 0.0000 4 135 105 5220 2205 8\001
4 0 1 50 -1 19 12 0.0000 4 135 105 5220 2430 9\001
4 0 1 50 -1 19 12 0.0000 4 135 105 5220 1305 4\001
4 0 4 50 -1 18 12 0.0000 4 135 105 5715 630 6\001
4 0 4 50 -1 18 12 0.0000 4 135 105 6165 630 9\001
4 0 1 50 -1 19 12 0.0000 4 135 105 6795 630 2\001
4 0 4 50 -1 18 12 0.0000 4 135 105 5715 855 6\001
4 0 4 50 -1 18 12 0.0000 4 135 105 6165 855 8\001
4 0 4 50 -1 18 12 0.0000 4 135 105 5715 1080 6\001
4 0 4 50 -1 18 12 0.0000 4 135 210 6120 1080 10\001
4 0 1 50 -1 19 12 0.0000 4 135 105 6795 855 3\001
4 0 1 50 -1 19 12 0.0000 4 150 510 6615 1080 NULL\001
4 0 1 50 -1 19 12 0.0000 4 135 105 4095 2430 4\001
4 0 4 50 -1 18 12 0.0000 4 135 210 6120 1305 10\001
4 0 4 50 -1 18 12 0.0000 4 135 105 5715 1305 9\001
4 0 1 50 -1 19 12 0.0000 4 150 510 6615 1305 NULL\001
4 0 4 50 -1 18 12 0.0000 4 135 105 5715 1530 3\001
4 0 4 50 -1 18 12 0.0000 4 135 105 6165 1530 6\001
4 0 4 50 -1 18 12 0.0000 4 135 105 5715 1755 3\001
4 0 1 50 -1 19 12 0.0000 4 135 105 6795 1530 6\001
4 0 1 50 -1 19 12 0.0000 4 135 105 4095 1305 7\001
4 0 1 50 -1 19 12 0.0000 4 135 105 4095 1080 5\001
4 0 4 50 -1 18 12 0.0000 4 135 105 3690 1305 4\001
4 0 4 50 -1 18 12 0.0000 4 135 210 6120 1755 10\001
4 0 4 50 -1 18 12 0.0000 4 135 105 5715 1980 4\001
4 0 4 50 -1 18 12 0.0000 4 135 210 6120 1980 10\001
4 0 4 50 -1 18 12 0.0000 4 135 105 5715 2205 3\001
4 0 4 50 -1 18 12 0.0000 4 135 105 6165 2205 4\001
4 0 1 50 -1 19 12 0.0000 4 135 105 6795 1755 8\001
4 0 1 50 -1 19 12 0.0000 4 150 510 6615 2205 NULL\001
4 0 1 50 -1 19 12 0.0000 4 135 105 6795 1980 9\001
4 0 4 50 -1 18 12 0.0000 4 135 105 5715 2430 4\001
4 0 4 50 -1 18 12 0.0000 4 135 105 6165 2430 7\001
4 0 1 50 -1 19 12 0.0000 4 135 210 5130 2655 10\001
4 0 1 50 -1 19 12 0.0000 4 135 210 4005 1980 10\001
4 0 4 50 -1 18 12 0.0000 4 135 105 5715 2655 7\001
4 0 4 50 -1 18 12 0.0000 4 135 210 6120 2655 10\001
4 0 1 50 -1 19 12 0.0000 4 150 510 6615 405 NULL\001
4 0 1 50 -1 19 12 0.0000 4 150 510 6615 2430 NULL\001
4 0 1 50 -1 19 12 0.0000 4 150 510 3915 405 NULL\001
4 0 1 50 -1 19 12 0.0000 4 150 510 3915 630 NULL\001
4 0 1 50 -1 19 12 0.0000 4 150 510 3915 855 NULL\001
4 0 1 50 -1 19 12 0.0000 4 150 510 3915 1530 NULL\001
4 0 1 50 -1 19 12 0.0000 4 150 510 3915 2655 NULL\001
4 0 1 50 -1 19 12 0.0000 4 150 510 6615 2655 NULL\001
4 0 0 50 -1 2 16 0.0000 4 195 1860 7875 2520 AFTER STEP 5\001
4 0 0 50 -1 0 15 0.0000 4 225 2025 7605 -45 Element: local edges\001
