%!PS-Adobe-2.0 EPSF-2.0
%%Title: felisce-fig-build-edges-step1.fig
%%Creator: fig2dev Version 3.2 Patchlevel 5a
%%CreationDate: Thu Jul 26 10:45:53 2012
%%BoundingBox: 0 0 590 180
%Magnification: 1.0000
%%EndComments
%%BeginProlog
/$F2psDict 200 dict def
$F2psDict begin
$F2psDict /mtrx matrix put
/col-1 {0 setgray} bind def
/col0 {0.000 0.000 0.000 srgb} bind def
/col1 {0.000 0.000 1.000 srgb} bind def
/col2 {0.000 1.000 0.000 srgb} bind def
/col3 {0.000 1.000 1.000 srgb} bind def
/col4 {1.000 0.000 0.000 srgb} bind def
/col5 {1.000 0.000 1.000 srgb} bind def
/col6 {1.000 1.000 0.000 srgb} bind def
/col7 {1.000 1.000 1.000 srgb} bind def
/col8 {0.000 0.000 0.560 srgb} bind def
/col9 {0.000 0.000 0.690 srgb} bind def
/col10 {0.000 0.000 0.820 srgb} bind def
/col11 {0.530 0.810 1.000 srgb} bind def
/col12 {0.000 0.560 0.000 srgb} bind def
/col13 {0.000 0.690 0.000 srgb} bind def
/col14 {0.000 0.820 0.000 srgb} bind def
/col15 {0.000 0.560 0.560 srgb} bind def
/col16 {0.000 0.690 0.690 srgb} bind def
/col17 {0.000 0.820 0.820 srgb} bind def
/col18 {0.560 0.000 0.000 srgb} bind def
/col19 {0.690 0.000 0.000 srgb} bind def
/col20 {0.820 0.000 0.000 srgb} bind def
/col21 {0.560 0.000 0.560 srgb} bind def
/col22 {0.690 0.000 0.690 srgb} bind def
/col23 {0.820 0.000 0.820 srgb} bind def
/col24 {0.500 0.190 0.000 srgb} bind def
/col25 {0.630 0.250 0.000 srgb} bind def
/col26 {0.750 0.380 0.000 srgb} bind def
/col27 {1.000 0.500 0.500 srgb} bind def
/col28 {1.000 0.630 0.630 srgb} bind def
/col29 {1.000 0.750 0.750 srgb} bind def
/col30 {1.000 0.880 0.880 srgb} bind def
/col31 {1.000 0.840 0.000 srgb} bind def

end

/cp {closepath} bind def
/ef {eofill} bind def
/gr {grestore} bind def
/gs {gsave} bind def
/sa {save} bind def
/rs {restore} bind def
/l {lineto} bind def
/m {moveto} bind def
/rm {rmoveto} bind def
/n {newpath} bind def
/s {stroke} bind def
/sh {show} bind def
/slc {setlinecap} bind def
/slj {setlinejoin} bind def
/slw {setlinewidth} bind def
/srgb {setrgbcolor} bind def
/rot {rotate} bind def
/sc {scale} bind def
/sd {setdash} bind def
/ff {findfont} bind def
/sf {setfont} bind def
/scf {scalefont} bind def
/sw {stringwidth} bind def
/tr {translate} bind def
/tnt {dup dup currentrgbcolor
  4 -2 roll dup 1 exch sub 3 -1 roll mul add
  4 -2 roll dup 1 exch sub 3 -1 roll mul add
  4 -2 roll dup 1 exch sub 3 -1 roll mul add srgb}
  bind def
/shd {dup dup currentrgbcolor 4 -2 roll mul 4 -2 roll mul
  4 -2 roll mul srgb} bind def
/$F2psBegin {$F2psDict begin /$F2psEnteredState save def} def
/$F2psEnd {$F2psEnteredState restore end} def

/pageheader {
save
newpath 0 180 moveto 0 0 lineto 590 0 lineto 590 180 lineto closepath clip newpath
-21.7 171.5 translate
1 -1 scale
$F2psBegin
10 setmiterlimit
0 slj 0 slc
 0.06299 0.06299 sc
} bind def
/pagefooter {
$F2psEnd
restore
} bind def
%%EndProlog
pageheader
%
% Fig objects follow
%
% 
% here starts figure with depth 50
% Polyline
0 slj
0 slc
7.500 slw
n 990 1935 m 1170 1935 l 1170 2205 l 990 2205 l
 cp gs col0 s gr 
% Polyline
n 1080 1620 m 450 1378 l 540 2250 l
 cp gs col0 s gr 
% Polyline
n 450 1378 m 1080 1620 l 848 848 l
 cp gs col0 s gr 
% Polyline
n 2306 1909 m 2703 2307 l 1776 2439 l
 cp gs col0 s gr 
% Polyline
n 3101 1511 m 2703 2307 l 2306 1909 l
 cp gs col0 s gr 
% Polyline
n 848 848 m 1643 450 l 1643 1378 l
 cp gs col0 s gr 
% Polyline
n 2571 848 m 2306 1909 l 1643 1378 l
 cp gs col0 s gr 
% Polyline
n 1080 1620 m 848 848 l 1643 1378 l
 cp gs col0 s gr 
% Polyline
n 1080 1620 m 1643 1378 l 1776 2439 l
 cp gs col0 s gr 
% Polyline
n 1643 1378 m 2571 848 l 1643 450 l
 cp gs col0 s gr 
% Polyline
n 2306 1909 m 3101 1511 l 2571 848 l
 cp gs col0 s gr 
% Polyline
n 1080 1620 m 540 2250 l 1776 2439 l
 cp gs col0 s gr 
% Polyline
n 1776 2439 m 2306 1909 l 1643 1378 l
 cp gs col0 s gr 
% Polyline
n 7605 225 m 7785 225 l 7785 495 l 7605 495 l
 cp gs col0 s gr 
% Polyline
n 1395 1620 m 1575 1620 l 1575 1890 l 1395 1890 l
 cp gs col0 s gr 
% Polyline
n 1845 1800 m 2025 1800 l 2025 2070 l 1845 2070 l
 cp gs col0 s gr 
% Polyline
n 2205 2025 m 2385 2025 l 2385 2295 l 2205 2295 l
 cp gs col0 s gr 
% Polyline
n 2565 1800 m 2745 1800 l 2745 2070 l 2565 2070 l
 cp gs col0 s gr 
% Polyline
n 2610 1260 m 2790 1260 l 2790 1530 l 2610 1530 l
 cp gs col0 s gr 
% Polyline
n 1935 720 m 2115 720 l 2115 990 l 1935 990 l
 cp gs col0 s gr 
% Polyline
n 630 1170 m 900 1170 l 900 1440 l 630 1440 l
 cp gs col0 s gr 
% Polyline
n 1080 1125 m 1395 1125 l 1395 1395 l 1080 1395 l
 cp gs col0 s gr 
% Polyline
n 2070 1260 m 2250 1260 l 2250 1530 l 2070 1530 l
 cp gs col0 s gr 
% Polyline
n 585 1620 m 765 1620 l 765 1890 l 585 1890 l
 cp gs col0 s gr 
% Polyline
n 1305 765 m 1485 765 l 1485 1035 l 1305 1035 l
 cp gs col0 s gr 
% Polyline
n 3825 450 m
 4500 450 l gs col0 s gr 
% Polyline
n 3825 675 m
 4500 675 l gs col0 s gr 
% Polyline
n 3825 900 m
 4500 900 l gs col0 s gr 
% Polyline
n 3825 1125 m
 4500 1125 l gs col0 s gr 
% Polyline
n 3825 1350 m
 4500 1350 l gs col0 s gr 
% Polyline
n 3825 1575 m
 4500 1575 l gs col0 s gr 
% Polyline
n 3825 1800 m
 4500 1800 l gs col0 s gr 
% Polyline
n 3825 2025 m
 4500 2025 l gs col0 s gr 
% Polyline
n 3825 2250 m
 4500 2250 l gs col0 s gr 
% Polyline
n 3825 2475 m
 4500 2475 l gs col0 s gr 
% Polyline
15.000 slw
n 3825 225 m 4500 225 l 4500 2700 l 3825 2700 l
 cp gs col0 s gr 
% Polyline
7.500 slw
gs  clippath
5073 615 m 5190 615 l 5190 555 l 5073 555 l 5073 555 l 5163 585 l 5073 615 l cp
eoclip
n 4500 1710 m 4635 1710 l 4770 585 l
 5175 585 l gs col0 s gr gr

% arrowhead
n 5073 615 m 5163 585 l 5073 555 l 5043 585 l 5073 615 l 
 cp gs 0.00 setgray ef gr  col0 s
% Polyline
gs  clippath
5073 390 m 5190 390 l 5190 330 l 5073 330 l 5073 330 l 5163 360 l 5073 390 l cp
eoclip
n 4500 2160 m 4680 2160 l 4950 360 l
 5175 360 l gs col0 s gr gr

% arrowhead
n 5073 390 m 5163 360 l 5073 330 l 5043 360 l 5073 390 l 
 cp gs 0.00 setgray ef gr  col0 s
% Polyline
gs  clippath
7302 780 m 7185 780 l 7185 840 l 7302 840 l 7302 840 l 7212 810 l 7302 780 l cp
eoclip
n 7200 540 m 7425 540 l 7425 810 l
 7200 810 l gs col0 s gr gr

% arrowhead
n 7302 780 m 7212 810 l 7302 840 l 7332 810 l 7302 780 l 
 cp gs 0.00 setgray ef gr  col0 s
% Polyline
n 5400 450 m
 7200 450 l gs col0 s gr 
% Polyline
n 5400 675 m
 7200 675 l gs col0 s gr 
% Polyline
n 6525 225 m
 6525 900 l gs col0 s gr 
% Polyline
15.000 slw
n 5400 225 m 7200 225 l 7200 900 l 5400 900 l
 cp gs col0 s gr 
/Times-Roman ff 222.25 scf sf
1035 2160 m
gs 1 -1 sc (1) col0 sh gr
/Helvetica-Bold ff 190.50 scf sf
8010 405 m
gs 1 -1 sc (8) col4 sh gr
/Helvetica-Bold ff 190.50 scf sf
8235 405 m
gs 1 -1 sc (9) col4 sh gr
/Helvetica-Bold ff 190.50 scf sf
8775 405 m
gs 1 -1 sc (6) col4 sh gr
/Helvetica-Bold ff 190.50 scf sf
9405 405 m
gs 1 -1 sc (8) col4 sh gr
/Helvetica-Bold ff 190.50 scf sf
9225 405 m
gs 1 -1 sc (6) col4 sh gr
/Helvetica-Bold ff 190.50 scf sf
8595 405 m
gs 1 -1 sc (9) col4 sh gr
/Times-Roman ff 222.25 scf sf
7650 450 m
gs 1 -1 sc (0) col0 sh gr
/Times-Roman ff 222.25 scf sf
1890 2025 m
gs 1 -1 sc (3) col0 sh gr
/Times-Roman ff 222.25 scf sf
2250 2250 m
gs 1 -1 sc (4) col0 sh gr
/Times-Roman ff 222.25 scf sf
2610 2025 m
gs 1 -1 sc (5) col0 sh gr
/Times-Roman ff 222.25 scf sf
2655 1485 m
gs 1 -1 sc (6) col0 sh gr
/Times-Roman ff 222.25 scf sf
2115 1485 m
gs 1 -1 sc (7) col0 sh gr
/Times-Roman ff 222.25 scf sf
1980 945 m
gs 1 -1 sc (8) col0 sh gr
/Times-Roman ff 222.25 scf sf
1350 990 m
gs 1 -1 sc (9) col0 sh gr
/Times-Roman ff 222.25 scf sf
675 1395 m
gs 1 -1 sc (11) col0 sh gr
/Times-Roman ff 222.25 scf sf
1125 1350 m
gs 1 -1 sc (10) col0 sh gr
/Times-Roman ff 222.25 scf sf
1440 1845 m
gs 1 -1 sc (2) col0 sh gr
/Helvetica-Bold ff 190.50 scf sf
1575 1350 m
gs 1 -1 sc (3) col4 sh gr
/Helvetica-Bold ff 190.50 scf sf
1080 1845 m
gs 1 -1 sc (6) col4 sh gr
/Helvetica-Bold ff 190.50 scf sf
405 2340 m
gs 1 -1 sc (9) col4 sh gr
/Helvetica-Bold ff 190.50 scf sf
2565 855 m
gs 1 -1 sc (0) col4 sh gr
/Helvetica-Bold ff 190.50 scf sf
2700 2385 m
gs 1 -1 sc (7) col4 sh gr
/Helvetica-Bold ff 190.50 scf sf
1710 450 m
gs 1 -1 sc (1) col4 sh gr
/Helvetica-Bold ff 190.50 scf sf
810 810 m
gs 1 -1 sc (2) col4 sh gr
/Helvetica-Bold ff 190.50 scf sf
3690 630 m
gs 1 -1 sc (1) col4 sh gr
/Helvetica-Bold ff 190.50 scf sf
3690 1080 m
gs 1 -1 sc (3) col4 sh gr
/Helvetica-Bold ff 190.50 scf sf
3690 1530 m
gs 1 -1 sc (5) col4 sh gr
/Helvetica-Bold ff 190.50 scf sf
3690 1980 m
gs 1 -1 sc (7) col4 sh gr
/Helvetica-Bold ff 190.50 scf sf
3690 2430 m
gs 1 -1 sc (9) col4 sh gr
/Helvetica-Bold ff 190.50 scf sf
3690 1305 m
gs 1 -1 sc (4) col4 sh gr
/Helvetica-Bold ff 190.50 scf sf
3690 855 m
gs 1 -1 sc (2) col4 sh gr
/Helvetica-Bold ff 190.50 scf sf
3690 2205 m
gs 1 -1 sc (8) col4 sh gr
/Helvetica-Bold ff 190.50 scf sf
3690 1755 m
gs 1 -1 sc (6) col4 sh gr
/Helvetica-Bold ff 190.50 scf sf
1530 2565 m
gs 1 -1 sc (10) col4 sh gr
/Times-Roman ff 222.25 scf sf
630 1845 m
gs 1 -1 sc (0) col0 sh gr
/Helvetica-Bold ff 190.50 scf sf
2250 1800 m
gs 1 -1 sc (4) col4 sh gr
/Helvetica-Bold ff 190.50 scf sf
3105 1755 m
gs 1 -1 sc (5) col4 sh gr
/Helvetica-Bold ff 190.50 scf sf
360 1395 m
gs 1 -1 sc (8) col4 sh gr
/Helvetica-Bold ff 190.50 scf sf
3690 405 m
gs 1 -1 sc (0) col4 sh gr
/Times-Roman ff 254.00 scf sf
3645 90 m
gs 1 -1 sc (listBegin) col0 sh gr
/Times-Roman ff 254.00 scf sf
5445 90 m
gs 1 -1 sc (listEdges) col0 sh gr
/Helvetica-BoldOblique ff 190.50 scf sf
4095 2205 m
gs 1 -1 sc (0) col1 sh gr
/Helvetica-Bold ff 190.50 scf sf
5715 405 m
gs 1 -1 sc (8) col4 sh gr
/Helvetica-Bold ff 190.50 scf sf
6165 405 m
gs 1 -1 sc (9) col4 sh gr
/Helvetica-Bold ff 190.50 scf sf
3600 2655 m
gs 1 -1 sc (10) col4 sh gr
/Helvetica-BoldOblique ff 190.50 scf sf
4095 1755 m
gs 1 -1 sc (1) col1 sh gr
/Helvetica-BoldOblique ff 190.50 scf sf
5220 405 m
gs 1 -1 sc (0) col1 sh gr
/Helvetica-BoldOblique ff 190.50 scf sf
5220 630 m
gs 1 -1 sc (1) col1 sh gr
/Helvetica-BoldOblique ff 190.50 scf sf
5220 855 m
gs 1 -1 sc (2) col1 sh gr
/Helvetica-BoldOblique ff 190.50 scf sf
6615 405 m
gs 1 -1 sc (NULL) col1 sh gr
/Helvetica-BoldOblique ff 190.50 scf sf
3915 405 m
gs 1 -1 sc (NULL) col1 sh gr
/Helvetica-BoldOblique ff 190.50 scf sf
3915 630 m
gs 1 -1 sc (NULL) col1 sh gr
/Helvetica-BoldOblique ff 190.50 scf sf
3915 855 m
gs 1 -1 sc (NULL) col1 sh gr
/Helvetica-BoldOblique ff 190.50 scf sf
3915 1080 m
gs 1 -1 sc (NULL) col1 sh gr
/Helvetica-BoldOblique ff 190.50 scf sf
3915 1305 m
gs 1 -1 sc (NULL) col1 sh gr
/Helvetica-BoldOblique ff 190.50 scf sf
3915 1530 m
gs 1 -1 sc (NULL) col1 sh gr
/Helvetica-BoldOblique ff 190.50 scf sf
3915 1980 m
gs 1 -1 sc (NULL) col1 sh gr
/Helvetica-BoldOblique ff 190.50 scf sf
3915 2430 m
gs 1 -1 sc (NULL) col1 sh gr
/Helvetica-BoldOblique ff 190.50 scf sf
3915 2655 m
gs 1 -1 sc (NULL) col1 sh gr
/Helvetica-Bold ff 190.50 scf sf
5715 630 m
gs 1 -1 sc (6) col4 sh gr
/Helvetica-Bold ff 190.50 scf sf
6165 630 m
gs 1 -1 sc (9) col4 sh gr
/Helvetica-BoldOblique ff 190.50 scf sf
6795 630 m
gs 1 -1 sc (2) col1 sh gr
/Helvetica-Bold ff 190.50 scf sf
5715 855 m
gs 1 -1 sc (6) col4 sh gr
/Helvetica-Bold ff 190.50 scf sf
6165 855 m
gs 1 -1 sc (8) col4 sh gr
/Helvetica-BoldOblique ff 190.50 scf sf
6615 855 m
gs 1 -1 sc (NULL) col1 sh gr
/Times-Bold ff 254.00 scf sf
5355 1575 m
gs 1 -1 sc (AFTER STEP 1) col0 sh gr
/Times-Roman ff 238.13 scf sf
7605 90 m
gs 1 -1 sc (Element: local edges) col0 sh gr
% here ends figure;
pagefooter
showpage
%%Trailer
%EOF
