<?xml version="1.0" encoding="UTF-8" standalone="no"?>
<!-- Created with Inkscape (http://www.inkscape.org/) -->

<svg
   xmlns:dc="http://purl.org/dc/elements/1.1/"
   xmlns:cc="http://creativecommons.org/ns#"
   xmlns:rdf="http://www.w3.org/1999/02/22-rdf-syntax-ns#"
   xmlns:svg="http://www.w3.org/2000/svg"
   xmlns="http://www.w3.org/2000/svg"
   xmlns:sodipodi="http://sodipodi.sourceforge.net/DTD/sodipodi-0.dtd"
   xmlns:inkscape="http://www.inkscape.org/namespaces/inkscape"
   width="160.69925mm"
   height="74.828972mm"
   viewBox="0 0 160.69925 74.828972"
   version="1.1"
   id="svg2393"
   inkscape:version="0.92.5 (2060ec1f9f, 2020-04-08)"
   sodipodi:docname="line_shape_functions.svg">
  <defs
     id="defs2387">
    <clipPath
       clipPathUnits="userSpaceOnUse"
       id="clipPath402">
      <path
         d="m 409.568,528.339 -175.983,-2.909 -0.38,0.293 2.655,6.674 c -4.588,-3.636 -11.992,-7.07 -17.959,-9.083 5.967,-2.012 13.371,-5.447 17.959,-9.082 l -2.622,6.588 0.354,0.272 175.976,-3.953 h 3.534 c 0,0 3.147,-0.059 6.105,0.188 3.148,0.262 7.386,0.939 10.848,3.675 3.465,2.737 5.115,7.837 6.064,13.05 0.949,5.213 1.939,12.112 1.939,12.112 l 1.182,8.175 h -20.13 l 0.592,-7.05 c 0.33,-3.15 0.66,-7.275 0.563,-10.8 -0.093,-3.42 -1.388,-5.137 -3.987,-6.75 -1.678,-1.041 -4.744,-1.275 -4.744,-1.275 l -1.966,-0.125"
         id="path400"
         inkscape:connector-curvature="0" />
    </clipPath>
    <clipPath
       clipPathUnits="userSpaceOnUse"
       id="clipPath296">
      <path
         d="m 422.966,624.697 2.909,-20.93 -0.293,-0.346 -6.675,2.414 c 3.636,-4.171 7.071,-10.902 9.083,-16.326 2.013,5.424 5.447,12.155 9.083,16.326 l -6.589,-2.383 -0.272,0.321 3.591,20.931 -10.837,-0.007"
         id="path294"
         inkscape:connector-curvature="0" />
    </clipPath>
    <clipPath
       clipPathUnits="userSpaceOnUse"
       id="clipPath254">
      <path
         d="m 192.264,642.822 16.393,3.334 0.345,-0.293 -2.414,-6.675 c 4.171,3.636 10.902,7.071 16.326,9.083 -5.424,2.012 -12.155,5.447 -16.326,9.083 l 2.384,-6.589 -0.322,-0.272 -16.393,3.166 0.007,-10.837"
         id="path252"
         inkscape:connector-curvature="0" />
    </clipPath>
  </defs>
  <sodipodi:namedview
     id="base"
     pagecolor="#ffffff"
     bordercolor="#666666"
     borderopacity="1.0"
     inkscape:pageopacity="0.0"
     inkscape:pageshadow="2"
     inkscape:zoom="0.9899495"
     inkscape:cx="-149.53781"
     inkscape:cy="349.37059"
     inkscape:document-units="mm"
     inkscape:current-layer="layer1"
     showgrid="false"
     fit-margin-top="0"
     fit-margin-left="0"
     fit-margin-right="0"
     fit-margin-bottom="0"
     inkscape:window-width="2560"
     inkscape:window-height="1380"
     inkscape:window-x="1920"
     inkscape:window-y="0"
     inkscape:window-maximized="1" />
  <metadata
     id="metadata2390">
    <rdf:RDF>
      <cc:Work
         rdf:about="">
        <dc:format>image/svg+xml</dc:format>
        <dc:type
           rdf:resource="http://purl.org/dc/dcmitype/StillImage" />
        <dc:title></dc:title>
      </cc:Work>
    </rdf:RDF>
  </metadata>
  <g
     inkscape:label="Capa 1"
     inkscape:groupmode="layer"
     id="layer1"
     transform="translate(-99.567043,-48.674803)">
    <path
       d="m 103.28126,78.421657 h 32.13135"
       style="fill:none;stroke:#808080;stroke-width:1.48166656;stroke-linecap:butt;stroke-linejoin:miter;stroke-miterlimit:4;stroke-dasharray:none;stroke-opacity:1"
       id="path16"
       inkscape:connector-curvature="0" />
    <path
       d="M 219.55434,98.622418 H 187.44275 V 88.576014 Z"
       style="fill:#9ed5f5;fill-opacity:1;fill-rule:nonzero;stroke:#000000;stroke-width:0.21166667;stroke-linecap:butt;stroke-linejoin:miter;stroke-miterlimit:4;stroke-dasharray:none;stroke-opacity:1"
       id="path18"
       inkscape:connector-curvature="0" />
    <path
       d="m 220.59962,98.620656 h 32.11266 V 88.574249 Z"
       style="fill:#f5ac87;fill-opacity:1;fill-rule:nonzero;stroke:#000000;stroke-width:0.21166667;stroke-linecap:butt;stroke-linejoin:miter;stroke-miterlimit:4;stroke-dasharray:none;stroke-opacity:1"
       id="path20"
       inkscape:connector-curvature="0" />
    <path
       d="m 103.26997,123.22267 h 32.11301 v -10.0464 z"
       style="fill:#f5ac87;fill-opacity:1;fill-rule:nonzero;stroke:#000000;stroke-width:0.21166667;stroke-linecap:butt;stroke-linejoin:miter;stroke-miterlimit:4;stroke-dasharray:none;stroke-opacity:1"
       id="path22"
       inkscape:connector-curvature="0" />
    <text
       y="77.205139"
       x="99.891106"
       style="font-variant:normal;font-weight:bold;font-size:4.44499969px;font-family:'Times New Roman';-inkscape-font-specification:Times-Bold;writing-mode:lr-tb;fill:#000000;fill-opacity:1;fill-rule:nonzero;stroke:none;stroke-width:0.35277775"
       id="text28">
      <tspan
         style="stroke-width:0.35277775"
         x="99.891106"
         y="77.205139"
         id="tspan24">1</tspan>
      <tspan
         style="stroke-width:0.35277775"
         x="136.66458"
         y="77.21225"
         id="tspan26">2</tspan>
    </text>
    <path
       d="m 103.28126,79.571007 c 0.63465,0 1.14935,-0.514701 1.14935,-1.14935 0,-0.635 -0.5147,-1.149701 -1.14935,-1.149701 -0.635,0 -1.1497,0.514701 -1.1497,1.149701 0,0.634649 0.5147,1.14935 1.1497,1.14935 z"
       style="fill:#fffcd9;fill-opacity:1;fill-rule:nonzero;stroke:#000000;stroke-width:0.3175;stroke-linecap:butt;stroke-linejoin:miter;stroke-miterlimit:4;stroke-dasharray:none;stroke-opacity:1"
       id="path30"
       inkscape:connector-curvature="0" />
    <path
       d="M 135.38615,80.281149 V 90.330376 M 103.25586,79.997516 V 90.046391"
       style="fill:none;stroke:#000000;stroke-width:0.25400001;stroke-linecap:butt;stroke-linejoin:miter;stroke-miterlimit:4;stroke-dasharray:none;stroke-opacity:1"
       id="path44"
       inkscape:connector-curvature="0"
       sodipodi:nodetypes="cccc" />
    <path
       d="m 104.97636,88.121989 h 28.702"
       style="fill:none;stroke:#000000;stroke-width:0.27516666;stroke-linecap:butt;stroke-linejoin:miter;stroke-miterlimit:4;stroke-dasharray:none;stroke-opacity:1"
       id="path46"
       inkscape:connector-curvature="0" />
    <path
       d="m 134.27843,87.861639 c -0.4198,-0.127 -0.69285,-0.243771 -1.02976,-0.378883 v 1.281287 c 0.12065,-0.05715 0.60996,-0.252236 1.02976,-0.378884 0.44944,-0.135818 0.8569,-0.2286 1.12148,-0.26176 -0.26458,-0.03316 -0.67204,-0.125942 -1.12148,-0.26176"
       style="fill:#000000;fill-opacity:1;fill-rule:nonzero;stroke:none;stroke-width:0.35277775"
       id="path48"
       inkscape:connector-curvature="0" />
    <path
       d="m 104.37628,88.382339 c 0.42016,0.126645 0.69321,0.243417 1.03011,0.378883 v -1.28129 c -0.12065,0.05715 -0.60995,0.251884 -1.03011,0.378884 -0.44944,0.135466 -0.85689,0.2286 -1.12112,0.26176 0.26423,0.03316 0.67168,0.125942 1.12112,0.261763"
       style="fill:#000000;fill-opacity:1;fill-rule:nonzero;stroke:none;stroke-width:0.35277775"
       id="path50"
       inkscape:connector-curvature="0" />
    <text
       y="105.4697"
       x="100.4426"
       style="font-variant:normal;font-weight:normal;font-size:4.23333311px;font-family:'Times New Roman';-inkscape-font-specification:Times-Roman;writing-mode:lr-tb;fill:#000000;fill-opacity:1;fill-rule:nonzero;stroke:none;stroke-width:0.35277775"
       id="text64">
      <tspan
         style="stroke-width:0.35277775"
         x="100.4426"
         y="105.4697"
         id="tspan52">1</tspan>
      <tspan
         style="stroke-width:0.35277775"
         x="250.33351"
         y="94.80677"
         id="tspan54">1</tspan>
      <tspan
         style="stroke-width:0.35277775"
         x="187.73308"
         y="95.01844"
         id="tspan56">1</tspan>
      <tspan
         style="stroke-width:0.35277775"
         x="136.39079"
         y="109.54766"
         id="tspan58">0</tspan>
      <tspan
         style="stroke-width:0.35277775"
         x="100.71057"
         y="123.45416"
         id="tspan60">0</tspan>
      <tspan
         style="stroke-width:0.35277775"
         x="135.8756"
         y="118.6142"
         id="tspan62">1</tspan>
    </text>
    <path
       d="m 137.37053,78.304537 h 4.51026"
       style="fill:none;stroke:#000000;stroke-width:0.3175;stroke-linecap:butt;stroke-linejoin:miter;stroke-miterlimit:4;stroke-dasharray:none;stroke-opacity:1"
       id="path70"
       inkscape:connector-curvature="0" />
    <path
       d="m 140.98932,79.480345 0.49918,-1.175808 -0.49918,-1.175808 2.78695,1.175808 -2.78695,1.175808"
       style="fill:#000000;fill-opacity:1;fill-rule:nonzero;stroke:none;stroke-width:0.35277775"
       id="path72"
       inkscape:connector-curvature="0" />
    <path
       d="m 135.40803,79.570656 c 0.635,0 1.14935,-0.514702 1.14935,-1.149702 0,-0.634648 -0.51435,-1.14935 -1.14935,-1.14935 -0.635,0 -1.14935,0.514702 -1.14935,1.14935 0,0.635 0.51435,1.149702 1.14935,1.149702 z"
       style="fill:#fffcd9;fill-opacity:1;fill-rule:nonzero;stroke:#000000;stroke-width:0.3175;stroke-linecap:butt;stroke-linejoin:miter;stroke-miterlimit:4;stroke-dasharray:none;stroke-opacity:1"
       id="path74"
       inkscape:connector-curvature="0" />
    <path
       d="m 131.5698,102.1883 -2.70933,1.74977"
       style="fill:none;stroke:#000000;stroke-width:0.3175;stroke-linecap:butt;stroke-linejoin:miter;stroke-miterlimit:4;stroke-dasharray:none;stroke-opacity:1"
       id="path78"
       inkscape:connector-curvature="0" />
    <path
       d="m 129.65704,104.94772 c -0.14287,0.0847 -0.34007,0.20814 -0.62794,0.40923 -0.133,0.0931 -0.20144,0.0582 -0.40146,-0.15134 -0.0868,-0.091 -0.13018,0.0155 -0.26353,0.0561 -0.1277,0.0257 -0.30409,-0.20603 -0.30409,-0.20603 -0.0367,-0.054 -0.067,-0.0363 -0.0794,-0.0169 -0.28963,0.42651 -0.87701,0.44309 -0.8576,0.49319 0.0564,0.24906 -0.15488,0.36336 -0.21379,0.32773 0.0642,0.0875 -0.0265,0.25259 -0.0833,0.25894 -0.20672,0.0177 -0.24765,-0.0395 -0.37888,-0.008 -0.25012,0.042 -0.26776,-0.0765 -0.46179,0.0342 -0.14111,0.0808 -0.20143,0.0875 -0.25223,0.0794 -0.23213,-0.0473 -0.22825,-0.31186 -0.18239,-0.42863 -0.12524,-0.12418 -0.03,-0.43497 -0.0596,-0.58667 -0.0653,0.0399 -0.17286,0.0885 -0.35736,0.13476 -0.096,0.024 -0.0519,0.0515 -0.19897,0.12665 -0.19685,0.10336 -0.28046,0.12982 -0.35666,0.14111 -0.0448,0.007 -0.22225,0.1263 -0.33655,0.15487 -0.32526,0.14923 -0.4512,-0.14922 -0.46108,-0.17886 -0.004,-0.0124 -0.001,-0.0141 0.054,-0.0501 0.0787,-0.043 0.18803,-0.16862 0.30903,-0.22225 0.0466,-0.0222 0.10125,-0.0843 0.21449,-0.13828 0.11501,-0.1069 0.23248,-0.13406 0.3489,-0.2854 0.0187,-0.0215 0.0279,0.003 0.0748,-0.0342 0.0251,-0.0198 0.008,-0.0392 0.0931,-0.0808 0.0974,-0.0476 0.20638,-0.13159 0.31609,-0.2025 0.11007,-0.0706 0.18097,-0.14851 0.43392,-0.34466 0.10371,-0.0801 0.15769,-0.18521 0.26387,-0.19685 0.16158,-0.018 0.70556,-0.10654 1.30634,-0.17568 0.0124,-0.001 0.067,-0.005 0.054,-0.0804 -0.0102,-0.12806 0.0374,-0.11889 0.22013,-0.22931 0.12524,-0.0882 -0.0339,-0.12488 0.10936,-0.21308 0.22014,-0.13546 0.3168,-0.17251 0.62901,-0.38347 0.127,-0.0857 0.15875,-0.11289 0.22013,-0.0236 l 1.2446,1.92723 c 0.0194,0.0293 0.0251,0.0677 -0.0152,0.0935"
       style="fill:#000000;fill-opacity:1;fill-rule:nonzero;stroke:none;stroke-width:0.35277775"
       id="path80"
       inkscape:connector-curvature="0" />
    <path
       d="m 123.87995,105.60036 c 0.0469,0.0903 0.19121,-0.0332 0.24624,-0.0861 0.0328,-0.0314 0.0222,-0.10936 -0.024,-0.0984 l -0.21907,0.17181 c -0.003,0.002 -0.005,0.0113 -0.003,0.0127"
       style="fill:#ffffff;fill-opacity:1;fill-rule:nonzero;stroke:none;stroke-width:0.35277775"
       id="path82"
       inkscape:connector-curvature="0" />
    <path
       d="m 125.77719,105.78346 c 0.10019,-0.0452 0.11642,-0.002 0.16087,-0.0406 0.0589,-0.0504 -0.0148,-0.0377 0.20955,-0.17533 0.0642,-0.0413 0.0967,-0.0677 0.15663,-0.0688 0.0102,-0.031 0.0455,-0.0882 0.10019,-0.0797 0.0702,-0.0681 0.0356,-0.0593 0.19121,-0.11571 0.2099,-0.0765 0.19826,-0.17498 0.25611,-0.27129 0.0159,-0.0254 0.0257,-0.043 0.0744,-0.0649 0.36407,-0.17709 0.21731,-0.0836 0.66675,-0.41451 0.14217,-0.13547 0.14887,-0.26317 2.7e-4,-0.47837 -0.17428,-0.24059 -0.20532,-0.17109 -0.37994,-0.14181 -0.71367,0.11183 -1.22273,0.1404 -1.36032,0.24482 -0.4064,0.26988 -0.28292,0.29634 -0.83431,0.62971 -0.18521,0.0892 -0.12277,0.17428 -0.19403,0.20497 -0.0656,0.005 -0.0423,-0.0473 -0.19862,0.0751 -0.31609,0.248 -0.42015,0.23389 -0.41627,0.30692 0.005,0.0981 0.0346,0.14181 -0.19544,0.26458 -0.019,0.0102 -0.0247,0.0134 -0.0367,0.0183 -0.0307,0.0109 -0.0219,0.0279 0.0169,0.0307 0.0318,0.002 0.26564,-0.0257 0.45226,-0.19333 0.10583,-0.0949 0.0734,-0.01 0.26882,-0.13581 0.0822,-0.0607 0.13581,-0.0952 0.1591,-0.11819 0.10654,-0.0229 0.27446,-0.1277 0.31926,-0.17568 0.0554,-0.0589 0.0723,-0.0998 0.15205,-0.10583 0.0797,-0.006 0.23707,-0.0444 0.41487,-0.19191 0.20778,-0.17216 0.16757,-0.20779 0.20108,-0.20567 0.078,0.006 0.0183,0.14852 0.1845,0.16192 0.085,0.007 0.0328,-0.20743 0.091,-0.24094 0.0363,-0.0173 0.0631,0.009 0.0709,0.0564 0.004,0.0229 8e-4,0.1651 0.0833,0.17039 0.13406,0.008 0.16792,-0.29845 0.34749,-0.29669 0.0441,0.004 0.0332,0.0564 -0.005,0.0751 -0.0653,0.0321 -0.13018,0.15628 -0.14887,0.22155 -0.0236,0.0871 -0.13406,0.26881 -0.17745,0.3309 -0.15346,0.22084 -0.26458,0.20144 -0.26776,0.27905 -0.006,0.061 -0.11007,0.0427 -0.19191,0.0787 -0.15522,0.0677 -0.40252,0.39088 -0.32561,0.44203 0.0268,0.0159 0.0473,-2.6e-4 0.0727,-0.024 0.0265,-0.0247 0.0381,-0.0325 0.0818,-0.0522"
       style="fill:#ffffff;fill-opacity:1;fill-rule:nonzero;stroke:none;stroke-width:0.35277775"
       id="path84"
       inkscape:connector-curvature="0" />
    <path
       d="m 125.96769,105.90622 c -0.0773,-0.049 -0.0868,-0.0561 -0.16369,-0.0272 -0.0674,0.0251 -0.20637,0.18627 -0.13652,0.24377 0.0321,0.0116 0.10513,-0.0339 0.15769,-0.0526 0.0554,-0.0198 0.21625,-0.0998 0.14252,-0.16404"
       style="fill:#ffffff;fill-opacity:1;fill-rule:nonzero;stroke:none;stroke-width:0.35277775"
       id="path86"
       inkscape:connector-curvature="0" />
    <path
       d="m 128.44067,105.11177 c -0.0709,0.0409 -0.10584,0.005 -0.1457,-0.0332 -0.0572,-0.0543 -0.18239,-0.35278 -0.39476,-0.69392 -0.21273,-0.34078 -0.28575,-0.43039 -0.41945,-0.60219 -0.0328,-0.0423 -0.10513,-0.0751 -0.0459,-0.11818 0.19367,-0.14041 0.24518,-0.1965 0.37924,-0.0593 0.15698,0.16087 0.62582,0.87524 0.82161,1.28376 0.002,0.0406 0.0811,0.073 -0.19508,0.22295"
       style="fill:#ffffff;fill-opacity:1;fill-rule:nonzero;stroke:none;stroke-width:0.35277775"
       id="path88"
       inkscape:connector-curvature="0" />
    <path
       d="m 107.88219,115.93816 1.18533,1.24178"
       style="fill:none;stroke:#000000;stroke-width:0.3175;stroke-linecap:butt;stroke-linejoin:miter;stroke-miterlimit:4;stroke-dasharray:none;stroke-opacity:1"
       id="path90"
       inkscape:connector-curvature="0" />
    <path
       d="m 108.05787,117.97828 c 0.11924,0.11535 0.28222,0.28151 0.51506,0.54433 0.10795,0.12136 0.18274,0.10337 0.42615,-0.054 0.10548,-0.0681 0.12277,0.0459 0.24307,0.11607 0.11818,0.0547 0.3436,-0.12947 0.3436,-0.12947 0.0483,-0.0438 0.0737,-0.0198 0.0811,0.002 0.18239,0.48224 0.74965,0.63535 0.71932,0.67945 -0.11325,0.22895 0.0656,0.38946 0.13123,0.36865 -0.0829,0.0702 -0.0328,0.25188 0.0208,0.27093 0.19685,0.0656 0.24977,0.0194 0.37006,0.0808 0.23354,0.0991 0.27834,-0.012 0.44097,0.14111 0.11854,0.11148 0.17569,0.13194 0.22684,0.13618 0.23671,0.008 0.29457,-0.25012 0.27728,-0.37465 0.15099,-0.0914 0.13088,-0.41593 0.19474,-0.55669 0.0543,0.0543 0.14746,0.1263 0.31609,0.21449 0.0878,0.0459 0.0385,0.0624 0.16404,0.16934 0.16757,0.14675 0.24271,0.19191 0.31397,0.22083 0.042,0.0166 0.18662,0.17428 0.29139,0.2286 0.28117,0.22084 0.47308,-0.0395 0.48966,-0.0663 0.007,-0.0113 0.005,-0.0134 -0.0409,-0.0614 -0.066,-0.06 -0.14323,-0.20778 -0.24835,-0.28821 -0.0399,-0.0325 -0.079,-0.10549 -0.17639,-0.18451 -0.0871,-0.13053 -0.19474,-0.18415 -0.27305,-0.35877 -0.0127,-0.0251 -0.0275,-0.004 -0.0646,-0.0504 -0.0198,-0.0254 10e-4,-0.0399 -0.0716,-0.10019 -0.0836,-0.0691 -0.17004,-0.17604 -0.26035,-0.27058 -0.0903,-0.0945 -0.14147,-0.18697 -0.34185,-0.43639 -0.0818,-0.10231 -0.10971,-0.21696 -0.2106,-0.25294 -0.15276,-0.055 -0.66111,-0.26811 -1.22908,-0.47519 -0.012,-0.004 -0.0646,-0.0201 -0.0339,-0.091 0.0399,-0.12206 -0.008,-0.12418 -0.16052,-0.27446 -0.10124,-0.11466 0.0617,-0.1136 -0.0568,-0.23248 -0.18238,-0.1831 -0.26775,-0.24166 -0.52246,-0.51965 -0.10336,-0.11289 -0.12806,-0.14675 -0.20849,-0.0741 l -1.65947,1.58398 c -0.0254,0.024 -0.0399,0.06 -0.007,0.0945"
       style="fill:#000000;fill-opacity:1;fill-rule:nonzero;stroke:none;stroke-width:0.35277775"
       id="path92"
       inkscape:connector-curvature="0" />
    <path
       d="m 113.52381,119.95912 c -0.0667,0.0769 -0.17851,-0.0765 -0.21943,-0.14075 -0.0243,-0.0384 0.004,-0.11148 0.0462,-0.0903 l 0.17286,0.21837 c 0.003,0.002 0.002,0.0116 3.5e-4,0.0127"
       style="fill:#ffffff;fill-opacity:1;fill-rule:nonzero;stroke:none;stroke-width:0.35277775"
       id="path94"
       inkscape:connector-curvature="0" />
    <path
       d="m 111.6361,119.69489 c -0.0868,-0.067 -0.11254,-0.0289 -0.14711,-0.0765 -0.0452,-0.0632 0.0233,-0.0335 -0.16299,-0.21943 -0.0526,-0.0554 -0.078,-0.0885 -0.13617,-0.10336 -0.002,-0.0328 -0.0236,-0.0963 -0.0787,-0.10125 -0.0522,-0.0822 -0.0208,-0.0656 -0.15875,-0.15698 -0.18662,-0.12347 -0.1524,-0.21626 -0.18626,-0.3235 -0.01,-0.0282 -0.0148,-0.0476 -0.0571,-0.0804 -0.31257,-0.25682 -0.19156,-0.13194 -0.55175,-0.55845 -0.10689,-0.16474 -0.0836,-0.29033 0.11113,-0.46531 0.22542,-0.19297 0.23953,-0.11853 0.40252,-0.049 0.6678,0.27482 1.1564,0.42157 1.26576,0.55492 0.33232,0.35701 0.20602,0.35419 0.66464,0.8068 0.15945,0.13018 0.079,0.19826 0.14075,0.24483 0.0628,0.0194 0.0526,-0.0363 0.17569,0.11889 0.24976,0.31503 0.35419,0.32561 0.33337,0.39582 -0.0275,0.0942 -0.0667,0.12982 0.12841,0.30268 0.0159,0.0145 0.0208,0.0187 0.0314,0.0265 0.0272,0.0176 0.0148,0.0321 -0.0236,0.0257 -0.0314,-0.005 -0.25223,-0.0871 -0.3944,-0.29316 -0.0811,-0.11712 -0.0695,-0.0265 -0.23037,-0.19508 -0.0656,-0.078 -0.10971,-0.12418 -0.127,-0.1517 -0.0984,-0.0473 -0.23706,-0.18803 -0.26952,-0.24518 -0.0399,-0.0702 -0.0469,-0.11395 -0.12312,-0.13829 -0.0762,-0.0243 -0.22013,-0.0988 -0.35877,-0.28363 -0.16193,-0.21555 -0.11466,-0.2413 -0.14746,-0.24695 -0.0773,-0.0127 -0.0526,0.14041 -0.21696,0.1143 -0.0843,-0.013 0.0159,-0.20919 -0.0325,-0.25541 -0.0318,-0.0251 -0.0639,-0.005 -0.0822,0.0388 -0.009,0.0212 -0.0392,0.16016 -0.12065,0.14605 -0.13229,-0.0233 -0.0938,-0.32914 -0.26882,-0.36936 -0.0437,-0.007 -0.0455,0.0469 -0.013,0.0741 0.0564,0.0466 0.0907,0.18239 0.0935,0.25012 0.002,0.0903 0.0677,0.29245 0.0952,0.36301 0.0981,0.25047 0.21061,0.25753 0.19544,0.33408 -0.008,0.0607 0.097,0.067 0.16828,0.121 0.13511,0.10196 0.30021,0.47413 0.21378,0.50588 -0.0296,0.009 -0.0459,-0.0116 -0.0653,-0.0402 -0.0201,-0.0303 -0.0293,-0.0406 -0.0674,-0.0702"
       style="fill:#ffffff;fill-opacity:1;fill-rule:nonzero;stroke:none;stroke-width:0.35277775"
       id="path96"
       inkscape:connector-curvature="0" />
    <path
       d="m 111.42231,119.77003 c 0.0864,-0.0296 0.0974,-0.0342 0.16546,0.0116 0.06,0.0402 0.15698,0.22931 0.0762,0.26917 -0.0339,0.004 -0.0946,-0.0575 -0.14112,-0.0878 -0.0494,-0.0321 -0.18732,-0.14746 -0.10054,-0.19297"
       style="fill:#ffffff;fill-opacity:1;fill-rule:nonzero;stroke:none;stroke-width:0.35277775"
       id="path98"
       inkscape:connector-curvature="0" />
    <path
       d="m 109.20264,118.42101 c 0.0593,0.0564 0.1016,0.0293 0.14922,0.002 0.0684,-0.0395 0.25964,-0.30056 0.54575,-0.58279 0.28645,-0.28187 0.37817,-0.35207 0.54821,-0.48789 0.042,-0.0335 0.11995,-0.0483 0.0723,-0.10407 -0.15557,-0.18168 -0.19261,-0.24835 -0.35524,-0.14605 -0.19015,0.11959 -0.81245,0.7052 -1.0982,1.05692 -0.0116,0.0388 -0.096,0.0522 0.13794,0.26212"
       style="fill:#ffffff;fill-opacity:1;fill-rule:nonzero;stroke:none;stroke-width:0.35277775"
       id="path100"
       inkscape:connector-curvature="0" />
    <text
       y="51.685162"
       x="99.891106"
       style="font-variant:normal;font-weight:bold;font-size:4.44499969px;font-family:'Times New Roman';-inkscape-font-specification:Times-Bold;writing-mode:lr-tb;fill:#000000;fill-opacity:1;fill-rule:nonzero;stroke:none;stroke-width:0.35277775"
       id="text106">
      <tspan
         style="stroke-width:0.35277775"
         x="99.891106 101.37128 103.59379"
         y="51.685162"
         sodipodi:role="line"
         id="tspan102">(a)</tspan>
      <tspan
         style="stroke-width:0.35277775"
         x="118.73434 120.21453 122.18811"
         y="96.889923"
         sodipodi:role="line"
         id="tspan104">(c)</tspan>
    </text>
    <path
       d="m 113.20948,90.362126 h 12.98223 v -4.45911 h -12.98223 z"
       style="fill:#ffffff;fill-opacity:1;fill-rule:nonzero;stroke:#ffffff;stroke-width:0.25400001;stroke-linecap:butt;stroke-linejoin:miter;stroke-miterlimit:4;stroke-dasharray:none;stroke-opacity:1"
       id="path108"
       inkscape:connector-curvature="0" />
    <text
       y="77.550865"
       x="143.40292"
       style="font-style:italic;font-variant:normal;font-size:3.80999994px;font-family:'Times New Roman';-inkscape-font-specification:Times-Italic;writing-mode:lr-tb;fill:#000000;fill-opacity:1;fill-rule:nonzero;stroke:none;stroke-width:0.35277775"
       id="text136">
      <tspan
         style="stroke-width:0.35277775"
         x="143.40292"
         sodipodi:role="line"
         id="tspan134"
         y="77.550865">s</tspan>
    </text>
    <text
       y="74.760796"
       x="143.4856"
       style="font-variant:normal;font-weight:normal;font-size:3.80999994px;font-family:'Times New Roman';-inkscape-font-specification:Times-Roman;writing-mode:lr-tb;fill:#000000;fill-opacity:1;fill-rule:nonzero;stroke:none;stroke-width:0.35277775"
       id="text140">
      <tspan
         style="stroke-width:0.35277775"
         x="143.4856"
         y="74.760796"
         id="tspan138" />
    </text>
    <text
       y="89.227844"
       x="115.03959"
       style="font-style:italic;font-variant:normal;font-weight:normal;font-size:3.80999994px;font-family:RMTMI;-inkscape-font-specification:RMTMI;writing-mode:lr-tb;fill:#000000;fill-opacity:1;fill-rule:nonzero;stroke:none;stroke-width:0.35277775"
       id="text148">
      <tspan
         style="stroke-width:0.35277775"
         x="115.03959 116.82267"
         y="89.227844"
         sodipodi:role="line"
         id="tspan146" />
    </text>
    <text
       y="89.227844"
       x="118.54692"
       style="font-style:italic;font-variant:normal;font-size:3.80999994px;font-family:'Times New Roman';-inkscape-font-specification:Times-Italic;writing-mode:lr-tb;fill:#000000;fill-opacity:1;fill-rule:nonzero;stroke:none;stroke-width:0.35277775"
       id="text156">
      <tspan
         style="stroke-width:0.35277775"
         x="118.54692"
         y="89.227844"
         id="tspan154">L</tspan>
    </text>
    <text
       y="52.884605"
       x="155.13609"
       style="font-variant:normal;font-weight:bold;font-size:4.44499969px;font-family:'Times New Roman';-inkscape-font-specification:Times-Bold;writing-mode:lr-tb;fill:#000000;fill-opacity:1;fill-rule:nonzero;stroke:none;stroke-width:0.35277775"
       id="text164">
      <tspan
         style="stroke-width:0.35277775"
         x="155.13609 156.61629 159.08771 161.31021"
         y="52.884605"
         sodipodi:role="line"
         id="tspan158">(b1)</tspan>
      <tspan
         style="stroke-width:0.35277775"
         x="192.77769 194.25787 196.72929 198.9518"
         y="52.849487"
         sodipodi:role="line"
         id="tspan160">(b2)</tspan>
      <tspan
         style="stroke-width:0.35277775"
         x="190.90813 192.38831 194.85973 197.08223"
         y="84.740585"
         sodipodi:role="line"
         id="tspan162">(b3)</tspan>
    </text>
    <text
       y="66.267548"
       x="99.455421"
       style="font-style:italic;font-variant:normal;font-size:3.80999994px;font-family:'Times New Roman';-inkscape-font-specification:Times-Italic;writing-mode:lr-tb;fill:#000000;fill-opacity:1;fill-rule:nonzero;stroke:none;stroke-width:0.35277775"
       id="text168">
      <tspan
         style="stroke-width:0.35277775"
         x="99.455421"
         y="66.267548"
         id="tspan166">u</tspan>
    </text>
    <text
       y="67.312965"
       x="101.34285"
       style="font-variant:normal;font-weight:normal;font-size:2.66700006px;font-family:'Times New Roman';-inkscape-font-specification:Times-Roman;writing-mode:lr-tb;fill:#000000;fill-opacity:1;fill-rule:nonzero;stroke:none;stroke-width:0.35277775"
       id="text172">
      <tspan
         style="stroke-width:0.35277775"
         x="101.34285"
         y="67.312965"
         id="tspan170">1</tspan>
    </text>
    <text
       y="55.72422"
       x="136.55011"
       style="font-style:italic;font-variant:normal;font-size:3.80999994px;font-family:'Times New Roman';-inkscape-font-specification:Times-Italic;writing-mode:lr-tb;fill:#000000;fill-opacity:1;fill-rule:nonzero;stroke:none;stroke-width:0.35277775"
       id="text176">
      <tspan
         style="stroke-width:0.35277775"
         x="136.55011"
         y="55.72422"
         id="tspan174">u</tspan>
    </text>
    <text
       y="56.663807"
       x="138.33167"
       style="font-variant:normal;font-weight:normal;font-size:2.66700006px;font-family:'Times New Roman';-inkscape-font-specification:Times-Roman;writing-mode:lr-tb;fill:#000000;fill-opacity:1;fill-rule:nonzero;stroke:none;stroke-width:0.35277775"
       id="text180">
      <tspan
         style="stroke-width:0.35277775"
         x="138.33167"
         y="56.663807"
         id="tspan178">2</tspan>
    </text>
    <path
       d="M 149.06229,61.020189 V 73.55015 h 32.07385 z"
       style="fill:#9ed5f5;fill-opacity:1;fill-rule:nonzero;stroke:#000000;stroke-width:0.21166667;stroke-linecap:butt;stroke-linejoin:round;stroke-miterlimit:4;stroke-dasharray:none;stroke-opacity:1"
       id="path182"
       inkscape:connector-curvature="0" />
    <path
       d="M 181.13614,73.55015 V 50.551509 l -32.07385,10.46868 z"
       style="fill:#f5ac87;fill-opacity:1;fill-rule:nonzero;stroke:#000000;stroke-width:0.21166667;stroke-linecap:butt;stroke-linejoin:round;stroke-miterlimit:4;stroke-dasharray:none;stroke-opacity:1"
       id="path184"
       inkscape:connector-curvature="0" />
    <text
       y="65.95446"
       x="145.21069"
       style="font-style:italic;font-variant:normal;font-size:3.80999994px;font-family:'Times New Roman';-inkscape-font-specification:Times-Italic;writing-mode:lr-tb;fill:#000000;fill-opacity:1;fill-rule:nonzero;stroke:none;stroke-width:0.35277775"
       id="text188">
      <tspan
         style="stroke-width:0.35277775"
         x="145.21069"
         y="65.95446"
         id="tspan186">u</tspan>
    </text>
    <text
       y="66.999878"
       x="147.09813"
       style="font-variant:normal;font-weight:normal;font-size:2.66700006px;font-family:'Times New Roman';-inkscape-font-specification:Times-Roman;writing-mode:lr-tb;fill:#000000;fill-opacity:1;fill-rule:nonzero;stroke:none;stroke-width:0.35277775"
       id="text192">
      <tspan
         style="stroke-width:0.35277775"
         x="147.09813"
         y="66.999878"
         id="tspan190">1</tspan>
    </text>
    <text
       y="66.271957"
       x="183.6282"
       style="font-style:italic;font-variant:normal;font-size:3.80999994px;font-family:'Times New Roman';-inkscape-font-specification:Times-Italic;writing-mode:lr-tb;fill:#000000;fill-opacity:1;fill-rule:nonzero;stroke:none;stroke-width:0.35277775"
       id="text196">
      <tspan
         style="stroke-width:0.35277775"
         x="183.6282"
         y="66.271957"
         id="tspan194">u</tspan>
    </text>
    <text
       y="67.317383"
       x="185.51564"
       style="font-variant:normal;font-weight:normal;font-size:2.66700006px;font-family:'Times New Roman';-inkscape-font-specification:Times-Roman;writing-mode:lr-tb;fill:#000000;fill-opacity:1;fill-rule:nonzero;stroke:none;stroke-width:0.35277775"
       id="text200">
      <tspan
         style="stroke-width:0.35277775"
         x="185.51564"
         y="67.317383"
         id="tspan198">1</tspan>
    </text>
    <text
       y="94.343086"
       x="175.11765"
       style="font-variant:normal;font-weight:normal;font-size:5.07999992px;font-family:'Times New Roman';-inkscape-font-specification:Times-Roman;writing-mode:lr-tb;fill:#000000;fill-opacity:1;fill-rule:nonzero;stroke:none;stroke-width:0.35277775"
       id="text204">
      <tspan
         style="stroke-width:0.35277775"
         x="175.11765 177.98277"
         y="94.343086"
         sodipodi:role="line"
         id="tspan202">=</tspan>
    </text>
    <text
       y="94.343086"
       x="179.25276"
       style="font-style:italic;font-variant:normal;font-size:3.80999994px;font-family:'Times New Roman';-inkscape-font-specification:Times-Italic;writing-mode:lr-tb;fill:#000000;fill-opacity:1;fill-rule:nonzero;stroke:none;stroke-width:0.35277775"
       id="text208">
      <tspan
         style="stroke-width:0.35277775"
         x="179.25276"
         y="94.343086"
         id="tspan206">u</tspan>
    </text>
    <text
       y="95.176872"
       x="181.45007"
       style="font-variant:normal;font-weight:normal;font-size:2.66700006px;font-family:'Times New Roman';-inkscape-font-specification:Times-Roman;writing-mode:lr-tb;fill:#000000;fill-opacity:1;fill-rule:nonzero;stroke:none;stroke-width:0.35277775"
       id="text212">
      <tspan
         style="stroke-width:0.35277775"
         x="181.45007"
         y="95.176872"
         id="tspan210">1</tspan>
    </text>
    <text
       y="55.658073"
       x="182.76396"
       style="font-style:italic;font-variant:normal;font-size:3.80999994px;font-family:'Times New Roman';-inkscape-font-specification:Times-Italic;writing-mode:lr-tb;fill:#000000;fill-opacity:1;fill-rule:nonzero;stroke:none;stroke-width:0.35277775"
       id="text216">
      <tspan
         style="stroke-width:0.35277775"
         x="182.76396"
         y="55.658073"
         id="tspan214">u</tspan>
    </text>
    <text
       y="56.59766"
       x="184.54556"
       style="font-variant:normal;font-weight:normal;font-size:2.66700006px;font-family:'Times New Roman';-inkscape-font-specification:Times-Roman;writing-mode:lr-tb;fill:#000000;fill-opacity:1;fill-rule:nonzero;stroke:none;stroke-width:0.35277775"
       id="text220">
      <tspan
         style="stroke-width:0.35277775"
         x="184.54556"
         y="56.59766"
         id="tspan218">2</tspan>
    </text>
    <text
       y="56.160782"
       x="254.22792"
       style="font-style:italic;font-variant:normal;font-size:3.80999994px;font-family:'Times New Roman';-inkscape-font-specification:Times-Italic;writing-mode:lr-tb;fill:#000000;fill-opacity:1;fill-rule:nonzero;stroke:none;stroke-width:0.35277775"
       id="text224">
      <tspan
         style="stroke-width:0.35277775"
         x="254.22792"
         y="56.160782"
         id="tspan222">u</tspan>
    </text>
    <text
       y="57.100368"
       x="256.00952"
       style="font-variant:normal;font-weight:normal;font-size:2.66700006px;font-family:'Times New Roman';-inkscape-font-specification:Times-Roman;writing-mode:lr-tb;fill:#000000;fill-opacity:1;fill-rule:nonzero;stroke:none;stroke-width:0.35277775"
       id="text228">
      <tspan
         style="stroke-width:0.35277775"
         x="256.00952"
         y="57.100368"
         id="tspan226">2</tspan>
    </text>
    <text
       y="94.863152"
       x="257.26187"
       style="font-style:italic;font-variant:normal;font-size:3.80999994px;font-family:'Times New Roman';-inkscape-font-specification:Times-Italic;writing-mode:lr-tb;fill:#000000;fill-opacity:1;fill-rule:nonzero;stroke:none;stroke-width:0.35277775"
       id="text232">
      <tspan
         style="stroke-width:0.35277775"
         x="257.26187"
         y="94.863152"
         id="tspan230">u</tspan>
    </text>
    <text
       y="95.802734"
       x="259.04349"
       style="font-variant:normal;font-weight:normal;font-size:2.66700006px;font-family:'Times New Roman';-inkscape-font-specification:Times-Roman;writing-mode:lr-tb;fill:#000000;fill-opacity:1;fill-rule:nonzero;stroke:none;stroke-width:0.35277775"
       id="text236">
      <tspan
         style="stroke-width:0.35277775"
         x="259.04349"
         y="95.802734"
         id="tspan234">2</tspan>
    </text>
    <path
       d="m 187.44028,61.000081 v 12.530313 h 32.07384 z"
       style="fill:#9ed5f5;fill-opacity:1;fill-rule:nonzero;stroke:#000000;stroke-width:0.21166667;stroke-linecap:butt;stroke-linejoin:round;stroke-miterlimit:4;stroke-dasharray:none;stroke-opacity:1"
       id="path238"
       inkscape:connector-curvature="0" />
    <text
       y="70.217529"
       x="182.75969"
       style="font-variant:normal;font-weight:normal;font-size:5.07999992px;font-family:'Times New Roman';-inkscape-font-specification:Times-Roman;writing-mode:lr-tb;fill:#000000;fill-opacity:1;fill-rule:nonzero;stroke:none;stroke-width:0.35277775"
       id="text246">
      <tspan
         style="stroke-width:0.35277775"
         x="182.75969 185.62482"
         y="70.217529"
         sodipodi:role="line"
         id="tspan240">=</tspan>
      <tspan
         style="stroke-width:0.35277775"
         x="218.117 220.98212"
         y="70.301346"
         sodipodi:role="line"
         id="tspan242">+</tspan>
      <tspan
         style="stroke-width:0.35277775"
         x="218.62399 221.48912"
         y="95.974655"
         sodipodi:role="line"
         id="tspan244">+</tspan>
    </text>
    <g
       transform="matrix(0.35277777,0,0,-0.35277777,69.153188,297.69809)"
       id="g248">
      <g
         id="g250"
         clip-path="url(#clipPath254)">
        <path
           d="m 191.957,637.988 h 1.941 v 20.565 h -1.941 z"
           style="fill:#f8f400;fill-opacity:1;fill-rule:nonzero;stroke:none"
           id="path256"
           inkscape:connector-curvature="0" />
        <path
           d="m 193.899,637.988 h 1.941 v 20.565 h -1.941 z"
           style="fill:#f9eb00;fill-opacity:1;fill-rule:nonzero;stroke:none"
           id="path258"
           inkscape:connector-curvature="0" />
        <path
           d="m 195.84,637.988 h 1.941 v 20.565 h -1.941 z"
           style="fill:#f8e31c;fill-opacity:1;fill-rule:nonzero;stroke:none"
           id="path260"
           inkscape:connector-curvature="0" />
        <path
           d="m 197.781,637.988 h 1.941 v 20.565 h -1.941 z"
           style="fill:#f7da2e;fill-opacity:1;fill-rule:nonzero;stroke:none"
           id="path262"
           inkscape:connector-curvature="0" />
        <path
           d="m 199.723,637.988 h 1.941 v 20.565 h -1.941 z"
           style="fill:#f7d03d;fill-opacity:1;fill-rule:nonzero;stroke:none"
           id="path264"
           inkscape:connector-curvature="0" />
        <path
           d="m 201.664,637.988 h 1.941 v 20.565 h -1.941 z"
           style="fill:#f6c647;fill-opacity:1;fill-rule:nonzero;stroke:none"
           id="path266"
           inkscape:connector-curvature="0" />
        <path
           d="m 203.606,637.988 h 1.941 v 20.565 h -1.941 z"
           style="fill:#f6bc4e;fill-opacity:1;fill-rule:nonzero;stroke:none"
           id="path268"
           inkscape:connector-curvature="0" />
        <path
           d="m 205.547,637.988 h 1.941 v 20.565 h -1.941 z"
           style="fill:#f4b052;fill-opacity:1;fill-rule:nonzero;stroke:none"
           id="path270"
           inkscape:connector-curvature="0" />
        <path
           d="m 207.489,637.988 h 1.941 v 20.565 h -1.941 z"
           style="fill:#f2a455;fill-opacity:1;fill-rule:nonzero;stroke:none"
           id="path272"
           inkscape:connector-curvature="0" />
        <path
           d="m 209.43,637.988 h 1.941 v 20.565 h -1.941 z"
           style="fill:#f09857;fill-opacity:1;fill-rule:nonzero;stroke:none"
           id="path274"
           inkscape:connector-curvature="0" />
        <path
           d="m 211.371,637.988 h 1.941 v 20.565 h -1.941 z"
           style="fill:#ee8a59;fill-opacity:1;fill-rule:nonzero;stroke:none"
           id="path276"
           inkscape:connector-curvature="0" />
        <path
           d="m 213.313,637.988 h 1.941 v 20.565 h -1.941 z"
           style="fill:#ec7c5a;fill-opacity:1;fill-rule:nonzero;stroke:none"
           id="path278"
           inkscape:connector-curvature="0" />
        <path
           d="m 215.254,637.988 h 1.941 v 20.565 h -1.941 z"
           style="fill:#eb6a59;fill-opacity:1;fill-rule:nonzero;stroke:none"
           id="path280"
           inkscape:connector-curvature="0" />
        <path
           d="m 217.196,637.988 h 1.941 v 20.565 h -1.941 z"
           style="fill:#e85558;fill-opacity:1;fill-rule:nonzero;stroke:none"
           id="path282"
           inkscape:connector-curvature="0" />
        <path
           d="m 219.137,637.988 h 1.941 v 20.565 h -1.941 z"
           style="fill:#e53955;fill-opacity:1;fill-rule:nonzero;stroke:none"
           id="path284"
           inkscape:connector-curvature="0" />
        <path
           d="m 221.079,637.988 h 1.941 v 20.565 h -1.941 z"
           style="fill:#e10050;fill-opacity:1;fill-rule:nonzero;stroke:none"
           id="path286"
           inkscape:connector-curvature="0" />
      </g>
    </g>
    <path
       d="m 136.97965,70.924778 5.78309,-1.176161 0.1217,0.103363 -0.8516,2.354792 c 1.47144,-1.2827 3.84598,-2.494492 5.75945,-3.20428 -1.91347,-0.709789 -4.28801,-1.921581 -5.75945,-3.204281 l 0.84102,2.324453 -0.11359,0.09596 -5.78309,-1.116894 z"
       style="fill:none;stroke:#808080;stroke-width:0.21166667;stroke-linecap:butt;stroke-linejoin:miter;stroke-miterlimit:4;stroke-dasharray:none;stroke-opacity:1"
       id="path288"
       inkscape:connector-curvature="0" />
    <g
       transform="matrix(0.35277777,0,0,-0.35277777,69.153188,297.69809)"
       id="g290">
      <g
         id="g292"
         clip-path="url(#clipPath296)">
        <path
           d="m 417.707,620.467 h 20.565 v 7238.4 h -20.565 z"
           style="fill:#f8f400;fill-opacity:1;fill-rule:nonzero;stroke:none"
           id="path298"
           inkscape:connector-curvature="0" />
        <path
           d="m 417.707,618.525 h 20.565 v 1.941 h -20.565 z"
           style="fill:#f8f400;fill-opacity:1;fill-rule:nonzero;stroke:none"
           id="path300"
           inkscape:connector-curvature="0" />
        <path
           d="m 417.707,616.584 h 20.565 v 1.941 h -20.565 z"
           style="fill:#f9eb00;fill-opacity:1;fill-rule:nonzero;stroke:none"
           id="path302"
           inkscape:connector-curvature="0" />
        <path
           d="m 417.707,614.642 h 20.565 v 1.941 h -20.565 z"
           style="fill:#f8e31c;fill-opacity:1;fill-rule:nonzero;stroke:none"
           id="path304"
           inkscape:connector-curvature="0" />
        <path
           d="m 417.707,612.701 h 20.565 v 1.941 h -20.565 z"
           style="fill:#f7da2e;fill-opacity:1;fill-rule:nonzero;stroke:none"
           id="path306"
           inkscape:connector-curvature="0" />
        <path
           d="m 417.707,610.759 h 20.565 v 1.941 h -20.565 z"
           style="fill:#f7d03d;fill-opacity:1;fill-rule:nonzero;stroke:none"
           id="path308"
           inkscape:connector-curvature="0" />
        <path
           d="m 417.707,608.818 h 20.565 v 1.941 h -20.565 z"
           style="fill:#f6c647;fill-opacity:1;fill-rule:nonzero;stroke:none"
           id="path310"
           inkscape:connector-curvature="0" />
        <path
           d="m 417.707,606.876 h 20.565 v 1.941 h -20.565 z"
           style="fill:#f6bc4e;fill-opacity:1;fill-rule:nonzero;stroke:none"
           id="path312"
           inkscape:connector-curvature="0" />
        <path
           d="m 417.707,604.935 h 20.565 v 1.941 h -20.565 z"
           style="fill:#f4b052;fill-opacity:1;fill-rule:nonzero;stroke:none"
           id="path314"
           inkscape:connector-curvature="0" />
        <path
           d="m 417.707,602.994 h 20.565 v 1.941 h -20.565 z"
           style="fill:#f2a455;fill-opacity:1;fill-rule:nonzero;stroke:none"
           id="path316"
           inkscape:connector-curvature="0" />
        <path
           d="m 417.707,601.052 h 20.565 v 1.941 h -20.565 z"
           style="fill:#f09857;fill-opacity:1;fill-rule:nonzero;stroke:none"
           id="path318"
           inkscape:connector-curvature="0" />
        <path
           d="m 417.707,599.111 h 20.565 v 1.941 h -20.565 z"
           style="fill:#ee8a59;fill-opacity:1;fill-rule:nonzero;stroke:none"
           id="path320"
           inkscape:connector-curvature="0" />
        <path
           d="m 417.707,597.169 h 20.565 v 1.941 h -20.565 z"
           style="fill:#ec7c5a;fill-opacity:1;fill-rule:nonzero;stroke:none"
           id="path322"
           inkscape:connector-curvature="0" />
        <path
           d="m 417.707,595.228 h 20.565 v 1.941 h -20.565 z"
           style="fill:#eb6a59;fill-opacity:1;fill-rule:nonzero;stroke:none"
           id="path324"
           inkscape:connector-curvature="0" />
        <path
           d="m 417.707,593.286 h 20.565 v 1.941 h -20.565 z"
           style="fill:#e85558;fill-opacity:1;fill-rule:nonzero;stroke:none"
           id="path326"
           inkscape:connector-curvature="0" />
        <path
           d="m 417.707,591.345 h 20.565 v 1.941 h -20.565 z"
           style="fill:#e53955;fill-opacity:1;fill-rule:nonzero;stroke:none"
           id="path328"
           inkscape:connector-curvature="0" />
        <path
           d="m 417.707,589.404 h 20.565 v 1.941 h -20.565 z"
           style="fill:#e10050;fill-opacity:1;fill-rule:nonzero;stroke:none"
           id="path330"
           inkscape:connector-curvature="0" />
      </g>
    </g>
    <path
       d="m 218.36619,77.318874 1.02623,7.38364 -0.10337,0.12206 -2.35479,-0.851606 c 1.2827,1.471438 2.49449,3.845983 3.20428,5.75945 0.71014,-1.913467 1.92158,-4.288012 3.20428,-5.75945 l -2.32445,0.840671 -0.096,-0.113242 1.26683,-7.383991 z"
       style="fill:none;stroke:#808080;stroke-width:0.21166667;stroke-linecap:butt;stroke-linejoin:miter;stroke-miterlimit:4;stroke-dasharray:none;stroke-opacity:1"
       id="path332"
       inkscape:connector-curvature="0" />
    <path
       d="m 103.32747,61.041003 v 12.488333 h 32.0675 V 50.598781 Z"
       style="fill:#e8d1e3;fill-opacity:1;fill-rule:nonzero;stroke:#000000;stroke-width:0.21166667;stroke-linecap:butt;stroke-linejoin:round;stroke-miterlimit:4;stroke-dasharray:none;stroke-opacity:1"
       id="path334"
       inkscape:connector-curvature="0" />
    <path
       d="m 220.71427,73.555794 h 32.01459 V 50.695795 Z"
       style="fill:#f5ac87;fill-opacity:1;fill-rule:nonzero;stroke:#000000;stroke-width:0.21166667;stroke-linecap:butt;stroke-linejoin:round;stroke-miterlimit:4;stroke-dasharray:none;stroke-opacity:1"
       id="path336"
       inkscape:connector-curvature="0" />
    <path
       d="M 135.37733,109.30277 H 103.26539 V 99.256359 Z"
       style="fill:#9ed5f5;fill-opacity:1;fill-rule:nonzero;stroke:#000000;stroke-width:0.21166667;stroke-linecap:butt;stroke-linejoin:miter;stroke-miterlimit:4;stroke-dasharray:none;stroke-opacity:1"
       id="path338"
       inkscape:connector-curvature="0" />
    <path
       d="m 108.38984,101.86162 c -1.84045,0 -3.33234,1.4919 -3.33234,3.33234 0,1.84045 1.49189,3.33234 3.33234,3.33234 1.84008,0 3.33233,-1.49189 3.33233,-3.33234 0,-1.84044 -1.49225,-3.33234 -3.33233,-3.33234"
       style="fill:#ffffff;fill-opacity:1;fill-rule:nonzero;stroke:none;stroke-width:0.35277775"
       id="path340"
       inkscape:connector-curvature="0" />
    <text
       y="106.40508"
       x="107.04491"
       style="font-style:italic;font-variant:normal;font-size:3.55603528px;font-family:'Times New Roman';-inkscape-font-specification:Times-Italic;writing-mode:lr-tb;fill:#000000;fill-opacity:1;fill-rule:nonzero;stroke:none;stroke-width:0.35277775"
       id="text344">
      <tspan
         style="stroke-width:0.35277775"
         x="107.04491"
         y="106.40508"
         id="tspan342">N</tspan>
    </text>
    <text
       y="107.53408"
       x="109.30273"
       style="font-variant:normal;font-weight:normal;font-size:2.8786664px;font-family:'Times New Roman';-inkscape-font-specification:Times-Roman;writing-mode:lr-tb;fill:#000000;fill-opacity:1;fill-rule:nonzero;stroke:none;stroke-width:0.35277775"
       id="text352">
      <tspan
         style="stroke-width:0.35277775"
         x="109.30273"
         y="107.53408"
         id="tspan350">1</tspan>
    </text>
    <path
       d="m 130.38694,115.80128 c -1.84044,0 -3.33234,1.4919 -3.33234,3.33234 0,1.84009 1.4919,3.33199 3.33234,3.33199 1.84009,0 3.33234,-1.4919 3.33234,-3.33199 0,-1.84044 -1.49225,-3.33234 -3.33234,-3.33234"
       style="fill:#ffffff;fill-opacity:1;fill-rule:nonzero;stroke:none;stroke-width:0.35277775"
       id="path354"
       inkscape:connector-curvature="0" />
    <text
       y="120.34814"
       x="128.91011"
       style="font-style:italic;font-variant:normal;font-size:3.55603528px;font-family:'Times New Roman';-inkscape-font-specification:Times-Italic;writing-mode:lr-tb;fill:#000000;fill-opacity:1;fill-rule:nonzero;stroke:none;stroke-width:0.35277775"
       id="text358">
      <tspan
         style="stroke-width:0.35277775"
         x="128.91011"
         y="120.34814"
         id="tspan356">N</tspan>
    </text>
    <text
       y="121.5193"
       x="131.26671"
       style="font-variant:normal;font-weight:normal;font-size:2.8786664px;font-family:'Times New Roman';-inkscape-font-specification:Times-Roman;writing-mode:lr-tb;fill:#000000;fill-opacity:1;fill-rule:nonzero;stroke:none;stroke-width:0.35277775"
       id="text366">
      <tspan
         style="stroke-width:0.35277775"
         x="131.26671"
         y="121.5193"
         id="tspan364">2</tspan>
    </text>
    <path
       d="m 186.08914,94.731281 h -0.36089 l -0.9652,-0.965555 -0.9652,0.965555 h -0.36089 l 1.14829,-1.143355 -1.143,-1.143 h 0.3556 l 0.9652,0.9652 0.9652,-0.9652 h 0.3556 l -1.143,1.143 1.14829,1.143355"
       style="fill:#000000;fill-opacity:1;fill-rule:nonzero;stroke:none;stroke-width:0.35277775"
       id="path368"
       inkscape:connector-curvature="0" />
    <path
       d="m 256.50076,94.898497 h -0.36054 l -0.96555,-0.9652 -0.9652,0.9652 h -0.36054 l 1.14794,-1.143 -1.143,-1.143354 h 0.3556 l 0.9652,0.965554 0.96555,-0.965554 h 0.3556 l -1.143,1.143354 1.14794,1.143"
       style="fill:#000000;fill-opacity:1;fill-rule:nonzero;stroke:none;stroke-width:0.35277775"
       id="path370"
       inkscape:connector-curvature="0" />
    <path
       d="M 181.12979,73.513108 V 53.356092"
       style="fill:none;stroke:#000000;stroke-width:0.42333335;stroke-linecap:butt;stroke-linejoin:round;stroke-miterlimit:4;stroke-dasharray:none;stroke-opacity:1"
       id="path372"
       inkscape:connector-curvature="0" />
    <path
       d="m 182.04101,53.985448 -0.92216,-3.442053 -0.92251,3.442053 h 1.84467"
       style="fill:#000000;fill-opacity:1;fill-rule:nonzero;stroke:none;stroke-width:0.35277775"
       id="path374"
       inkscape:connector-curvature="0" />
    <path
       d="M 149.06229,73.529336 V 63.820539"
       style="fill:none;stroke:#000000;stroke-width:0.42333335;stroke-linecap:butt;stroke-linejoin:round;stroke-miterlimit:4;stroke-dasharray:none;stroke-opacity:1"
       id="path376"
       inkscape:connector-curvature="0" />
    <path
       d="m 149.97351,64.449542 -0.92216,-3.442053 -0.92251,3.442053 h 1.84467"
       style="fill:#000000;fill-opacity:1;fill-rule:nonzero;stroke:none;stroke-width:0.35277775"
       id="path378"
       inkscape:connector-curvature="0" />
    <path
       d="M 187.43569,73.542741 V 63.833592"
       style="fill:none;stroke:#000000;stroke-width:0.42333335;stroke-linecap:butt;stroke-linejoin:round;stroke-miterlimit:4;stroke-dasharray:none;stroke-opacity:1"
       id="path380"
       inkscape:connector-curvature="0" />
    <path
       d="m 188.34692,64.462947 -0.92216,-3.442052 -0.92252,3.442052 h 1.84468"
       style="fill:#000000;fill-opacity:1;fill-rule:nonzero;stroke:none;stroke-width:0.35277775"
       id="path382"
       inkscape:connector-curvature="0" />
    <path
       d="M 252.73944,73.6454 V 53.488384"
       style="fill:none;stroke:#000000;stroke-width:0.42333335;stroke-linecap:butt;stroke-linejoin:round;stroke-miterlimit:4;stroke-dasharray:none;stroke-opacity:1"
       id="path384"
       inkscape:connector-curvature="0" />
    <path
       d="m 253.65031,54.117739 -0.92216,-3.442053 -0.92216,3.442053 h 1.84432"
       style="fill:#000000;fill-opacity:1;fill-rule:nonzero;stroke:none;stroke-width:0.35277775"
       id="path386"
       inkscape:connector-curvature="0" />
    <path
       d="M 135.39921,73.591072 V 53.434056"
       style="fill:none;stroke:#000000;stroke-width:0.42333335;stroke-linecap:butt;stroke-linejoin:round;stroke-miterlimit:4;stroke-dasharray:none;stroke-opacity:1"
       id="path388"
       inkscape:connector-curvature="0" />
    <path
       d="m 136.31008,54.063411 -0.92216,-3.442052 -0.92216,3.442052 h 1.84432"
       style="fill:#000000;fill-opacity:1;fill-rule:nonzero;stroke:none;stroke-width:0.35277775"
       id="path390"
       inkscape:connector-curvature="0" />
    <path
       d="M 103.35993,73.538155 V 63.829358"
       style="fill:none;stroke:#000000;stroke-width:0.42333335;stroke-linecap:butt;stroke-linejoin:round;stroke-miterlimit:4;stroke-dasharray:none;stroke-opacity:1"
       id="path392"
       inkscape:connector-curvature="0" />
    <path
       d="m 104.27116,64.458361 -0.92217,-3.442053 -0.92251,3.442053 h 1.84468"
       style="fill:#000000;fill-opacity:1;fill-rule:nonzero;stroke:none;stroke-width:0.35277775"
       id="path394"
       inkscape:connector-curvature="0" />
    <g
       transform="matrix(0.35277777,0,0,-0.35277777,69.153188,297.69809)"
       id="g396">
      <g
         id="g398"
         clip-path="url(#clipPath402)">
        <path
           d="m 438.561,513.032 h 2 v 42.508 h -2 z"
           style="fill:#f8f400;fill-opacity:1;fill-rule:nonzero;stroke:none"
           id="path404"
           inkscape:connector-curvature="0" />
        <path
           d="m 436.561,513.032 h 2 v 42.508 h -2 z"
           style="fill:#f9f300;fill-opacity:1;fill-rule:nonzero;stroke:none"
           id="path406"
           inkscape:connector-curvature="0" />
        <path
           d="m 434.561,513.032 h 2 v 42.508 h -2 z"
           style="fill:#f9f100;fill-opacity:1;fill-rule:nonzero;stroke:none"
           id="path408"
           inkscape:connector-curvature="0" />
        <path
           d="m 432.561,513.032 h 2 v 42.508 h -2 z"
           style="fill:#f9f000;fill-opacity:1;fill-rule:nonzero;stroke:none"
           id="path410"
           inkscape:connector-curvature="0" />
        <path
           d="m 430.561,513.032 h 2 v 42.508 h -2 z"
           style="fill:#f9ef00;fill-opacity:1;fill-rule:nonzero;stroke:none"
           id="path412"
           inkscape:connector-curvature="0" />
        <path
           d="m 428.562,513.032 h 2 v 42.508 h -2 z"
           style="fill:#f9ee00;fill-opacity:1;fill-rule:nonzero;stroke:none"
           id="path414"
           inkscape:connector-curvature="0" />
        <path
           d="m 426.562,513.032 h 2 v 42.508 h -2 z"
           style="fill:#f9ed00;fill-opacity:1;fill-rule:nonzero;stroke:none"
           id="path416"
           inkscape:connector-curvature="0" />
        <path
           d="m 424.562,513.032 h 2 v 42.508 h -2 z"
           style="fill:#f9ec00;fill-opacity:1;fill-rule:nonzero;stroke:none"
           id="path418"
           inkscape:connector-curvature="0" />
        <path
           d="m 422.562,513.032 h 2 v 42.508 h -2 z"
           style="fill:#f9eb00;fill-opacity:1;fill-rule:nonzero;stroke:none"
           id="path420"
           inkscape:connector-curvature="0" />
        <path
           d="m 420.562,513.032 h 2 v 42.508 h -2 z"
           style="fill:#f9e900;fill-opacity:1;fill-rule:nonzero;stroke:none"
           id="path422"
           inkscape:connector-curvature="0" />
        <path
           d="m 418.562,513.032 h 2 v 42.508 h -2 z"
           style="fill:#f9e800;fill-opacity:1;fill-rule:nonzero;stroke:none"
           id="path424"
           inkscape:connector-curvature="0" />
        <path
           d="m 416.563,513.032 h 2 v 42.508 h -2 z"
           style="fill:#f9e701;fill-opacity:1;fill-rule:nonzero;stroke:none"
           id="path426"
           inkscape:connector-curvature="0" />
        <path
           d="m 414.563,513.032 h 2 v 42.508 h -2 z"
           style="fill:#f9e60b;fill-opacity:1;fill-rule:nonzero;stroke:none"
           id="path428"
           inkscape:connector-curvature="0" />
        <path
           d="m 412.563,513.032 h 2 v 42.508 h -2 z"
           style="fill:#f8e511;fill-opacity:1;fill-rule:nonzero;stroke:none"
           id="path430"
           inkscape:connector-curvature="0" />
        <path
           d="m 410.563,513.032 h 2 v 42.508 h -2 z"
           style="fill:#f8e316;fill-opacity:1;fill-rule:nonzero;stroke:none"
           id="path432"
           inkscape:connector-curvature="0" />
        <path
           d="m 408.563,513.032 h 2 v 42.508 h -2 z"
           style="fill:#f8e31c;fill-opacity:1;fill-rule:nonzero;stroke:none"
           id="path434"
           inkscape:connector-curvature="0" />
        <path
           d="m 406.564,513.032 h 2 v 42.508 h -2 z"
           style="fill:#f8e121;fill-opacity:1;fill-rule:nonzero;stroke:none"
           id="path436"
           inkscape:connector-curvature="0" />
        <path
           d="m 404.564,513.032 h 2 v 42.508 h -2 z"
           style="fill:#f8e025;fill-opacity:1;fill-rule:nonzero;stroke:none"
           id="path438"
           inkscape:connector-curvature="0" />
        <path
           d="m 402.564,513.032 h 2 v 42.508 h -2 z"
           style="fill:#f8df25;fill-opacity:1;fill-rule:nonzero;stroke:none"
           id="path440"
           inkscape:connector-curvature="0" />
        <path
           d="m 400.564,513.032 h 2 v 42.508 h -2 z"
           style="fill:#f8de2a;fill-opacity:1;fill-rule:nonzero;stroke:none"
           id="path442"
           inkscape:connector-curvature="0" />
        <path
           d="m 398.564,513.032 h 2 v 42.508 h -2 z"
           style="fill:#f8dc2a;fill-opacity:1;fill-rule:nonzero;stroke:none"
           id="path444"
           inkscape:connector-curvature="0" />
        <path
           d="m 396.565,513.032 h 2 v 42.508 h -2 z"
           style="fill:#f8db2c;fill-opacity:1;fill-rule:nonzero;stroke:none"
           id="path446"
           inkscape:connector-curvature="0" />
        <path
           d="m 394.565,513.032 h 2 v 42.508 h -2 z"
           style="fill:#f7da2e;fill-opacity:1;fill-rule:nonzero;stroke:none"
           id="path448"
           inkscape:connector-curvature="0" />
        <path
           d="m 392.565,513.032 h 2 v 42.508 h -2 z"
           style="fill:#f7d830;fill-opacity:1;fill-rule:nonzero;stroke:none"
           id="path450"
           inkscape:connector-curvature="0" />
        <path
           d="m 390.565,513.032 h 2 v 42.508 h -2 z"
           style="fill:#f7d733;fill-opacity:1;fill-rule:nonzero;stroke:none"
           id="path452"
           inkscape:connector-curvature="0" />
        <path
           d="m 388.565,513.032 h 2 v 42.508 h -2 z"
           style="fill:#f7d635;fill-opacity:1;fill-rule:nonzero;stroke:none"
           id="path454"
           inkscape:connector-curvature="0" />
        <path
           d="m 386.565,513.032 h 2 v 42.508 h -2 z"
           style="fill:#f8d537;fill-opacity:1;fill-rule:nonzero;stroke:none"
           id="path456"
           inkscape:connector-curvature="0" />
        <path
           d="m 384.566,513.032 h 2 v 42.508 h -2 z"
           style="fill:#f8d439;fill-opacity:1;fill-rule:nonzero;stroke:none"
           id="path458"
           inkscape:connector-curvature="0" />
        <path
           d="m 382.566,513.032 h 2 v 42.508 h -2 z"
           style="fill:#f7d23b;fill-opacity:1;fill-rule:nonzero;stroke:none"
           id="path460"
           inkscape:connector-curvature="0" />
        <path
           d="m 380.566,513.032 h 2 v 42.508 h -2 z"
           style="fill:#f7d13d;fill-opacity:1;fill-rule:nonzero;stroke:none"
           id="path462"
           inkscape:connector-curvature="0" />
        <path
           d="m 378.566,513.032 h 2 v 42.508 h -2 z"
           style="fill:#f7d03e;fill-opacity:1;fill-rule:nonzero;stroke:none"
           id="path464"
           inkscape:connector-curvature="0" />
        <path
           d="m 376.566,513.032 h 2 v 42.508 h -2 z"
           style="fill:#f7ce3e;fill-opacity:1;fill-rule:nonzero;stroke:none"
           id="path466"
           inkscape:connector-curvature="0" />
        <path
           d="m 374.567,513.032 h 2 v 42.508 h -2 z"
           style="fill:#f7cd42;fill-opacity:1;fill-rule:nonzero;stroke:none"
           id="path468"
           inkscape:connector-curvature="0" />
        <path
           d="m 372.567,513.032 h 2 v 42.508 h -2 z"
           style="fill:#f6cb42;fill-opacity:1;fill-rule:nonzero;stroke:none"
           id="path470"
           inkscape:connector-curvature="0" />
        <path
           d="m 370.567,513.032 h 2 v 42.508 h -2 z"
           style="fill:#f6ca43;fill-opacity:1;fill-rule:nonzero;stroke:none"
           id="path472"
           inkscape:connector-curvature="0" />
        <path
           d="m 368.567,513.032 h 2 v 42.508 h -2 z"
           style="fill:#f6c944;fill-opacity:1;fill-rule:nonzero;stroke:none"
           id="path474"
           inkscape:connector-curvature="0" />
        <path
           d="m 366.567,513.032 h 2 v 42.508 h -2 z"
           style="fill:#f6c746;fill-opacity:1;fill-rule:nonzero;stroke:none"
           id="path476"
           inkscape:connector-curvature="0" />
        <path
           d="m 364.568,513.032 h 2 v 42.508 h -2 z"
           style="fill:#f6c647;fill-opacity:1;fill-rule:nonzero;stroke:none"
           id="path478"
           inkscape:connector-curvature="0" />
        <path
           d="m 362.568,513.032 h 2 v 42.508 h -2 z"
           style="fill:#f6c548;fill-opacity:1;fill-rule:nonzero;stroke:none"
           id="path480"
           inkscape:connector-curvature="0" />
        <path
           d="m 360.568,513.032 h 2 v 42.508 h -2 z"
           style="fill:#f6c349;fill-opacity:1;fill-rule:nonzero;stroke:none"
           id="path482"
           inkscape:connector-curvature="0" />
        <path
           d="m 358.568,513.032 h 2 v 42.508 h -2 z"
           style="fill:#f6c24a;fill-opacity:1;fill-rule:nonzero;stroke:none"
           id="path484"
           inkscape:connector-curvature="0" />
        <path
           d="m 356.568,513.032 h 2 v 42.508 h -2 z"
           style="fill:#f6c14b;fill-opacity:1;fill-rule:nonzero;stroke:none"
           id="path486"
           inkscape:connector-curvature="0" />
        <path
           d="m 354.568,513.032 h 2 v 42.508 h -2 z"
           style="fill:#f6bf4b;fill-opacity:1;fill-rule:nonzero;stroke:none"
           id="path488"
           inkscape:connector-curvature="0" />
        <path
           d="m 352.569,513.032 h 2 v 42.508 h -2 z"
           style="fill:#f6be4d;fill-opacity:1;fill-rule:nonzero;stroke:none"
           id="path490"
           inkscape:connector-curvature="0" />
        <path
           d="m 350.569,513.032 h 2 v 42.508 h -2 z"
           style="fill:#f6bc4d;fill-opacity:1;fill-rule:nonzero;stroke:none"
           id="path492"
           inkscape:connector-curvature="0" />
        <path
           d="m 348.569,513.032 h 2 v 42.508 h -2 z"
           style="fill:#f6bb4e;fill-opacity:1;fill-rule:nonzero;stroke:none"
           id="path494"
           inkscape:connector-curvature="0" />
        <path
           d="m 346.569,513.032 h 2 v 42.508 h -2 z"
           style="fill:#f5b94e;fill-opacity:1;fill-rule:nonzero;stroke:none"
           id="path496"
           inkscape:connector-curvature="0" />
        <path
           d="m 344.569,513.032 h 2 v 42.508 h -2 z"
           style="fill:#f5b84f;fill-opacity:1;fill-rule:nonzero;stroke:none"
           id="path498"
           inkscape:connector-curvature="0" />
        <path
           d="m 342.57,513.032 h 2 v 42.508 h -2 z"
           style="fill:#f5b650;fill-opacity:1;fill-rule:nonzero;stroke:none"
           id="path500"
           inkscape:connector-curvature="0" />
        <path
           d="m 340.57,513.032 h 2 v 42.508 h -2 z"
           style="fill:#f4b450;fill-opacity:1;fill-rule:nonzero;stroke:none"
           id="path502"
           inkscape:connector-curvature="0" />
        <path
           d="m 338.57,513.032 h 2 v 42.508 h -2 z"
           style="fill:#f4b351;fill-opacity:1;fill-rule:nonzero;stroke:none"
           id="path504"
           inkscape:connector-curvature="0" />
        <path
           d="m 336.57,513.032 h 2 v 42.508 h -2 z"
           style="fill:#f4b252;fill-opacity:1;fill-rule:nonzero;stroke:none"
           id="path506"
           inkscape:connector-curvature="0" />
        <path
           d="m 334.57,513.032 h 2 v 42.508 h -2 z"
           style="fill:#f4b052;fill-opacity:1;fill-rule:nonzero;stroke:none"
           id="path508"
           inkscape:connector-curvature="0" />
        <path
           d="m 332.571,513.032 h 2 v 42.508 h -2 z"
           style="fill:#f3ae53;fill-opacity:1;fill-rule:nonzero;stroke:none"
           id="path510"
           inkscape:connector-curvature="0" />
        <path
           d="m 330.571,513.032 h 2 v 42.508 h -2 z"
           style="fill:#f3ad54;fill-opacity:1;fill-rule:nonzero;stroke:none"
           id="path512"
           inkscape:connector-curvature="0" />
        <path
           d="m 328.571,513.032 h 2 v 42.508 h -2 z"
           style="fill:#f3ac53;fill-opacity:1;fill-rule:nonzero;stroke:none"
           id="path514"
           inkscape:connector-curvature="0" />
        <path
           d="m 326.571,513.032 h 2 v 42.508 h -2 z"
           style="fill:#f3a955;fill-opacity:1;fill-rule:nonzero;stroke:none"
           id="path516"
           inkscape:connector-curvature="0" />
        <path
           d="m 324.571,513.032 h 2 v 42.508 h -2 z"
           style="fill:#f2a854;fill-opacity:1;fill-rule:nonzero;stroke:none"
           id="path518"
           inkscape:connector-curvature="0" />
        <path
           d="m 322.571,513.032 h 2 v 42.508 h -2 z"
           style="fill:#f2a655;fill-opacity:1;fill-rule:nonzero;stroke:none"
           id="path520"
           inkscape:connector-curvature="0" />
        <path
           d="m 320.572,513.032 h 2 v 42.508 h -2 z"
           style="fill:#f2a455;fill-opacity:1;fill-rule:nonzero;stroke:none"
           id="path522"
           inkscape:connector-curvature="0" />
        <path
           d="m 318.572,513.032 h 2 v 42.508 h -2 z"
           style="fill:#f2a355;fill-opacity:1;fill-rule:nonzero;stroke:none"
           id="path524"
           inkscape:connector-curvature="0" />
        <path
           d="m 316.572,513.032 h 2 v 42.508 h -2 z"
           style="fill:#f2a256;fill-opacity:1;fill-rule:nonzero;stroke:none"
           id="path526"
           inkscape:connector-curvature="0" />
        <path
           d="m 314.572,513.032 h 2 v 42.508 h -2 z"
           style="fill:#f1a056;fill-opacity:1;fill-rule:nonzero;stroke:none"
           id="path528"
           inkscape:connector-curvature="0" />
        <path
           d="m 312.572,513.032 h 2 v 42.508 h -2 z"
           style="fill:#f19e56;fill-opacity:1;fill-rule:nonzero;stroke:none"
           id="path530"
           inkscape:connector-curvature="0" />
        <path
           d="m 310.573,513.032 h 2 v 42.508 h -2 z"
           style="fill:#f19d57;fill-opacity:1;fill-rule:nonzero;stroke:none"
           id="path532"
           inkscape:connector-curvature="0" />
        <path
           d="m 308.573,513.032 h 2 v 42.508 h -2 z"
           style="fill:#f19b57;fill-opacity:1;fill-rule:nonzero;stroke:none"
           id="path534"
           inkscape:connector-curvature="0" />
        <path
           d="m 306.573,513.032 h 2 v 42.508 h -2 z"
           style="fill:#f09957;fill-opacity:1;fill-rule:nonzero;stroke:none"
           id="path536"
           inkscape:connector-curvature="0" />
        <path
           d="m 304.573,513.032 h 2 v 42.508 h -2 z"
           style="fill:#f09757;fill-opacity:1;fill-rule:nonzero;stroke:none"
           id="path538"
           inkscape:connector-curvature="0" />
        <path
           d="m 302.573,513.032 h 2 v 42.508 h -2 z"
           style="fill:#f09657;fill-opacity:1;fill-rule:nonzero;stroke:none"
           id="path540"
           inkscape:connector-curvature="0" />
        <path
           d="m 300.574,513.032 h 2 v 42.508 h -2 z"
           style="fill:#f09358;fill-opacity:1;fill-rule:nonzero;stroke:none"
           id="path542"
           inkscape:connector-curvature="0" />
        <path
           d="m 298.574,513.032 h 2 v 42.508 h -2 z"
           style="fill:#ef9258;fill-opacity:1;fill-rule:nonzero;stroke:none"
           id="path544"
           inkscape:connector-curvature="0" />
        <path
           d="m 296.574,513.032 h 2 v 42.508 h -2 z"
           style="fill:#ef9058;fill-opacity:1;fill-rule:nonzero;stroke:none"
           id="path546"
           inkscape:connector-curvature="0" />
        <path
           d="m 294.574,513.032 h 2 v 42.508 h -2 z"
           style="fill:#ef8e59;fill-opacity:1;fill-rule:nonzero;stroke:none"
           id="path548"
           inkscape:connector-curvature="0" />
        <path
           d="m 292.574,513.032 h 2 v 42.508 h -2 z"
           style="fill:#ee8c59;fill-opacity:1;fill-rule:nonzero;stroke:none"
           id="path550"
           inkscape:connector-curvature="0" />
        <path
           d="m 290.574,513.032 h 2 v 42.508 h -2 z"
           style="fill:#ee8a59;fill-opacity:1;fill-rule:nonzero;stroke:none"
           id="path552"
           inkscape:connector-curvature="0" />
        <path
           d="m 288.575,513.032 h 2 v 42.508 h -2 z"
           style="fill:#ee895a;fill-opacity:1;fill-rule:nonzero;stroke:none"
           id="path554"
           inkscape:connector-curvature="0" />
        <path
           d="m 286.575,513.032 h 2 v 42.508 h -2 z"
           style="fill:#ee865a;fill-opacity:1;fill-rule:nonzero;stroke:none"
           id="path556"
           inkscape:connector-curvature="0" />
        <path
           d="m 284.575,513.032 h 2 v 42.508 h -2 z"
           style="fill:#ed855a;fill-opacity:1;fill-rule:nonzero;stroke:none"
           id="path558"
           inkscape:connector-curvature="0" />
        <path
           d="m 282.575,513.032 h 2 v 42.508 h -2 z"
           style="fill:#ed835a;fill-opacity:1;fill-rule:nonzero;stroke:none"
           id="path560"
           inkscape:connector-curvature="0" />
        <path
           d="m 280.575,513.032 h 2 v 42.508 h -2 z"
           style="fill:#ed815a;fill-opacity:1;fill-rule:nonzero;stroke:none"
           id="path562"
           inkscape:connector-curvature="0" />
        <path
           d="m 278.576,513.032 h 2 v 42.508 h -2 z"
           style="fill:#ed7e5a;fill-opacity:1;fill-rule:nonzero;stroke:none"
           id="path564"
           inkscape:connector-curvature="0" />
        <path
           d="m 276.576,513.032 h 2 v 42.508 h -2 z"
           style="fill:#ed7d5a;fill-opacity:1;fill-rule:nonzero;stroke:none"
           id="path566"
           inkscape:connector-curvature="0" />
        <path
           d="m 274.576,513.032 h 2 v 42.508 h -2 z"
           style="fill:#ec7b5a;fill-opacity:1;fill-rule:nonzero;stroke:none"
           id="path568"
           inkscape:connector-curvature="0" />
        <path
           d="m 272.576,513.032 h 2 v 42.508 h -2 z"
           style="fill:#ec785a;fill-opacity:1;fill-rule:nonzero;stroke:none"
           id="path570"
           inkscape:connector-curvature="0" />
        <path
           d="m 270.576,513.032 h 2 v 42.508 h -2 z"
           style="fill:#ec7659;fill-opacity:1;fill-rule:nonzero;stroke:none"
           id="path572"
           inkscape:connector-curvature="0" />
        <path
           d="m 268.577,513.032 h 2 v 42.508 h -2 z"
           style="fill:#ec7459;fill-opacity:1;fill-rule:nonzero;stroke:none"
           id="path574"
           inkscape:connector-curvature="0" />
        <path
           d="m 266.577,513.032 h 2 v 42.508 h -2 z"
           style="fill:#eb7159;fill-opacity:1;fill-rule:nonzero;stroke:none"
           id="path576"
           inkscape:connector-curvature="0" />
        <path
           d="m 264.577,513.032 h 2 v 42.508 h -2 z"
           style="fill:#eb6f59;fill-opacity:1;fill-rule:nonzero;stroke:none"
           id="path578"
           inkscape:connector-curvature="0" />
        <path
           d="m 262.577,513.032 h 2 v 42.508 h -2 z"
           style="fill:#eb6c59;fill-opacity:1;fill-rule:nonzero;stroke:none"
           id="path580"
           inkscape:connector-curvature="0" />
        <path
           d="m 260.577,513.032 h 2 v 42.508 h -2 z"
           style="fill:#eb6a59;fill-opacity:1;fill-rule:nonzero;stroke:none"
           id="path582"
           inkscape:connector-curvature="0" />
        <path
           d="m 258.577,513.032 h 2 v 42.508 h -2 z"
           style="fill:#ea6758;fill-opacity:1;fill-rule:nonzero;stroke:none"
           id="path584"
           inkscape:connector-curvature="0" />
        <path
           d="m 256.578,513.032 h 2 v 42.508 h -2 z"
           style="fill:#ea6459;fill-opacity:1;fill-rule:nonzero;stroke:none"
           id="path586"
           inkscape:connector-curvature="0" />
        <path
           d="m 254.578,513.032 h 2 v 42.508 h -2 z"
           style="fill:#ea6258;fill-opacity:1;fill-rule:nonzero;stroke:none"
           id="path588"
           inkscape:connector-curvature="0" />
        <path
           d="m 252.578,513.032 h 2 v 42.508 h -2 z"
           style="fill:#ea5e58;fill-opacity:1;fill-rule:nonzero;stroke:none"
           id="path590"
           inkscape:connector-curvature="0" />
        <path
           d="m 250.578,513.032 h 2 v 42.508 h -2 z"
           style="fill:#e95c58;fill-opacity:1;fill-rule:nonzero;stroke:none"
           id="path592"
           inkscape:connector-curvature="0" />
        <path
           d="m 248.578,513.032 h 2 v 42.508 h -2 z"
           style="fill:#e95958;fill-opacity:1;fill-rule:nonzero;stroke:none"
           id="path594"
           inkscape:connector-curvature="0" />
        <path
           d="m 246.579,513.032 h 2 v 42.508 h -2 z"
           style="fill:#e85558;fill-opacity:1;fill-rule:nonzero;stroke:none"
           id="path596"
           inkscape:connector-curvature="0" />
        <path
           d="m 244.579,513.032 h 2 v 42.508 h -2 z"
           style="fill:#e85258;fill-opacity:1;fill-rule:nonzero;stroke:none"
           id="path598"
           inkscape:connector-curvature="0" />
        <path
           d="m 242.579,513.032 h 2 v 42.508 h -2 z"
           style="fill:#e75057;fill-opacity:1;fill-rule:nonzero;stroke:none"
           id="path600"
           inkscape:connector-curvature="0" />
        <path
           d="m 240.579,513.032 h 2 v 42.508 h -2 z"
           style="fill:#e74c57;fill-opacity:1;fill-rule:nonzero;stroke:none"
           id="path602"
           inkscape:connector-curvature="0" />
        <path
           d="m 238.579,513.032 h 2 v 42.508 h -2 z"
           style="fill:#e74756;fill-opacity:1;fill-rule:nonzero;stroke:none"
           id="path604"
           inkscape:connector-curvature="0" />
        <path
           d="m 236.58,513.032 h 2 v 42.508 h -2 z"
           style="fill:#e64456;fill-opacity:1;fill-rule:nonzero;stroke:none"
           id="path606"
           inkscape:connector-curvature="0" />
        <path
           d="m 234.58,513.032 h 2 v 42.508 h -2 z"
           style="fill:#e64055;fill-opacity:1;fill-rule:nonzero;stroke:none"
           id="path608"
           inkscape:connector-curvature="0" />
        <path
           d="m 232.58,513.032 h 2 v 42.508 h -2 z"
           style="fill:#e53a55;fill-opacity:1;fill-rule:nonzero;stroke:none"
           id="path610"
           inkscape:connector-curvature="0" />
        <path
           d="m 230.58,513.032 h 2 v 42.508 h -2 z"
           style="fill:#e53755;fill-opacity:1;fill-rule:nonzero;stroke:none"
           id="path612"
           inkscape:connector-curvature="0" />
        <path
           d="m 228.58,513.032 h 2 v 42.508 h -2 z"
           style="fill:#e53254;fill-opacity:1;fill-rule:nonzero;stroke:none"
           id="path614"
           inkscape:connector-curvature="0" />
        <path
           d="m 226.581,513.032 h 2 v 42.508 h -2 z"
           style="fill:#e42953;fill-opacity:1;fill-rule:nonzero;stroke:none"
           id="path616"
           inkscape:connector-curvature="0" />
        <path
           d="m 224.581,513.032 h 2 v 42.508 h -2 z"
           style="fill:#e32152;fill-opacity:1;fill-rule:nonzero;stroke:none"
           id="path618"
           inkscape:connector-curvature="0" />
        <path
           d="m 222.581,513.032 h 2 v 42.508 h -2 z"
           style="fill:#e21652;fill-opacity:1;fill-rule:nonzero;stroke:none"
           id="path620"
           inkscape:connector-curvature="0" />
        <path
           d="m 220.581,513.032 h 2 v 42.508 h -2 z"
           style="fill:#e20051;fill-opacity:1;fill-rule:nonzero;stroke:none"
           id="path622"
           inkscape:connector-curvature="0" />
        <path
           d="m 218.581,513.032 h 2 v 42.508 h -2 z"
           style="fill:#e10050;fill-opacity:1;fill-rule:nonzero;stroke:none"
           id="path624"
           inkscape:connector-curvature="0" />
        <path
           d="m 216.581,513.032 h 2 v 42.508 h -2 z"
           style="fill:#e10050;fill-opacity:1;fill-rule:nonzero;stroke:none"
           id="path626"
           inkscape:connector-curvature="0" />
      </g>
    </g>
    <path
       d="m 213.63967,111.31183 -62.08289,1.02624 -0.13405,-0.10337 0.93662,-2.35444 c -1.61854,1.2827 -4.23051,2.49414 -6.33554,3.20428 2.10503,0.70979 4.717,1.92158 6.33554,3.20393 l -0.92498,-2.3241 0.12488,-0.096 62.08042,1.39453 h 1.24672 c 0,0 1.11019,0.0208 2.15371,-0.0663 1.11054,-0.0924 2.60561,-0.33125 3.82693,-1.29645 1.22237,-0.96556 1.80446,-2.76472 2.13924,-4.60375 0.33479,-1.83904 0.68404,-4.27285 0.68404,-4.27285 l 0.41698,-2.88396 h -7.10142 l 0.20885,2.48709 c 0.11642,1.11125 0.23283,2.56646 0.19861,3.81 -0.0328,1.2065 -0.48965,1.81222 -1.40652,2.38125 -0.59196,0.36724 -1.67358,0.44979 -1.67358,0.44979 z"
       style="fill:none;stroke:#808080;stroke-width:0.21166667;stroke-linecap:butt;stroke-linejoin:miter;stroke-miterlimit:4;stroke-dasharray:none;stroke-opacity:1"
       id="path628"
       inkscape:connector-curvature="0" />
    <path
       d="m 130.29275,103.06566 h 14.25222 v -5.221117 h -14.25222 z"
       style="fill:#ffffff;fill-opacity:1;fill-rule:nonzero;stroke:#000000;stroke-width:0.21166667;stroke-linecap:butt;stroke-linejoin:miter;stroke-miterlimit:4;stroke-dasharray:none;stroke-opacity:1"
       id="path630"
       inkscape:connector-curvature="0" />
    <path
       d="m 100.43082,116.35268 h 7.90222 v -4.79778 h -7.90222 z"
       style="fill:#ffffff;fill-opacity:1;fill-rule:nonzero;stroke:#000000;stroke-width:0.21166667;stroke-linecap:butt;stroke-linejoin:miter;stroke-miterlimit:4;stroke-dasharray:none;stroke-opacity:1"
       id="path632"
       inkscape:connector-curvature="0" />
    <text
       y="115.56331"
       x="102.24766"
       style="font-style:italic;font-variant:normal;font-size:4.44499969px;font-family:'Times New Roman';-inkscape-font-specification:Times-Italic;writing-mode:lr-tb;fill:#000000;fill-opacity:1;fill-rule:nonzero;stroke:none;stroke-width:0.35277775"
       id="text636">
      <tspan
         style="stroke-width:0.35277775"
         x="102.24766"
         y="115.56331"
         id="tspan634">s</tspan>
    </text>
    <text
       y="115.56331"
       x="104.22124"
       style="font-variant:normal;font-weight:normal;font-size:4.44499969px;font-family:'Times New Roman';-inkscape-font-specification:Times-Roman;writing-mode:lr-tb;fill:#000000;fill-opacity:1;fill-rule:nonzero;stroke:none;stroke-width:0.35277775"
       id="text640">
      <tspan
         style="stroke-width:0.35277775"
         x="104.22124"
         y="115.56331"
         id="tspan638">/<tspan
   style="-inkscape-font-specification:'Times New Roman,  Italic';font-family:'Times New Roman';font-weight:normal;font-style:italic;font-stretch:normal;font-variant:normal"
   id="tspan1158">L</tspan>
</tspan>
    </text>
    <path
       d="m 116.29453,51.404525 3.05117,1.351845"
       style="fill:none;stroke:#000000;stroke-width:0.3175;stroke-linecap:butt;stroke-linejoin:miter;stroke-miterlimit:4;stroke-dasharray:none;stroke-opacity:1"
       id="path650"
       inkscape:connector-curvature="0" />
    <path
       d="m 118.66202,53.846806 c 0.15099,0.06879 0.36018,0.170744 0.66745,0.340078 0.14253,0.07867 0.20673,0.03634 0.38347,-0.193323 0.0765,-0.09948 0.13124,0.0018 0.26811,0.02822 0.12947,0.01164 0.28011,-0.237419 0.28011,-0.237419 0.0307,-0.0575 0.0628,-0.04304 0.0773,-0.0254 0.33337,0.393347 0.91899,0.347486 0.90523,0.399697 -0.0296,0.253295 0.19226,0.344664 0.24729,0.303036 -0.0547,0.09384 0.0533,0.248356 0.11042,0.248356 0.20744,-0.0042 0.24166,-0.06526 0.37571,-0.04763 0.2533,0.01482 0.25824,-0.104775 0.46285,-0.01517 0.14922,0.06562 0.20955,0.06562 0.25929,0.05221 0.22578,-0.07197 0.19367,-0.334434 0.13582,-0.445559 0.11148,-0.136877 -0.0162,-0.436033 -0.003,-0.589844 0.0688,0.03281 0.18097,0.06985 0.36936,0.09596 0.0981,0.01376 0.0572,0.04586 0.21131,0.104775 0.20673,0.0822 0.29281,0.09948 0.36971,0.102658 0.0452,0.0018 0.23424,0.101953 0.35137,0.118181 0.33866,0.113947 0.4325,-0.196145 0.43921,-0.226836 0.003,-0.0127 -3.5e-4,-0.01411 -0.0593,-0.0441 -0.0826,-0.03422 -0.20464,-0.147814 -0.33058,-0.188031 -0.0487,-0.01728 -0.10971,-0.07302 -0.22789,-0.115005 -0.12594,-0.09384 -0.24554,-0.108303 -0.37747,-0.246592 -0.0208,-0.01905 -0.0272,0.006 -0.078,-0.02575 -0.0272,-0.01729 -0.012,-0.0381 -0.10125,-0.07056 -0.1016,-0.03704 -0.21908,-0.109008 -0.33585,-0.167569 -0.11677,-0.05891 -0.19579,-0.128764 -0.46813,-0.297039 -0.11148,-0.06844 -0.17604,-0.167217 -0.28328,-0.16757 -0.16228,-7.14e-4 -0.71297,-0.03104 -1.31727,-0.03563 -0.0127,-3.44e-4 -0.0674,0.0025 -0.0624,-0.07444 -0.003,-0.128411 -0.0497,-0.1143 -0.24307,-0.204964 -0.1337,-0.07408 0.0201,-0.127705 -0.13123,-0.200025 -0.23354,-0.111125 -0.33338,-0.137936 -0.6664,-0.314325 -0.13547,-0.07197 -0.17004,-0.0956 -0.22154,-3.44e-4 l -1.03294,2.048581 c -0.0159,0.0314 -0.0173,0.06985 0.0254,0.09137"
       style="fill:#000000;fill-opacity:1;fill-rule:nonzero;stroke:none;stroke-width:0.35277775"
       id="path652"
       inkscape:connector-curvature="0" />
    <path
       d="m 124.47544,53.882084 c -0.037,0.09454 -0.19367,-0.01235 -0.25364,-0.05927 -0.036,-0.02787 -0.0339,-0.106539 0.013,-0.100542 l 0.236,0.147814 c 0.004,0.0014 0.006,0.01023 0.005,0.01199"
       style="fill:#ffffff;fill-opacity:1;fill-rule:nonzero;stroke:none;stroke-width:0.35277775"
       id="path654"
       inkscape:connector-curvature="0" />
    <path
       d="m 122.60854,54.265553 c -0.10442,-0.03422 -0.11606,0.01023 -0.16439,-0.02293 -0.0638,-0.04445 0.0109,-0.03951 -0.22684,-0.152047 -0.0684,-0.03457 -0.10336,-0.0575 -0.16298,-0.05186 -0.0138,-0.02999 -0.0547,-0.0829 -0.1083,-0.06879 -0.0769,-0.06033 -0.0416,-0.05503 -0.20215,-0.0949 -0.21695,-0.05398 -0.2159,-0.152753 -0.28363,-0.242359 -0.0187,-0.02363 -0.0303,-0.04022 -0.0808,-0.0568 -0.38065,-0.13723 -0.22507,-0.05997 -0.70732,-0.341136 -0.15557,-0.119591 -0.17568,-0.245886 -0.0508,-0.475897 0.14746,-0.257528 0.18592,-0.191911 0.36266,-0.181328 0.72143,0.03528 1.23049,0.0099 1.3783,0.09913 0.43286,0.225073 0.31291,0.264584 0.89676,0.537634 0.19368,0.06914 0.14076,0.160161 0.21449,0.183091 0.0656,-0.0025 0.0374,-0.0515 0.20532,0.05362 0.34078,0.212725 0.44273,0.188031 0.44697,0.261056 0.006,0.09772 -0.0194,0.144639 0.22225,0.242358 0.0201,0.0081 0.0258,0.01058 0.0384,0.01411 0.0318,0.0078 0.0247,0.0254 -0.0138,0.03246 -0.0314,0.0056 -0.2667,0.0025 -0.4699,-0.144286 -0.11536,-0.08326 -0.0741,-0.0018 -0.28187,-0.106539 -0.0882,-0.0515 -0.14535,-0.08043 -0.17075,-0.100542 -0.10865,-0.01164 -0.28645,-0.09772 -0.33619,-0.140758 -0.061,-0.05256 -0.0825,-0.09137 -0.16228,-0.0889 -0.0801,0.0025 -0.2406,-0.0194 -0.43321,-0.146755 -0.22472,-0.149225 -0.18874,-0.189089 -0.22155,-0.183445 -0.0769,0.01376 -0.003,0.149578 -0.16616,0.180622 -0.084,0.01588 -0.055,-0.202847 -0.11606,-0.230011 -0.0381,-0.01305 -0.0617,0.01623 -0.0646,0.06385 -10e-4,0.02293 0.0169,0.164395 -0.0646,0.178153 -0.13264,0.02258 -0.19897,-0.278694 -0.37712,-0.25788 -0.0434,0.0081 -0.0272,0.05962 0.0127,0.07408 0.0684,0.02505 0.1464,0.141464 0.1718,0.204611 0.0325,0.08396 0.16158,0.252941 0.21132,0.310091 0.17603,0.2032 0.28469,0.172156 0.29598,0.249061 0.0123,0.05997 0.11395,0.03069 0.19932,0.05786 0.16122,0.0508 0.44168,0.345723 0.37077,0.404636 -0.025,0.0187 -0.0473,0.0046 -0.0751,-0.01588 -0.0289,-0.02187 -0.0409,-0.02822 -0.0868,-0.04339"
       style="fill:#ffffff;fill-opacity:1;fill-rule:nonzero;stroke:none;stroke-width:0.35277775"
       id="path656"
       inkscape:connector-curvature="0" />
    <path
       d="m 122.43215,54.407723 c 0.0716,-0.0568 0.0801,-0.06456 0.15981,-0.0441 0.0699,0.01764 0.22472,0.162983 0.16193,0.227894 -0.0307,0.01482 -0.10831,-0.02258 -0.16263,-0.03563 -0.0572,-0.01376 -0.22578,-0.0762 -0.15911,-0.148167"
       style="fill:#ffffff;fill-opacity:1;fill-rule:nonzero;stroke:none;stroke-width:0.35277775"
       id="path658"
       inkscape:connector-curvature="0" />
    <path
       d="m 119.88863,53.880673 c 0.0751,0.03316 0.10583,-0.0067 0.14146,-0.04833 0.0511,-0.06032 0.14393,-0.370417 0.31891,-0.732014 0.17533,-0.361597 0.23848,-0.458258 0.35313,-0.643467 0.0282,-0.04551 0.0967,-0.08573 0.0332,-0.122414 -0.20743,-0.119239 -0.26458,-0.169333 -0.38347,-0.01834 -0.13935,0.176389 -0.52952,0.936272 -0.68051,1.363486 0.002,0.04057 -0.073,0.08114 0.21731,0.201084"
       style="fill:#ffffff;fill-opacity:1;fill-rule:nonzero;stroke:none;stroke-width:0.35277775"
       id="path660"
       inkscape:connector-curvature="0" />
    <path
       d="m 107.64512,53.917714 h 9.15035 v -4.797778 h -9.15035 z"
       style="fill:#ffffff;fill-opacity:1;fill-rule:nonzero;stroke:#000000;stroke-width:0.21166667;stroke-linecap:butt;stroke-linejoin:miter;stroke-miterlimit:4;stroke-dasharray:none;stroke-opacity:1"
       id="path662"
       inkscape:connector-curvature="0" />
    <text
       y="101.85725"
       x="132.04347"
       style="font-variant:normal;font-weight:normal;font-size:4.44499969px;font-family:'Times New Roman';-inkscape-font-specification:Times-Roman;writing-mode:lr-tb;fill:#000000;fill-opacity:1;fill-rule:nonzero;stroke:none;stroke-width:0.35277775"
       id="text666">
      <tspan
         style="stroke-width:0.35277775"
         x="132.04347"
         y="101.85725"
         id="tspan664">1</tspan>
    </text>
    <text
       y="101.85725"
       x="134.26598"
       style="font-variant:normal;font-weight:normal;font-size:4.44499969px;font-family:Symbol;-inkscape-font-specification:Symbol;writing-mode:lr-tb;fill:#000000;fill-opacity:1;fill-rule:nonzero;stroke:none;stroke-width:0.35277775"
       id="text670">
      <tspan
         style="stroke-width:0.35277775"
         x="134.26598"
         y="101.85725"
         id="tspan668">−</tspan>
    </text>
    <text
       y="101.85725"
       x="136.70628"
       style="font-style:italic;font-variant:normal;font-size:4.44499969px;font-family:'Times New Roman';-inkscape-font-specification:Times-Italic;writing-mode:lr-tb;fill:#000000;fill-opacity:1;fill-rule:nonzero;stroke:none;stroke-width:0.35277775"
       id="text674">
      <tspan
         style="stroke-width:0.35277775"
         x="136.70628"
         y="101.85725"
         id="tspan672">s</tspan>
    </text>
    <text
       y="101.85725"
       x="138.67987"
       style="font-variant:normal;font-weight:normal;font-size:4.44499969px;font-family:'Times New Roman';-inkscape-font-specification:Times-Roman;writing-mode:lr-tb;fill:#000000;fill-opacity:1;fill-rule:nonzero;stroke:none;stroke-width:0.35277775"
       id="text678">
      <tspan
         style="stroke-width:0.35277775"
         x="138.67987"
         y="101.85725"
         id="tspan676">/<tspan
   style="-inkscape-font-specification:'Times New Roman,  Italic';font-family:'Times New Roman';font-weight:normal;font-style:italic;font-stretch:normal;font-variant:normal"
   id="tspan1156">L</tspan>
</tspan>
    </text>
    <text
       y="50.360516"
       x="113.63289"
       style="font-variant:normal;font-weight:normal;font-size:3.38666677px;font-family:'Times New Roman';-inkscape-font-specification:Times-Roman;writing-mode:lr-tb;fill:#000000;fill-opacity:1;fill-rule:nonzero;stroke:none;stroke-width:0.35277775"
       id="text694">
      <tspan
         style="stroke-width:0.35277775"
         x="113.63289"
         y="50.360516"
         id="tspan692" />
    </text>
    <text
       y="52.729698"
       x="109.40816"
       style="font-style:italic;font-variant:normal;font-size:3.80999994px;font-family:'Times New Roman';-inkscape-font-specification:Times-Italic;writing-mode:lr-tb;fill:#000000;fill-opacity:1;fill-rule:nonzero;stroke:none;stroke-width:0.35277775"
       id="text698">
      <tspan
         style="stroke-width:0.35277775"
         x="109.40816 111.31316"
         y="52.729698"
         sodipodi:role="line"
         id="tspan696">u</tspan>
    </text>
    <text
       y="52.729698"
       x="112.15983"
       style="font-variant:normal;font-weight:normal;font-size:3.80999994px;font-family:'Times New Roman';-inkscape-font-specification:Times-Roman;writing-mode:lr-tb;fill:#000000;fill-opacity:1;fill-rule:nonzero;stroke:none;stroke-width:0.35277775"
       id="text702">
      <tspan
         style="stroke-width:0.35277775"
         x="112.15983"
         y="52.729698"
         id="tspan700">(</tspan>
    </text>
    <text
       y="52.729698"
       x="113.42856"
       style="font-style:italic;font-variant:normal;font-size:3.80999994px;font-family:'Times New Roman';-inkscape-font-specification:Times-Italic;writing-mode:lr-tb;fill:#000000;fill-opacity:1;fill-rule:nonzero;stroke:none;stroke-width:0.35277775"
       id="text706">
      <tspan
         style="stroke-width:0.35277775"
         x="113.42856"
         y="52.729698"
         id="tspan704">s</tspan>
    </text>
    <text
       y="52.729698"
       x="115.1202"
       style="font-variant:normal;font-weight:normal;font-size:3.80999994px;font-family:'Times New Roman';-inkscape-font-specification:Times-Roman;writing-mode:lr-tb;fill:#000000;fill-opacity:1;fill-rule:nonzero;stroke:none;stroke-width:0.35277775"
       id="text710">
      <tspan
         style="stroke-width:0.35277775"
         x="115.1202"
         y="52.729698"
         id="tspan708">)</tspan>
    </text>
    <text
       y="94.017159"
       x="167.06978"
       style="font-style:italic;font-variant:normal;font-size:3.80999994px;font-family:'Times New Roman';-inkscape-font-specification:Times-Italic;writing-mode:lr-tb;fill:#000000;fill-opacity:1;fill-rule:nonzero;stroke:none;stroke-width:0.35277775"
       id="text698-3">
      <tspan
         style="stroke-width:0.35277775"
         x="167.06978 168.97479"
         y="94.017159"
         sodipodi:role="line"
         id="tspan696-6">u</tspan>
    </text>
    <text
       y="94.017159"
       x="169.82146"
       style="font-variant:normal;font-weight:normal;font-size:3.80999994px;font-family:'Times New Roman';-inkscape-font-specification:Times-Roman;writing-mode:lr-tb;fill:#000000;fill-opacity:1;fill-rule:nonzero;stroke:none;stroke-width:0.35277775"
       id="text702-7">
      <tspan
         style="stroke-width:0.35277775"
         x="169.82146"
         y="94.017159"
         id="tspan700-5">(</tspan>
    </text>
    <text
       y="94.017159"
       x="171.09018"
       style="font-style:italic;font-variant:normal;font-size:3.80999994px;font-family:'Times New Roman';-inkscape-font-specification:Times-Italic;writing-mode:lr-tb;fill:#000000;fill-opacity:1;fill-rule:nonzero;stroke:none;stroke-width:0.35277775"
       id="text706-3">
      <tspan
         style="stroke-width:0.35277775"
         x="171.09018"
         y="94.017159"
         id="tspan704-5">s</tspan>
    </text>
    <text
       y="94.017159"
       x="172.78183"
       style="font-variant:normal;font-weight:normal;font-size:3.80999994px;font-family:'Times New Roman';-inkscape-font-specification:Times-Roman;writing-mode:lr-tb;fill:#000000;fill-opacity:1;fill-rule:nonzero;stroke:none;stroke-width:0.35277775"
       id="text710-6">
      <tspan
         style="stroke-width:0.35277775"
         x="172.78183"
         y="94.017159"
         id="tspan708-2">)</tspan>
    </text>
  </g>
</svg>
