<?xml version="1.0" encoding="UTF-8" standalone="no"?>
<!-- Created with Inkscape (http://www.inkscape.org/) -->

<svg
   xmlns:dc="http://purl.org/dc/elements/1.1/"
   xmlns:cc="http://creativecommons.org/ns#"
   xmlns:rdf="http://www.w3.org/1999/02/22-rdf-syntax-ns#"
   xmlns:svg="http://www.w3.org/2000/svg"
   xmlns="http://www.w3.org/2000/svg"
   xmlns:sodipodi="http://sodipodi.sourceforge.net/DTD/sodipodi-0.dtd"
   xmlns:inkscape="http://www.inkscape.org/namespaces/inkscape"
   version="1.1"
   id="svg2"
   xml:space="preserve"
   width="518.28955"
   height="389.51523"
   viewBox="0 0 518.28954 389.51523"
   sodipodi:docname="nl_coque3d.svg"
   inkscape:version="0.92.3 (2405546, 2018-03-11)"><metadata
     id="metadata8"><rdf:RDF><cc:Work
         rdf:about=""><dc:format>image/svg+xml</dc:format><dc:type
           rdf:resource="http://purl.org/dc/dcmitype/StillImage" /><dc:title></dc:title></cc:Work></rdf:RDF></metadata><defs
     id="defs6"><clipPath
       clipPathUnits="userSpaceOnUse"
       id="clipPath78"><path
         d="M 0,0 H 441 V 294 H 0 Z"
         id="path76"
         inkscape:connector-curvature="0" /></clipPath><clipPath
       clipPathUnits="userSpaceOnUse"
       id="clipPath106"><path
         d="M 0,0 V 2940 H 4410 V 0 Z m 692.795,2384.08 v 23.3 h -67.399 l 47.242,-11.97 -47.242,-11.33 z"
         id="path104"
         inkscape:connector-curvature="0" /></clipPath><clipPath
       clipPathUnits="userSpaceOnUse"
       id="clipPath120"><path
         d="M 0,0 V 2940 H 4410 V 0 Z m 137.854,2275.73 13.857,-18.89 54.801,38.42 -44.722,-17.64 31.495,37.17 z"
         id="path118"
         inkscape:connector-curvature="0" /></clipPath><clipPath
       clipPathUnits="userSpaceOnUse"
       id="clipPath134"><path
         d="M 0,0 V 2940 H 4410 V 0 Z m 341.311,2758.24 h -23.306 v -66.77 l 11.968,46.61 11.338,-46.61 z"
         id="path132"
         inkscape:connector-curvature="0" /></clipPath><clipPath
       clipPathUnits="userSpaceOnUse"
       id="clipPath148"><path
         d="m 0,0 v 1494 h 1 v -1 h 1 v -1 h 1 v -2 h 1 v -1 h 1 v -1 h 1 v -2 h 1 v -1 h 1 v -2 h 1 v -1 h 1 v -1 h 1 v -2 h 2 v 1 h 2 v 1 h 1 v 1 h 2 v 1 h 1 v 1 h 2 v 1 h 1 v 1 h 1 v 1 h 2 v 1 h 1 v 1 h 2 v 1 h 1 v 1 h 2 v 1 h 1 v 1 h 2 v 1 h 1 v 1 h 2 v 1 h 1 v 1 h 1 v 1 h 2 v 1 h 1 v 1 h 2 v 1 h 1 v 1 h 2 v 1 h 1 v 1 h 2 v 1 h 1 v 1 h 1 v 1 h 2 v 1 h 1 v 1 h 2 v 1 h 1 v 1 h 2 v 1 h -2 v -1 h -2 v -1 h -3 v -1 h -2 v -1 h -3 v -1 h -2 v -1 h -3 v -1 h -2 v -1 h -3 v -1 h -2 v -1 h -3 v -1 h -2 v -1 h -3 v -1 h -3 v -1 h -2 v -1 h -2 v 1 h 1 v 2 h 1 v 1 h 1 v 1 h 1 v 1 h 1 v 1 h 1 v 1 h 1 v 2 h 1 v 1 h 1 v 1 h 1 v 1 h 1 v 1 h 1 v 2 h 1 v 1 h 1 v 1 h 1 v 1 h 1 v 1 h 1 v 1 h 1 v 2 h 1 v 1 h 1 v 1 h 1 v 1 h 1 v 1 h 1 v 2 h 1 v 1 h 1 v 1 h 1 v 1 h 1 v 1 h 1 v 1 h -1 v -1 h -1 v -1 h -2 v -1 h -1 v -1 h -2 v -1 h -1 v -1 h -1 v -1 h -2 v -1 h -1 v -1 h -2 v -1 h -1 v -1 h -2 v -1 h -1 v -1 h -2 v -1 h -1 v -1 h -1 v -1 h -2 v -1 h -1 v -1 h -2 v -1 h -1 v -1 h -2 v -1 h -1 v -1 h -2 v -1 h -1 v -1 h -1 v -1 h -2 v -1 h -1 v -1 H 9 v -1 H 8 v -1 H 6 v -1 H 5 v -1 H 3 v -1 H 2 v -1 H 1 v -1 H 0 V 2940 H 4410 V 0 Z m 1744,2692 v -1 h 1 v 1 h 2 v 1 h 1 v 1 h 1 v 1 h 2 v 1 h 1 v 1 h 2 v 1 h 1 v 1 h 2 v 1 h 1 v 1 h 2 v 1 h 1 v 1 h 1 v 1 h 2 v 1 h 1 v 1 h 2 v 1 h 1 v 1 h 2 v 1 h 1 v 1 h 2 v 1 h 1 v 1 h 1 v 1 h 2 v 1 h 1 v 1 h 2 v 1 h 1 v 1 h 2 v 1 h 1 v 1 h 2 v 1 h 1 v 1 h 1 v 1 h 2 v 1 h 1 v 1 h 2 v 2 h -1 v 2 h -1 v 1 h -1 v 1 h -1 v 2 h -1 v 1 h -1 v 2 h -1 v 1 h -1 v 1 h -1 v 2 h -1 v 1 h -1 v 1 h -1 v 2 h -1 v -1 h -1 v -1 h -2 v -1 h -1 v -1 h -2 v -1 h -1 v -1 h -2 v -1 h -1 v -1 h -2 v -1 h -1 v -1 h -1 v -1 h -2 v -1 h -1 v -1 h -2 v -1 h -1 v -1 h -2 v -1 h -1 v -1 h -2 v -1 h -1 v -1 h -2 v -1 h -1 v -1 h -1 v -1 h -2 v -1 h -1 v -1 h -2 v -1 h -1 v -1 h -2 v -1 h -1 v -1 h -2 v -1 h -1 v -1 h -1 v -1 h -2 v -1 h -1 v -1 h 2 v 1 h 3 v 1 h 2 v 1 h 3 v 1 h 3 v 1 h 2 v 1 h 3 v 1 h 3 v 1 h 2 v 1 h 3 v 1 h 3 v 1 h 2 v 1 h 3 v 1 h 4 v -1 h -1 v -1 h -1 v -1 h -1 v -1 h -1 v -1 h -1 v -1 h -1 v -2 h -1 v -1 h -1 v -1 h -1 v -1 h -1 v -1 h -1 v -1 h -1 v -1 h -1 v -2 h -1 v -1 h -1 v -1 h -1 v -1 h -1 v -1 h -1 v -1 h -1 v -1 h -1 v -1 h -1 v -2 h -1 v -1 h -1 v -1 h -1 v -1 h -1 v -1 h -1 v -1 h -1 v -1 z m -12,18 v -1 h 1 v 1 z"
         id="path146"
         inkscape:connector-curvature="0" /></clipPath><clipPath
       clipPathUnits="userSpaceOnUse"
       id="clipPath164"><path
         d="M 0,0 V 2940 H 4410 V 0 Z m 147.932,1461.27 -8.189,-36.53 93.225,-21.42 -69.289,34.65 77.478,2.52 z"
         id="path162"
         inkscape:connector-curvature="0" /></clipPath><clipPath
       clipPathUnits="userSpaceOnUse"
       id="clipPath178"><path
         d="M 0,0 V 2940 H 4410 V 0 Z m 1978.42,1487.1 -32.12,-20.16 51.65,-80.63 -24.57,73.7 56.69,-52.91 z"
         id="path176"
         inkscape:connector-curvature="0" /></clipPath><clipPath
       clipPathUnits="userSpaceOnUse"
       id="clipPath192"><path
         d="M 0,0 V 2940 H 4410 V 0 Z m 1797.64,2309.75 h 56.69 v 112.75 l -28.34,-94.48 -28.35,94.48 z"
         id="path190"
         inkscape:connector-curvature="0" /></clipPath><clipPath
       clipPathUnits="userSpaceOnUse"
       id="clipPath226"><path
         d="M 0,0 V 2940 H 4410 V 0 Z m 1158.92,343.831 15.12,18.267 -52.28,41.573 29.6,-39.054 -44.09,20.787 z m -216.054,115.901 -2.52,-23.306 66.144,-7.559 -45.357,16.377 47.877,6.929 z"
         id="path224"
         inkscape:connector-curvature="0" /></clipPath><clipPath
       clipPathUnits="userSpaceOnUse"
       id="clipPath580"><path
         d="M 0,0 H 475 V 122 H 0 Z"
         id="path578"
         inkscape:connector-curvature="0" /></clipPath></defs><sodipodi:namedview
     pagecolor="#ffffff"
     bordercolor="#666666"
     borderopacity="1"
     objecttolerance="10"
     gridtolerance="10"
     guidetolerance="10"
     inkscape:pageopacity="0"
     inkscape:pageshadow="2"
     inkscape:window-width="2560"
     inkscape:window-height="1380"
     id="namedview4"
     showgrid="false"
     fit-margin-top="0"
     fit-margin-left="0"
     fit-margin-right="0"
     fit-margin-bottom="0"
     inkscape:zoom="0.42050376"
     inkscape:cx="425.40959"
     inkscape:cy="708.36934"
     inkscape:window-x="1920"
     inkscape:window-y="0"
     inkscape:window-maximized="1"
     inkscape:current-layer="g10" /><g
     id="g10"
     inkscape:groupmode="layer"
     inkscape:label="coque3d"
     transform="matrix(1.3333333,0,0,-1.3333333,-265.34119,-122.77705)"><g
       id="g20"
       transform="translate(144.96,-28.546)" /><g
       id="g44"
       transform="translate(144.96,-72.767)" /><g
       id="g50"
       transform="translate(608.253,-76.752)" /><g
       transform="translate(148.945,-76.752)"
       id="g54"><g
         id="g56" /><g
         transform="translate(463.791)"
         id="g60"><g
           transform="translate(-612.736,-31.881)"
           id="g62"><g
             transform="translate(187.866,-276.202)"
             id="g64"><g
               transform="translate(9.962)"
               id="g66"><g
                 id="g68"><g
                   id="g70"><g
                     id="g72"><g
                       clip-path="url(#clipPath78)"
                       id="g74"><g
                         transform="scale(0.1)"
                         id="g80"><g
                           id="g82"><path
                             inkscape:connector-curvature="0"
                             id="path84"
                             style="fill:none;stroke:#000000;stroke-width:4.72424984;stroke-linecap:butt;stroke-linejoin:miter;stroke-miterlimit:10;stroke-dasharray:none;stroke-opacity:1"
                             d="m 65.1941,1423.75 c 262.0779,172.81 569.1029,264.92 883.0259,264.92 313.93,0 620.95,-92.12 883.03,-264.93" /><path
                             inkscape:connector-curvature="0"
                             id="path86"
                             style="fill:none;stroke:#000000;stroke-width:4.72424984;stroke-linecap:butt;stroke-linejoin:miter;stroke-miterlimit:10;stroke-dasharray:none;stroke-opacity:1"
                             d="m 1832.34,2660.42 c 261.9,172.69 568.72,264.74 882.43,264.74 313.72,0 620.54,-92.05 882.45,-264.75" /><path
                             inkscape:connector-curvature="0"
                             id="path88"
                             style="fill:none;stroke:#000000;stroke-width:4.72424984;stroke-linecap:butt;stroke-linejoin:miter;stroke-miterlimit:10;stroke-dasharray:none;stroke-opacity:1"
                             d="m 948.891,2042.69 c 262.109,172.17 568.849,263.91 882.449,263.91 313.6,0 620.35,-91.74 882.45,-263.91" /><path
                             inkscape:connector-curvature="0"
                             id="path90"
                             style="fill:none;stroke:#000000;stroke-width:4.72424984;stroke-linecap:butt;stroke-linejoin:miter;stroke-miterlimit:10;stroke-dasharray:9.4485, 28.3455;stroke-dashoffset:28.34550095;stroke-opacity:1"
                             d="M 947.905,1688.67 V 10.6133" /><path
                             inkscape:connector-curvature="0"
                             id="path92"
                             style="fill:none;stroke:#000000;stroke-width:28.34550095;stroke-linecap:butt;stroke-linejoin:miter;stroke-miterlimit:10;stroke-dasharray:none;stroke-opacity:1"
                             d="M 64.7849,1423.48 1831.65,2659.97" /><path
                             inkscape:connector-curvature="0"
                             id="path94"
                             style="fill:none;stroke:#000000;stroke-width:4.72424984;stroke-linecap:butt;stroke-linejoin:miter;stroke-miterlimit:10;stroke-dasharray:none;stroke-opacity:1"
                             d="M 947.905,1688.67 2714.77,2925.16" /><path
                             inkscape:connector-curvature="0"
                             id="path96"
                             style="fill:none;stroke:#000000;stroke-width:28.34550095;stroke-linecap:butt;stroke-linejoin:miter;stroke-miterlimit:10;stroke-dasharray:none;stroke-opacity:1"
                             d="M 1831.65,1423.48 3597.89,2659.97" /><path
                             inkscape:connector-curvature="0"
                             id="path98"
                             style="fill:none;stroke:#000000;stroke-width:4.72424984;stroke-linecap:butt;stroke-linejoin:miter;stroke-miterlimit:10;stroke-dasharray:9.4485, 28.3455;stroke-dashoffset:28.34550095;stroke-opacity:1"
                             d="M 64.7849,1423.48 947.905,10.6133 1831.65,1423.48" /></g><g
                           id="g100"><g
                             clip-path="url(#clipPath106)"
                             id="g102"><path
                               inkscape:connector-curvature="0"
                               id="path108"
                               style="fill:none;stroke:#000000;stroke-width:4.72424984;stroke-linecap:butt;stroke-linejoin:miter;stroke-miterlimit:10;stroke-dasharray:none;stroke-opacity:1"
                               d="M 329.973,2395.41 H 683.347" /></g></g><g
                           id="g110"><path
                             inkscape:connector-curvature="0"
                             id="path112"
                             style="fill:none;stroke:#000000;stroke-width:4.72424984;stroke-linecap:butt;stroke-linejoin:miter;stroke-miterlimit:10;stroke-dasharray:none;stroke-opacity:1"
                             d="m 625.396,2384.08 47.242,11.33 -47.242,11.97" /></g><g
                           id="g114"><g
                             clip-path="url(#clipPath120)"
                             id="g116"><path
                               inkscape:connector-curvature="0"
                               id="path122"
                               style="fill:none;stroke:#000000;stroke-width:4.72424984;stroke-linecap:butt;stroke-linejoin:miter;stroke-miterlimit:10;stroke-dasharray:none;stroke-opacity:1"
                               d="M 329.973,2395.41 152.971,2271.32" /></g></g><g
                           id="g124"><path
                             inkscape:connector-curvature="0"
                             id="path126"
                             style="fill:none;stroke:#000000;stroke-width:4.72424984;stroke-linecap:butt;stroke-linejoin:miter;stroke-miterlimit:10;stroke-dasharray:none;stroke-opacity:1"
                             d="m 193.285,2314.79 -31.495,-37.17 44.722,17.64" /></g><g
                           id="g128"><g
                             clip-path="url(#clipPath134)"
                             id="g130"><path
                               inkscape:connector-curvature="0"
                               id="path136"
                               style="fill:none;stroke:#000000;stroke-width:4.72424984;stroke-linecap:butt;stroke-linejoin:miter;stroke-miterlimit:10;stroke-dasharray:none;stroke-opacity:1"
                               d="m 329.973,2395.41 v 353.38" /></g></g><g
                           id="g138"><path
                             inkscape:connector-curvature="0"
                             id="path140"
                             style="fill:none;stroke:#000000;stroke-width:4.72424984;stroke-linecap:butt;stroke-linejoin:miter;stroke-miterlimit:10;stroke-dasharray:none;stroke-opacity:1"
                             d="m 341.311,2691.47 -11.338,46.61 -11.968,-46.61" /></g><g
                           id="g142"><g
                             clip-path="url(#clipPath148)"
                             id="g144"><path
                               inkscape:connector-curvature="0"
                               id="path150"
                               style="fill:none;stroke:#000000;stroke-width:4.72424984;stroke-linecap:butt;stroke-linejoin:miter;stroke-miterlimit:10;stroke-dasharray:none;stroke-opacity:1"
                               d="M 13.1333,1492.14 1780,2728.63" /></g></g><g
                           id="g152"><path
                             inkscape:connector-curvature="0"
                             id="path154"
                             style="fill:none;stroke:#000000;stroke-width:4.72424984;stroke-linecap:butt;stroke-linejoin:miter;stroke-miterlimit:10;stroke-dasharray:none;stroke-opacity:1"
                             d="m 53.4468,1534.97 -31.4949,-37.16 44.7229,17.63" /><path
                             inkscape:connector-curvature="0"
                             id="path156"
                             style="fill:none;stroke:#000000;stroke-width:4.72424984;stroke-linecap:butt;stroke-linejoin:miter;stroke-miterlimit:10;stroke-dasharray:none;stroke-opacity:1"
                             d="m 1739.06,2686.43 32.12,36.53 -45.35,-17" /></g><g
                           id="g158"><g
                             clip-path="url(#clipPath164)"
                             id="g160"><path
                               inkscape:connector-curvature="0"
                               id="path166"
                               style="fill:none;stroke:#000000;stroke-width:4.72424984;stroke-linecap:butt;stroke-linejoin:miter;stroke-miterlimit:10;stroke-dasharray:none;stroke-opacity:1"
                               d="m 153.601,1440.49 1644.039,-368.5 h 425.18" /></g></g><g
                           id="g168"><path
                             inkscape:connector-curvature="0"
                             id="path170"
                             style="fill:none;stroke:#000000;stroke-width:4.72424984;stroke-linecap:butt;stroke-linejoin:miter;stroke-miterlimit:10;stroke-dasharray:none;stroke-opacity:1"
                             d="m 241.157,1440.49 -77.478,-2.52 69.289,-34.65" /></g><g
                           id="g172"><g
                             clip-path="url(#clipPath178)"
                             id="g174"><path
                               inkscape:connector-curvature="0"
                               id="path180"
                               style="fill:none;stroke:#000000;stroke-width:4.72424984;stroke-linecap:butt;stroke-linejoin:miter;stroke-miterlimit:10;stroke-dasharray:none;stroke-opacity:1"
                               d="m 1967.71,1468.83 255.11,-396.84" /></g></g><g
                           id="g182"><path
                             inkscape:connector-curvature="0"
                             id="path184"
                             style="fill:none;stroke:#000000;stroke-width:4.72424984;stroke-linecap:butt;stroke-linejoin:miter;stroke-miterlimit:10;stroke-dasharray:none;stroke-opacity:1"
                             d="m 2030.07,1407.1 -56.69,52.91 24.57,-73.7" /></g><g
                           id="g186"><g
                             clip-path="url(#clipPath192)"
                             id="g188"><path
                               inkscape:connector-curvature="0"
                               id="path194"
                               style="fill:none;stroke:#000000;stroke-width:9.44849968;stroke-linecap:butt;stroke-linejoin:miter;stroke-miterlimit:10;stroke-dasharray:none;stroke-opacity:1"
                               d="m 1825.99,2319.2 v 425.18" /></g></g><g
                           id="g196"><path
                             inkscape:connector-curvature="0"
                             id="path198"
                             style="fill:#000000;fill-opacity:1;fill-rule:evenodd;stroke:none"
                             d="m 1797.64,2422.5 28.35,-94.48 28.34,94.48 h -56.69" /><path
                             inkscape:connector-curvature="0"
                             id="path200"
                             style="fill:none;stroke:#000000;stroke-width:4.72424984;stroke-linecap:butt;stroke-linejoin:miter;stroke-miterlimit:10;stroke-dasharray:none;stroke-opacity:1"
                             d="m 1797.64,2422.5 28.35,-94.48 28.34,94.48 z" /><path
                             inkscape:connector-curvature="0"
                             id="path202"
                             style="fill:none;stroke:#000000;stroke-width:4.72424984;stroke-linecap:butt;stroke-linejoin:miter;stroke-miterlimit:10;stroke-dasharray:none;stroke-opacity:1"
                             d="m 1162.07,1833.54 v -0.63 l 1.26,-1.89 3.15,-5.03 5.04,-7.56 5.67,-10.08 5.67,-9.45 5.67,-10.08 5.04,-8.19 4.41,-8.19 3.14,-6.3 3.15,-6.92 2.52,-6.3 3.15,-6.93 3.15,-8.19 2.52,-8.82 2.52,-10.08 3.15,-11.34 3.15,-12.59 2.52,-11.34 1.89,-7.56 1.26,-3.78 v -0.63" /><path
                             inkscape:connector-curvature="0"
                             id="path204"
                             style="fill:none;stroke:#000000;stroke-width:4.72424984;stroke-linecap:butt;stroke-linejoin:miter;stroke-miterlimit:10;stroke-dasharray:none;stroke-opacity:1"
                             d="m 1285.53,1921.73 v -0.63 l 1.26,-1.89 3.15,-5.67 5.04,-8.82 6.3,-11.97 6.93,-13.22 6.93,-13.86 6.93,-13.86 6.29,-12.6 5.67,-11.33 4.41,-10.71 4.41,-9.45 3.15,-10.08 3.78,-9.45 2.52,-8.19 3.15,-8.82 2.52,-9.44 2.52,-10.08 2.52,-11.34 3.15,-12.6 2.52,-13.86 3.15,-14.48 3.15,-15.12 3.15,-15.12 2.52,-14.49 1.89,-11.34 1.89,-8.18 0.63,-5.04 0.63,-1.89 v -0.63" /><path
                             inkscape:connector-curvature="0"
                             id="path206"
                             style="fill:none;stroke:#000000;stroke-width:4.72424984;stroke-linecap:butt;stroke-linejoin:miter;stroke-miterlimit:10;stroke-dasharray:none;stroke-opacity:1"
                             d="m 1406.47,2006.77 0.63,-1.89 2.52,-4.41 3.15,-7.56 5.04,-10.71 5.67,-13.23 6.93,-15.74 6.93,-16.38 7.56,-16.38 6.92,-16.38 6.3,-15.11 5.67,-14.49 5.67,-13.23 4.41,-11.97 4.41,-11.97 3.78,-10.7 3.78,-11.34 3.78,-10.71 3.15,-10.71 3.15,-11.34 3.15,-11.34 3.15,-12.59 3.15,-13.23 3.15,-14.49 3.78,-15.75 3.14,-17.63 3.78,-17.64 3.78,-18.9 3.78,-18.9 3.78,-17.63 2.52,-15.75 2.52,-12.6 1.89,-8.19 0.63,-5.04 0.63,-2.52" /><path
                             inkscape:connector-curvature="0"
                             id="path208"
                             style="fill:none;stroke:#000000;stroke-width:4.72424984;stroke-linecap:butt;stroke-linejoin:miter;stroke-miterlimit:10;stroke-dasharray:none;stroke-opacity:1"
                             d="m 1533.08,2095.58 0.63,-1.89 1.89,-4.41 3.15,-7.56 4.41,-10.7 5.67,-14.49 6.93,-17.01 7.56,-18.27 8.19,-19.52 7.55,-20.16 7.56,-18.9 6.93,-18.26 6.3,-17.64 6.3,-15.75 5.67,-15.75 4.41,-14.48 5.04,-13.86 4.41,-13.23 3.78,-13.23 3.78,-13.22 3.15,-12.6 3.78,-12.6 3.14,-12.6 3.15,-13.86 3.15,-14.48 3.78,-15.12 3.15,-16.38 3.78,-17.64 3.78,-18.89 3.78,-20.79 4.41,-20.79 3.78,-22.04 4.41,-22.05 3.78,-21.42 3.78,-20.15 3.15,-17.64 2.52,-14.49 1.89,-10.71 1.26,-7.56 0.63,-3.77 0.63,-1.89" /><path
                             inkscape:connector-curvature="0"
                             id="path210"
                             style="fill:none;stroke:#000000;stroke-width:4.72424984;stroke-linecap:butt;stroke-linejoin:miter;stroke-miterlimit:10;stroke-dasharray:none;stroke-opacity:1"
                             d="m 1654.02,2177.47 0.63,-1.89 1.89,-3.78 3.15,-6.93 5.04,-10.08 6.3,-13.85 8.19,-17.01 8.82,-18.9 9.45,-20.79 9.44,-21.41 9.45,-21.42 8.82,-20.79 8.82,-20.15 8.19,-19.53 7.56,-18.27 6.3,-17 6.3,-16.38 5.66,-15.75 5.04,-15.75 5.04,-15.11 4.41,-15.12 3.78,-15.12 3.78,-14.49 3.15,-14.48 3.78,-15.12 3.15,-15.12 3.15,-17.01 3.15,-17.63 3.15,-18.9 3.15,-20.16 3.15,-21.41 3.78,-22.68 3.15,-24.57 3.15,-25.82 3.77,-26.46 3.15,-26.45 3.15,-25.83 3.15,-24.57 2.52,-22.67 2.52,-18.9 1.26,-15.75 1.89,-11.34 0.63,-7.55 0.63,-4.41 v -1.89" /><path
                             inkscape:connector-curvature="0"
                             id="path212"
                             style="fill:none;stroke:#000000;stroke-width:4.72424984;stroke-linecap:butt;stroke-linejoin:miter;stroke-miterlimit:10;stroke-dasharray:none;stroke-opacity:1"
                             d="m 1963.3,2301.56 0.63,-1.89 1.89,-4.41 3.15,-7.56 4.41,-11.34 6.3,-14.48 6.93,-18.27 8.19,-20.79 9.45,-22.04 8.82,-23.31 8.81,-22.68 8.82,-22.04 8.19,-21.42 7.56,-19.53 6.93,-18.89 6.3,-17.64 5.67,-16.38 5.67,-15.12 4.41,-14.48 4.41,-14.49 4.4,-13.86 3.78,-13.23 3.78,-13.86 3.78,-13.22 3.78,-13.86 3.15,-14.49 3.15,-15.12 3.15,-15.11 3.78,-17.01 3.15,-17.64 3.78,-18.9 3.15,-20.15 3.78,-20.79 3.78,-21.42 3.15,-21.41 3.78,-20.79 3.15,-18.9 2.52,-17 1.88,-13.86 1.89,-10.71 1.26,-6.93 0.63,-3.78 v -1.89" /><path
                             inkscape:connector-curvature="0"
                             id="path214"
                             style="fill:none;stroke:#000000;stroke-width:4.72424984;stroke-linecap:butt;stroke-linejoin:miter;stroke-miterlimit:10;stroke-dasharray:none;stroke-opacity:1"
                             d="m 2160.46,2271.95 0.63,-1.89 1.89,-4.4 2.52,-8.19 3.78,-11.97 5.04,-14.49 6.3,-18.27 6.93,-19.52 6.3,-20.16 6.93,-20.79 6.92,-20.15 5.67,-18.27 5.67,-17.64 5.67,-16.38 4.41,-15.11 4.41,-14.49 3.78,-13.23 3.78,-12.6 3.15,-11.96 3.15,-11.97 2.52,-11.97 3.15,-12.6 2.52,-11.97 3.15,-12.59 2.52,-13.23 2.52,-14.49 3.15,-15.12 2.52,-16.38 3.14,-17 3.15,-18.27 3.15,-18.9 2.52,-18.89 3.15,-17.64 2.52,-16.38 1.89,-13.23 1.89,-10.7 1.26,-7.56 0.63,-3.78 v -1.89" /><path
                             inkscape:connector-curvature="0"
                             id="path216"
                             style="fill:none;stroke:#000000;stroke-width:4.72424984;stroke-linecap:butt;stroke-linejoin:miter;stroke-miterlimit:10;stroke-dasharray:none;stroke-opacity:1"
                             d="m 2363.29,2213.37 v -0.63 l 0.63,-1.89 1.89,-5.66 3.15,-8.82 3.78,-13.23 5.04,-15.12 5.04,-17.01 5.04,-17 5.04,-16.38 4.4,-15.12 4.41,-13.86 3.15,-12.59 3.78,-11.97 2.52,-10.71 2.52,-10.71 2.52,-10.08 1.89,-10.08 2.52,-10.07 1.89,-10.71 1.89,-11.34 1.89,-11.97 2.52,-13.86 1.89,-14.48 2.52,-15.12 1.89,-16.38 2.52,-15.75 1.89,-14.48 1.89,-11.97 0.63,-8.82 0.63,-5.04 0.63,-1.89 V 1860" /><path
                             inkscape:connector-curvature="0"
                             id="path218"
                             style="fill:none;stroke:#000000;stroke-width:4.72424984;stroke-linecap:butt;stroke-linejoin:miter;stroke-miterlimit:10;stroke-dasharray:none;stroke-opacity:1"
                             d="m 2540.29,2142.2 v -0.63 l 0.63,-2.52 1.89,-6.3 2.52,-10.08 3.15,-11.97 3.15,-12.6 3.15,-11.97 2.52,-10.7 1.89,-9.45 1.89,-8.82 1.89,-7.56 1.89,-7.56 1.89,-8.19 1.89,-8.82 1.89,-10.07 1.89,-10.71 1.89,-12.6 2.52,-13.23 1.89,-11.34 1.89,-8.82 0.63,-3.78 v -0.63" /></g><g
                           id="g220"><g
                             clip-path="url(#clipPath226)"
                             id="g222"><path
                               inkscape:connector-curvature="0"
                               id="path228"
                               style="fill:none;stroke:#000000;stroke-width:4.72424984;stroke-linecap:butt;stroke-linejoin:miter;stroke-miterlimit:10;stroke-dasharray:none;stroke-opacity:1"
                               d="m 951.054,446.504 22.677,-2.519 13.858,-1.89 15.121,-2.52 13.85,-1.889 12.6,-2.52 10.71,-2.52 9.45,-2.519 8.82,-2.52 8.19,-3.149 7.55,-3.78 8.19,-4.409 8.19,-5.039 8.82,-5.669 10.08,-7.559 11.34,-8.189 11.34,-8.818 10.7,-8.819 17.01,-13.858" /></g></g><g
                           id="g230"><path
                             inkscape:connector-curvature="0"
                             id="path232"
                             style="fill:none;stroke:#000000;stroke-width:4.72424984;stroke-linecap:butt;stroke-linejoin:miter;stroke-miterlimit:10;stroke-dasharray:none;stroke-opacity:1"
                             d="m 1009.01,452.173 -47.877,-6.929 45.357,-16.377" /><path
                             inkscape:connector-curvature="0"
                             id="path234"
                             style="fill:none;stroke:#000000;stroke-width:4.72424984;stroke-linecap:butt;stroke-linejoin:miter;stroke-miterlimit:10;stroke-dasharray:none;stroke-opacity:1"
                             d="m 1107.27,385.404 44.09,-20.787 -29.6,39.054" /><path
                             inkscape:connector-curvature="0"
                             id="path236"
                             style="fill:none;stroke:#000000;stroke-width:4.72424984;stroke-linecap:butt;stroke-linejoin:miter;stroke-miterlimit:10;stroke-dasharray:none;stroke-opacity:1"
                             d="m 1803.94,2283.92 0.63,-1.89 1.26,-3.15 2.52,-6.93 3.78,-9.44 5.04,-13.23 6.3,-16.38 6.92,-19.53 7.56,-20.78 8.19,-22.68 8.82,-22.68 8.19,-22.67 8.19,-22.68 7.56,-21.42 6.93,-20.15 6.92,-18.9 6.3,-18.27 5.04,-17 5.67,-16.38 4.41,-15.12 5.04,-15.12 3.78,-14.48 3.78,-13.86 4.41,-14.49 3.15,-14.49 3.78,-13.85 3.15,-14.49 3.78,-15.12 3.15,-15.75 3.15,-16.37 3.77,-17.64 3.15,-18.27 3.78,-19.53 3.15,-20.78 3.78,-22.05 3.78,-22.68 3.78,-23.3 3.78,-23.31 3.78,-23.3 3.78,-21.42 2.52,-19.53 2.52,-17.01 2.52,-13.85 1.26,-10.08 1.26,-6.3 0.63,-3.78 v -1.89" /></g></g></g></g></g></g><g
                 transform="translate(104.889,46.68)"
                 id="g238"><text
                   id="text244"
                   style="font-variant:normal;font-weight:normal;font-size:12.05500031px;font-family:CMMI7;-inkscape-font-specification:CMMI7;writing-mode:lr-tb;fill:#000000;fill-opacity:1;fill-rule:nonzero;stroke:none"
                   transform="scale(1,-1)"><tspan
                     id="tspan240"
                     y="0"
                     x="0">φ</tspan><tspan
                     id="tspan242"
                     y="-197.871"
                     x="-45.924">y</tspan></text>
<text
                   id="text250"
                   style="font-variant:normal;font-weight:normal;font-size:11.95499992px;font-family:Helvetica;-inkscape-font-specification:Helvetica;writing-mode:lr-tb;fill:#000000;fill-opacity:1;fill-rule:nonzero;stroke:none"
                   transform="matrix(1,0,0,-1,53.311,148.419)"><tspan
                     id="tspan246"
                     sodipodi:role="line"
                     y="0"
                     x="0 8.6315098 15.27849 25.237005 31.883986 38.530964 41.854454 48.501434 51.824924 54.478935 61.125916 67.772896 74.419876">Computational</tspan><tspan
                     id="tspan248"
                     sodipodi:role="line"
                     y="12.41"
                     x="18.937 25.583981 32.230961 42.189476 48.836456 51.490463">domain</tspan></text>
<text
                   id="text256"
                   style="font-variant:normal;font-weight:normal;font-size:12.05500031px;font-family:CMMI7;-inkscape-font-specification:CMMI7;writing-mode:lr-tb;fill:#000000;fill-opacity:1;fill-rule:nonzero;stroke:none"
                   transform="matrix(1,0,0,-1,-35.341,160.766)"><tspan
                     id="tspan252"
                     y="0"
                     x="0">L</tspan><tspan
                     id="tspan254"
                     y="162.53"
                     x="113.078">L</tspan></text>
<text
                   id="text260"
                   style="font-variant:normal;font-weight:normal;font-size:12.05500031px;font-family:CMR7;-inkscape-font-specification:CMR7;writing-mode:lr-tb;fill:#000000;fill-opacity:1;fill-rule:nonzero;stroke:none"
                   transform="matrix(1,0,0,-1,91.105,-1.764)"><tspan
                     id="tspan258"
                     y="0"
                     x="0">=</tspan></text>
<text
                   id="text264"
                   style="font-variant:normal;font-weight:normal;font-size:11.95499992px;font-family:Helvetica;-inkscape-font-specification:Helvetica;writing-mode:lr-tb;fill:#000000;fill-opacity:1;fill-rule:nonzero;stroke:none"
                   transform="matrix(1,0,0,-1,105,-1.764)"><tspan
                     id="tspan262"
                     sodipodi:role="line"
                     y="0"
                     x="0 6.6469798 13.29396 19.940941 29.899454">508mm</tspan></text>
<text
                   id="text268"
                   style="font-variant:normal;font-weight:normal;font-size:12.05500031px;font-family:CMMI7;-inkscape-font-specification:CMMI7;writing-mode:lr-tb;fill:#000000;fill-opacity:1;fill-rule:nonzero;stroke:none"
                   transform="matrix(1,0,0,-1,77.737,-19.403)"><tspan
                     id="tspan266"
                     y="0"
                     x="0">t</tspan></text>
<text
                   id="text272"
                   style="font-variant:normal;font-weight:normal;font-size:12.05500031px;font-family:CMR7;-inkscape-font-specification:CMR7;writing-mode:lr-tb;fill:#000000;fill-opacity:1;fill-rule:nonzero;stroke:none"
                   transform="matrix(1,0,0,-1,86.859,-19.403)"><tspan
                     id="tspan270"
                     y="0"
                     x="0">=</tspan></text>
<text
                   id="text276"
                   style="font-variant:normal;font-weight:normal;font-size:11.95499992px;font-family:Helvetica;-inkscape-font-specification:Helvetica;writing-mode:lr-tb;fill:#000000;fill-opacity:1;fill-rule:nonzero;stroke:none"
                   transform="matrix(1,0,0,-1,100.755,-19.403)"><tspan
                     id="tspan274"
                     sodipodi:role="line"
                     y="0"
                     x="0 6.6469798 13.29396 16.617451 23.264429 33.222946">12.7mm</tspan></text>
<text
                   id="text280"
                   style="font-variant:normal;font-weight:normal;font-size:12.05500031px;font-family:CMMI7;-inkscape-font-specification:CMMI7;writing-mode:lr-tb;fill:#000000;fill-opacity:1;fill-rule:nonzero;stroke:none"
                   transform="matrix(1,0,0,-1,77.737,-37.105)"><tspan
                     id="tspan278"
                     y="0"
                     x="0">φ</tspan></text>
<text
                   id="text284"
                   style="font-variant:normal;font-weight:normal;font-size:12.05500031px;font-family:CMR7;-inkscape-font-specification:CMR7;writing-mode:lr-tb;fill:#000000;fill-opacity:1;fill-rule:nonzero;stroke:none"
                   transform="matrix(1,0,0,-1,89.938,-37.105)"><tspan
                     id="tspan282"
                     y="0"
                     x="0">=</tspan></text>
<text
                   id="text288"
                   style="font-variant:normal;font-weight:normal;font-size:11.95499992px;font-family:Helvetica;-inkscape-font-specification:Helvetica;writing-mode:lr-tb;fill:#000000;fill-opacity:1;fill-rule:nonzero;stroke:none"
                   transform="matrix(1,0,0,-1,103.833,-37.105)"><tspan
                     id="tspan286"
                     sodipodi:role="line"
                     y="0"
                     x="0 6.6469798 9.9704704 16.617451 20.478914 27.125895">0.1rad</tspan></text>
<text
                   id="text292"
                   style="font-variant:normal;font-weight:normal;font-size:12.05500031px;font-family:CMMI7;-inkscape-font-specification:CMMI7;writing-mode:lr-tb;fill:#000000;fill-opacity:1;fill-rule:nonzero;stroke:none"
                   transform="matrix(1,0,0,-1,174.877,15.875)"><tspan
                     id="tspan290"
                     y="0"
                     x="0">E</tspan></text>
<text
                   id="text296"
                   style="font-variant:normal;font-weight:normal;font-size:12.05500031px;font-family:CMR7;-inkscape-font-specification:CMR7;writing-mode:lr-tb;fill:#000000;fill-opacity:1;fill-rule:nonzero;stroke:none"
                   transform="matrix(1,0,0,-1,189.57,15.875)"><tspan
                     id="tspan294"
                     y="0"
                     x="0">=</tspan></text>
<text
                   id="text300"
                   style="font-variant:normal;font-weight:normal;font-size:11.95499992px;font-family:Helvetica;-inkscape-font-specification:Helvetica;writing-mode:lr-tb;fill:#000000;fill-opacity:1;fill-rule:nonzero;stroke:none"
                   transform="matrix(1,0,0,-1,203.465,15.875)"><tspan
                     id="tspan298"
                     sodipodi:role="line"
                     y="0"
                     x="0 6.6469798 13.29396 19.940941 26.587919 29.911409 36.558392 43.205372 51.83688 55.16037 65.118881">3102.75N/mm</tspan></text>
<text
                   id="text304"
                   style="font-variant:normal;font-weight:normal;font-size:12.05500031px;font-family:CMR7;-inkscape-font-specification:CMR7;writing-mode:lr-tb;fill:#000000;fill-opacity:1;fill-rule:nonzero;stroke:none"
                   transform="matrix(1,0,0,-1,278.543,21.072)"><tspan
                     id="tspan302"
                     y="0"
                     x="0">2</tspan></text>
<text
                   id="text308"
                   style="font-variant:normal;font-weight:normal;font-size:12.05500031px;font-family:CMMI7;-inkscape-font-specification:CMMI7;writing-mode:lr-tb;fill:#000000;fill-opacity:1;fill-rule:nonzero;stroke:none"
                   transform="matrix(1,0,0,-1,174.877,-1.764)"><tspan
                     id="tspan306"
                     y="0"
                     x="0">ν</tspan></text>
<text
                   id="text312"
                   style="font-variant:normal;font-weight:normal;font-size:12.05500031px;font-family:CMR7;-inkscape-font-specification:CMR7;writing-mode:lr-tb;fill:#000000;fill-opacity:1;fill-rule:nonzero;stroke:none"
                   transform="matrix(1,0,0,-1,186.505,-1.764)"><tspan
                     id="tspan310"
                     y="0"
                     x="0">=</tspan></text>
<text
                   id="text316"
                   style="font-variant:normal;font-weight:normal;font-size:11.95499992px;font-family:Helvetica;-inkscape-font-specification:Helvetica;writing-mode:lr-tb;fill:#000000;fill-opacity:1;fill-rule:nonzero;stroke:none"
                   transform="matrix(1,0,0,-1,200.4,-1.764)"><tspan
                     id="tspan314"
                     sodipodi:role="line"
                     y="0"
                     x="0 6.6469798 9.9704704">0.3</tspan></text>
<text
                   id="text326"
                   style="font-variant:normal;font-weight:normal;font-size:12.05500031px;font-family:CMMI7;-inkscape-font-specification:CMMI7;writing-mode:lr-tb;fill:#000000;fill-opacity:1;fill-rule:nonzero;stroke:none"
                   transform="matrix(1,0,0,-1,22.931,28.285)"><tspan
                     id="tspan318"
                     y="0"
                     x="0">R</tspan><tspan
                     id="tspan320"
                     y="-194.28101"
                     x="-91.848999">z</tspan><tspan
                     id="tspan322"
                     y="-144.82899"
                     x="-109.551">x</tspan><tspan
                     id="tspan324"
                     y="-97.139999"
                     x="-40.632999">D</tspan></text>
<text
                   id="text330"
                   style="font-variant:normal;font-weight:normal;font-size:11.95499992px;font-family:Helvetica;-inkscape-font-specification:Helvetica;writing-mode:lr-tb;fill:#000000;fill-opacity:1;fill-rule:nonzero;stroke:none"
                   transform="matrix(1,0,0,-1,119.693,57.39)"><tspan
                     id="tspan328"
                     sodipodi:role="line"
                     y="0"
                     x="0 8.6315098 11.28552 17.932501 27.891014 34.537994 41.184975 51.155445 57.802425 64.449402 71.096382 77.743362 84.390343 91.037323 95.197662 97.851677 104.49866">Clampedboundaries</tspan></text>
<text
                   id="text334"
                   style="font-variant:normal;font-weight:normal;font-size:12.05500031px;font-family:CMMI7;-inkscape-font-specification:CMMI7;writing-mode:lr-tb;fill:#000000;fill-opacity:1;fill-rule:nonzero;stroke:none"
                   transform="matrix(1,0,0,-1,77.737,15.875)"><tspan
                     id="tspan332"
                     y="0"
                     x="0">R</tspan></text>
<text
                   id="text338"
                   style="font-variant:normal;font-weight:normal;font-size:12.05500031px;font-family:CMR7;-inkscape-font-specification:CMR7;writing-mode:lr-tb;fill:#000000;fill-opacity:1;fill-rule:nonzero;stroke:none"
                   transform="matrix(1,0,0,-1,92.093,15.875)"><tspan
                     id="tspan336"
                     y="0"
                     x="0">=</tspan></text>
<text
                   id="text342"
                   style="font-variant:normal;font-weight:normal;font-size:11.95499992px;font-family:Helvetica;-inkscape-font-specification:Helvetica;writing-mode:lr-tb;fill:#000000;fill-opacity:1;fill-rule:nonzero;stroke:none"
                   transform="matrix(1,0,0,-1,105.989,15.875)"><tspan
                     id="tspan340"
                     sodipodi:role="line"
                     y="0"
                     x="0 6.6469798 13.29396 19.940941 26.587919 36.546436">2540mm</tspan></text>
<text
                   id="text352"
                   style="font-variant:normal;font-weight:normal;font-size:12.05500031px;font-family:CMMI7;-inkscape-font-specification:CMMI7;writing-mode:lr-tb;fill:#000000;fill-opacity:1;fill-rule:nonzero;stroke:none"
                   transform="matrix(1,0,0,-1,73.453,231.322)"><tspan
                     id="tspan344"
                     y="0"
                     x="0">F</tspan><tspan
                     id="tspan346"
                     y="145.584"
                     x="-9.5120001">A</tspan><tspan
                     id="tspan348"
                     y="83.722"
                     x="96.321999">B</tspan><tspan
                     id="tspan350"
                     y="44.916"
                     x="9.3870001">C</tspan></text>
<g
                   transform="translate(-272.829,-49.805)"
                   id="g354"><g
                     transform="translate(229.634)"
                     id="g360"><g
                       transform="translate(-229.634,-19.994)"
                       id="g362"><g
                         id="g364" /><g
                         transform="translate(-0.498,-17.932)"
                         id="g368"><g
                           id="g370" /><g
                           transform="translate(12.453,5.38)"
                           id="g374"><g
                             transform="translate(102.339,-5.38)"
                             id="g380"><g
                               id="g382" /><g
                               transform="translate(12.453,5.38)"
                               id="g386"><g
                                 transform="translate(175.604,-5.38)"
                                 id="g392"><g
                                   id="g394" /><g
                                   transform="translate(12.454,5.38)"
                                   id="g398"><g
                                   transform="translate(168.244,-5.38)"
                                   id="g404"><g
                                   id="g406" /><g
                                   transform="translate(-483.049,-0.997)"
                                   id="g410"><g
                                   id="g412" /><g
                                   transform="translate(-0.498,-17.932)"
                                   id="g416"><g
                                   id="g418" /><g
                                   transform="translate(12.453,5.38)"
                                   id="g422"><g
                                   transform="translate(35.076)"
                                   id="g428"><g
                                   transform="translate(67.263,-5.38)"
                                   id="g430"><g
                                   id="g432" /><g
                                   transform="translate(86.55,5.38)"
                                   id="g436"><g
                                   transform="translate(101.507,-5.38)"
                                   id="g442"><g
                                   id="g444" /><g
                                   transform="translate(80.482,5.38)"
                                   id="g448"><g
                                   transform="translate(100.216,-5.38)"
                                   id="g454"><g
                                   id="g456" /><g
                                   transform="translate(-483.547,-17.933)"
                                   id="g460"><g
                                   id="g462" /><g
                                   transform="translate(12.453,5.38)"
                                   id="g466"><g
                                   transform="translate(34.273)"
                                   id="g472"><g
                                   transform="translate(3.988)"
                                   id="g474"><g
                                   transform="translate(64.078,-5.38)"
                                   id="g480"><g
                                   id="g482" /><g
                                   transform="translate(86.55,5.38)"
                                   id="g486"><g
                                   transform="translate(101.507,-5.38)"
                                   id="g492"><g
                                   id="g494" /><g
                                   transform="translate(80.482,5.38)"
                                   id="g498"><g
                                   transform="translate(100.216,-5.38)"
                                   id="g504"><g
                                   id="g506" /><g
                                   transform="translate(-483.547,-17.933)"
                                   id="g510"><g
                                   id="g512" /><g
                                   transform="translate(12.453,5.38)"
                                   id="g516"><g
                                   transform="translate(34.273)"
                                   id="g522"><g
                                   transform="translate(3.988)"
                                   id="g524"><g
                                   transform="translate(64.078,-5.38)"
                                   id="g530"><g
                                   id="g532" /><g
                                   transform="translate(86.55,5.38)"
                                   id="g536"><g
                                   transform="translate(101.507,-5.38)"
                                   id="g542"><g
                                   id="g544" /><g
                                   transform="translate(80.482,5.38)"
                                   id="g548"><g
                                   transform="translate(100.216,-5.38)"
                                   id="g554"><g
                                   id="g556" /><g
                                   transform="translate(-483.049,-0.996)"
                                   id="g560"><g
                                   id="g562" /><g
                                   transform="translate(-29.888,-39.123)"
                                   id="g566"><g
                                   transform="translate(672.656)"
                                   id="g568"><g
                                   transform="scale(0.17903)"
                                   id="g570"><g
                                   id="g572"><g
                                   id="g574"><g
                                   clip-path="url(#clipPath580)"
                                   id="g576"><g
                                   transform="scale(0.1)"
                                   id="g582"><g
                                   id="g584" /></g></g></g></g></g><g
                                   transform="translate(85.04)"
                                   id="g622" /></g></g></g></g></g></g></g></g></g></g></g></g></g></g></g></g></g></g></g></g></g></g></g></g></g></g></g></g></g></g></g></g></g></g></g></g></g></g></g></g></g></g></g></g></g></g></g></svg>