<?xml version="1.0" encoding="UTF-8" standalone="no"?>
<!-- Created with Inkscape (http://www.inkscape.org/) -->

<svg
   xmlns:dc="http://purl.org/dc/elements/1.1/"
   xmlns:cc="http://creativecommons.org/ns#"
   xmlns:rdf="http://www.w3.org/1999/02/22-rdf-syntax-ns#"
   xmlns:svg="http://www.w3.org/2000/svg"
   xmlns="http://www.w3.org/2000/svg"
   xmlns:sodipodi="http://sodipodi.sourceforge.net/DTD/sodipodi-0.dtd"
   xmlns:inkscape="http://www.inkscape.org/namespaces/inkscape"
   version="1.1"
   id="svg2"
   width="542.66669"
   height="582.66669"
   viewBox="0 0 542.66669 582.66669"
   sodipodi:docname="prism9.svg"
   inkscape:version="0.92.3 (2405546, 2018-03-11)">
  <metadata
     id="metadata8">
    <rdf:RDF>
      <cc:Work
         rdf:about="">
        <dc:format>image/svg+xml</dc:format>
        <dc:type
           rdf:resource="http://purl.org/dc/dcmitype/StillImage" />
        <dc:title></dc:title>
      </cc:Work>
    </rdf:RDF>
  </metadata>
  <defs
     id="defs6" />
  <sodipodi:namedview
     pagecolor="#ffffff"
     bordercolor="#666666"
     borderopacity="1"
     objecttolerance="10"
     gridtolerance="10"
     guidetolerance="10"
     inkscape:pageopacity="0"
     inkscape:pageshadow="2"
     inkscape:window-width="3440"
     inkscape:window-height="1386"
     id="namedview4"
     showgrid="false"
     inkscape:zoom="1.14561"
     inkscape:cx="714.33687"
     inkscape:cy="235.82102"
     inkscape:window-x="1920"
     inkscape:window-y="0"
     inkscape:window-maximized="1"
     inkscape:current-layer="svg2" />
  <path
     inkscape:connector-curvature="0"
     id="path26"
     d="m 363.46894,508.17771 c 0.91666,-0.36988 2.41666,-0.36988 3.33333,0 0.91667,0.36988 0.16667,0.67252 -1.66667,0.67252 -1.83333,0 -2.58333,-0.30264 -1.66666,-0.67252 z m 30,-1.3694 c 1.28333,-0.33536 3.38333,-0.33536 4.66666,0 1.28334,0.33538 0.23334,0.60978 -2.33333,0.60978 -2.56667,0 -3.61667,-0.2744 -2.33333,-0.60978 z m -13.66667,-4.93824 c 0,-1.26484 3.99117,-1.90229 4.70265,-0.75109 0.43344,0.70131 -0.44734,1.27511 -1.95729,1.27511 -1.50995,0 -2.74536,-0.23582 -2.74536,-0.52402 z M 26.778262,294.39408 c 0,-2.56667 0.274394,-3.61667 0.609764,-2.33334 0.33537,1.28334 0.33537,3.38334 0,4.66667 -0.33537,1.28333 -0.609764,0.23333 -0.609764,-2.33333 z m -1.333333,-32 c 0,-2.56667 0.274393,-3.61667 0.609764,-2.33334 0.335369,1.28334 0.335369,3.38334 0,4.66667 -0.335371,1.28333 -0.609764,0.23333 -0.609764,-2.33333 z m -1.333333,-33.33334 c 0,-2.56666 0.274393,-3.61666 0.609764,-2.33333 0.335369,1.28333 0.335369,3.38333 0,4.66667 -0.335371,1.28333 -0.609764,0.23333 -0.609764,-2.33334 z m -1.333334,-32 c 0,-2.56667 0.274394,-3.61667 0.609764,-2.33333 0.33537,1.28333 0.33537,3.38333 0,4.66666 -0.33537,1.28334 -0.609764,0.23334 -0.609764,-2.33333 z m -1.333333,-32 c 0,-2.56667 0.274393,-3.61667 0.609764,-2.33333 0.335369,1.28333 0.335369,3.38333 0,4.66666 -0.335371,1.28334 -0.609764,0.23334 -0.609764,-2.33333 z m 5.333333,-13.33333 c 0,-2.56667 0.274394,-3.61667 0.609764,-2.33334 0.33537,1.28334 0.33537,3.38334 0,4.66667 -0.33537,1.28333 -0.609764,0.23333 -0.609764,-2.33333 z M 20.111595,131.7274 c 0,-2.56666 0.274394,-3.61666 0.609764,-2.33333 0.33537,1.28333 0.33537,3.38333 0,4.66667 -0.33537,1.28333 -0.609764,0.23333 -0.609764,-2.33334 z m 5.333334,-12 c 0,-2.56666 0.274393,-3.61666 0.609764,-2.33333 0.335369,1.28333 0.335369,3.38333 0,4.66667 -0.335371,1.28333 -0.609764,0.23333 -0.609764,-2.33334 z M 18.778262,99.727404 c 0,-2.566667 0.274393,-3.616667 0.609764,-2.333334 0.335369,1.283333 0.335369,3.38333 0,4.66667 -0.335371,1.28333 -0.609764,0.23333 -0.609764,-2.333336 z M 24.111596,86.39407 c 0,-2.566667 0.274393,-3.616667 0.609764,-2.333334 0.335369,1.283334 0.335369,3.383334 0,4.666667 -0.335371,1.283333 -0.609764,0.233333 -0.609764,-2.333333 z"
     style="fill:#abcbfc;stroke-width:1.33333337" />
  <path
     inkscape:connector-curvature="0"
     id="path24"
     d="m 385.46894,506.80831 c 1.28333,-0.33536 3.38333,-0.33536 4.66666,0 1.28334,0.33538 0.23334,0.60978 -2.33333,0.60978 -2.56667,0 -3.61667,-0.2744 -2.33333,-0.60978 z m -24.6889,-3.24634 c 0.90446,-0.91123 1.98032,-1.3209 2.39084,-0.91038 0.41052,0.41052 -0.32948,1.15607 -1.64444,1.65678 -1.90026,0.72357 -2.05341,0.57042 -0.7464,-0.7464 z M 26.778262,286.39408 c 0,-2.56667 0.274394,-3.61667 0.609764,-2.33334 0.33537,1.28334 0.33537,3.38334 0,4.66667 -0.33537,1.28333 -0.609764,0.23333 -0.609764,-2.33333 z m -1.333333,-32 c 0,-2.56667 0.274393,-3.61667 0.609764,-2.33334 0.335369,1.28334 0.335369,3.38334 0,4.66667 -0.335371,1.28333 -0.609764,0.23333 -0.609764,-2.33333 z m -1.333333,-33.33334 c 0,-2.56667 0.274393,-3.61667 0.609764,-2.33333 0.335369,1.28333 0.335369,3.38333 0,4.66667 -0.335371,1.28333 -0.609764,0.23333 -0.609764,-2.33334 z m -1.333334,-32 c 0,-2.56667 0.274394,-3.61667 0.609764,-2.33333 0.33537,1.28333 0.33537,3.38333 0,4.66666 -0.33537,1.28334 -0.609764,0.23334 -0.609764,-2.33333 z m 4,-29.33333 c 0,-2.56667 0.274394,-3.61667 0.609764,-2.33334 0.33537,1.28334 0.33537,3.38334 0,4.66667 -0.33537,1.28333 -0.609764,0.23333 -0.609764,-2.33333 z m -5.333333,-2.66667 c 0,-2.56667 0.274393,-3.61667 0.609764,-2.33333 0.335369,1.28333 0.335369,3.38333 0,4.66666 -0.335371,1.28334 -0.609764,0.23334 -0.609764,-2.33333 z m 4,-29.33334 c 0,-2.56666 0.274393,-3.61666 0.609764,-2.33333 0.335369,1.28333 0.335369,3.38333 0,4.66667 -0.335371,1.28333 -0.609764,0.23333 -0.609764,-2.33334 z m -5.333334,-4 c 0,-2.56666 0.274394,-3.61666 0.609764,-2.33333 0.33537,1.28333 0.33537,3.38333 0,4.66667 -0.33537,1.28333 -0.609764,0.23333 -0.609764,-2.33334 z m 4.000001,-29.33333 c 0,-2.566667 0.274393,-3.616667 0.609764,-2.333333 0.335369,1.283333 0.335369,3.383333 0,4.666666 -0.335371,1.283334 -0.609764,0.233334 -0.609764,-2.333333 z m -5.333334,-2.666667 c 0,-2.566667 0.274393,-3.616667 0.609764,-2.333333 0.335369,1.283333 0.335369,3.383333 0,4.666667 -0.335371,1.283333 -0.609764,0.233333 -0.609764,-2.333334 z"
     style="fill:#8ab6f9;stroke-width:1.33333337" />
  <path
     inkscape:connector-curvature="0"
     id="path22"
     d="m 378.82764,506.80343 c 1.2973,-0.33805 3.0973,-0.31582 4,0.0495 0.90271,0.36524 -0.1587,0.64183 -2.3587,0.61465 -2.2,-0.0272 -2.93859,-0.326 -1.6413,-0.66405 z m -13.3587,-3.99512 c 1.28333,-0.33536 3.38333,-0.33536 4.66666,0 1.28334,0.33538 0.23334,0.60978 -2.33333,0.60978 -2.56667,0 -3.61667,-0.2744 -2.33333,-0.60978 z M 28.06219,309.72741 c 0.02717,-2.2 0.325998,-2.93858 0.664056,-1.64129 0.338058,1.29729 0.315826,3.09729 -0.0494,4 -0.365236,0.90271 -0.641829,-0.15871 -0.614656,-2.35871 z m -1.283928,-31.33333 c 0,-2.56667 0.274394,-3.61667 0.609764,-2.33334 0.33537,1.28334 0.33537,3.38334 0,4.66667 -0.33537,1.28333 -0.609764,0.23333 -0.609764,-2.33333 z m -1.333333,-32 c 0,-2.56667 0.274393,-3.61667 0.609764,-2.33334 0.335369,1.28334 0.335369,3.38334 0,4.66667 -0.335371,1.28333 -0.609764,0.23333 -0.609764,-2.33333 z m -1.333333,-33.33334 c 0,-2.56667 0.274393,-3.61667 0.609764,-2.33333 0.335369,1.28333 0.335369,3.38333 0,4.66666 -0.335371,1.28334 -0.609764,0.23334 -0.609764,-2.33333 z m -1.333334,-32 c 0,-2.56667 0.274394,-3.61667 0.609764,-2.33333 0.33537,1.28333 0.33537,3.38333 0,4.66666 -0.33537,1.28334 -0.609764,0.23334 -0.609764,-2.33333 z M 507.08078,170.30537 c -0.48337,-0.78212 -0.5929,-1.708 -0.2434,-2.05751 0.3495,-0.34951 0.99075,0.29041 1.425,1.42204 0.90158,2.34948 0.1332,2.76275 -1.1816,0.63547 z M 21.444929,149.06074 c 0,-2.56667 0.274393,-3.61667 0.609764,-2.33333 0.335369,1.28333 0.335369,3.38333 0,4.66666 -0.335371,1.28334 -0.609764,0.23334 -0.609764,-2.33333 z M 533.888,143.33657 c 0.5007,-1.31496 1.24625,-2.05496 1.65677,-1.64445 0.41052,0.41052 8.5e-4,1.4864 -0.91037,2.39084 -1.31683,1.30702 -1.46998,1.15387 -0.7464,-0.74639 z M 25.444929,135.7274 c 0,-2.56666 0.274393,-3.61666 0.609764,-2.33333 0.335369,1.28333 0.335369,3.38334 0,4.66667 -0.335371,1.28333 -0.609764,0.23333 -0.609764,-2.33334 z m -5.333334,-20 c 0,-2.56666 0.274394,-3.61666 0.609764,-2.33333 0.33537,1.28333 0.33537,3.38333 0,4.66667 -0.33537,1.28333 -0.609764,0.23333 -0.609764,-2.33334 z m 4.000001,-13.33333 c 0,-2.566666 0.274393,-3.616667 0.609764,-2.33333 0.335369,1.28333 0.335369,3.38333 0,4.66666 -0.335371,1.28334 -0.609764,0.23334 -0.609764,-2.33333 z M 18.778262,83.727403 c 0,-2.566667 0.274393,-3.616667 0.609764,-2.333334 0.335369,1.283334 0.335369,3.383334 0,4.666667 -0.335371,1.283334 -0.609764,0.233334 -0.609764,-2.333333 z m 3.690663,-10.666667 c 0,-0.733334 0.635411,-1.333334 1.412023,-1.333334 0.776612,0 1.041202,0.6 0.587977,1.333334 -0.453225,0.733333 -1.088635,1.333333 -1.412023,1.333333 -0.323388,0 -0.587977,-0.6 -0.587977,-1.333333 z"
     style="fill:#5495f8;stroke-width:1.33333337" />
  <path
     inkscape:connector-curvature="0"
     id="path20"
     d="m 286.67945,538.39409 c 0,-1.83334 0.30264,-2.58334 0.67252,-1.66667 0.36988,0.91667 0.36988,2.41667 0,3.33333 -0.36988,0.91667 -0.67252,0.16667 -0.67252,-1.66666 z m 5.43215,-13.33334 c 0,-2.56666 0.2744,-3.61666 0.60977,-2.33333 0.33536,1.28333 0.33536,3.38333 0,4.66667 -0.33537,1.28333 -0.60977,0.23333 -0.60977,-2.33334 z m -6.71607,-18 c 0.0272,-2.2 0.326,-2.93858 0.66406,-1.64129 0.33805,1.29729 0.31582,3.09729 -0.0495,4 -0.36524,0.90271 -0.64183,-0.15871 -0.61465,-2.35871 z m 5.38274,-14 c 0,-2.56666 0.2744,-3.61666 0.60977,-2.33333 0.33536,1.28333 0.33536,3.38333 0,4.66667 -0.33537,1.28333 -0.60977,0.23333 -0.60977,-2.33334 z m -6.66667,-18.66666 c 0,-2.56667 0.2744,-3.61667 0.60977,-2.33334 0.33536,1.28334 0.33536,3.38334 0,4.66667 -0.33537,1.28333 -0.60977,0.23333 -0.60977,-2.33333 z m 5.33333,-13.33334 c 0,-2.56667 0.2744,-3.61667 0.60978,-2.33333 0.33536,1.28333 0.33536,3.38333 0,4.66666 -0.33538,1.28334 -0.60978,0.23334 -0.60978,-2.33333 z m -1.33333,-33.33333 c 0,-2.56667 0.2744,-3.61667 0.60977,-2.33334 0.33536,1.28334 0.33536,3.38334 0,4.66667 -0.33537,1.28333 -0.60977,0.23333 -0.60977,-2.33333 z m -249.382742,-18 c 0.02717,-2.2 0.325997,-2.93859 0.664056,-1.6413 0.338057,1.2973 0.315825,3.0973 -0.0494,4 -0.365236,0.90271 -0.64183,-0.1587 -0.614656,-2.3587 z m 242.666672,0 c 0.0272,-2.2 0.326,-2.93859 0.66406,-1.6413 0.33805,1.2973 0.31582,3.0973 -0.0495,4 -0.36524,0.90271 -0.64183,-0.1587 -0.61465,-2.3587 z m 5.38274,-14 c 0,-2.56667 0.2744,-3.61667 0.60977,-2.33334 0.33536,1.28334 0.33536,3.38334 0,4.66667 -0.33537,1.28333 -0.60977,0.23333 -0.60977,-2.33333 z m -254.666674,-4 c 0,-2.56667 0.274393,-3.61667 0.609764,-2.33334 0.335369,1.28334 0.335369,3.38334 0,4.66667 -0.335371,1.28333 -0.609764,0.23333 -0.609764,-2.33333 z m 5.333334,-14.66667 c 0,-2.56667 0.274393,-3.61667 0.609764,-2.33334 0.335369,1.28334 0.335369,3.38334 0,4.66667 -0.335371,1.28333 -0.609764,0.23333 -0.609764,-2.33333 z m 242.66667,0 c 0,-2.56667 0.2744,-3.61667 0.60977,-2.33334 0.33536,1.28334 0.33536,3.38334 0,4.66667 -0.33537,1.28333 -0.60977,0.23333 -0.60977,-2.33333 z m 5.33333,-13.33334 c 0,-2.56666 0.2744,-3.61666 0.60978,-2.33333 0.33536,1.28333 0.33536,3.38333 0,4.66667 -0.33538,1.28333 -0.60978,0.23333 -0.60978,-2.33334 z M 30.778263,358.39408 c 0,-2.56667 0.274393,-3.61667 0.609764,-2.33333 0.335369,1.28333 0.335369,3.38333 0,4.66666 -0.335371,1.28334 -0.609764,0.23334 -0.609764,-2.33333 z m 5.333333,-13.33333 c 0,-2.56667 0.274393,-3.61667 0.609764,-2.33334 0.335369,1.28334 0.335369,3.38334 0,4.66667 -0.335371,1.28333 -0.609764,0.23333 -0.609764,-2.33333 z m 242.666674,0 c 0,-2.56667 0.2744,-3.61667 0.60977,-2.33334 0.33536,1.28334 0.33536,3.38334 0,4.66667 -0.33537,1.28333 -0.60977,0.23333 -0.60977,-2.33333 z M 29.444929,326.39408 c 0,-2.56667 0.274394,-3.61667 0.609764,-2.33333 0.33537,1.28333 0.33537,3.38333 0,4.66666 -0.33537,1.28334 -0.609764,0.23334 -0.609764,-2.33333 z M 457.44494,283.72741 c 0,-2.56667 0.2744,-3.61667 0.60977,-2.33333 0.33536,1.28333 0.33536,3.38333 0,4.66666 -0.33537,1.28334 -0.60977,0.23334 -0.60977,-2.33333 z m -424.000011,-4 c 0,-2.56667 0.274394,-3.61667 0.609764,-2.33333 0.33537,1.28333 0.33537,3.38333 0,4.66666 -0.33537,1.28334 -0.609764,0.23334 -0.609764,-2.33333 z m 429.333341,-9.33333 c 0,-2.56667 0.2744,-3.61667 0.60978,-2.33334 0.33536,1.28334 0.33536,3.38334 0,4.66667 -0.33538,1.28333 -0.60978,0.23333 -0.60978,-2.33333 z m -6.66666,-18.66667 c 0,-2.56667 0.2744,-3.61667 0.60977,-2.33333 0.33536,1.28333 0.33536,3.38333 0,4.66666 -0.33537,1.28334 -0.60977,0.23334 -0.60977,-2.33333 z m -424.000014,-4 c 0,-2.56667 0.274393,-3.61667 0.609764,-2.33333 0.335369,1.28333 0.335369,3.38333 0,4.66666 -0.335371,1.28334 -0.609764,0.23334 -0.609764,-2.33333 z M 461.44494,237.06074 c 0,-2.56666 0.2744,-3.61666 0.60977,-2.33333 0.33536,1.28333 0.33536,3.38333 0,4.66667 -0.33537,1.28333 -0.60977,0.23333 -0.60977,-2.33334 z m -6.66667,-18.66667 c 0,-2.56666 0.2744,-3.61666 0.60978,-2.33333 0.33536,1.28333 0.33536,3.38333 0,4.66667 -0.33538,1.28333 -0.60978,0.23333 -0.60978,-2.33334 z M 30.778263,215.72741 c 0,-2.56667 0.274393,-3.61667 0.609764,-2.33334 0.335369,1.28334 0.335369,3.38334 0,4.66667 -0.335371,1.28333 -0.609764,0.23333 -0.609764,-2.33333 z M 460.06221,204.39407 c 0.0272,-2.2 0.326,-2.93858 0.66405,-1.64129 0.33805,1.29729 0.31583,3.09729 -0.0495,4 -0.36524,0.90271 -0.64182,-0.15871 -0.61465,-2.35871 z m -6.61727,-19.33333 c 0,-2.56667 0.2744,-3.61667 0.60977,-2.33333 0.33536,1.28333 0.33536,3.38333 0,4.66666 -0.33537,1.28334 -0.60977,0.23334 -0.60977,-2.33333 z m 5.23452,-12 c 0,-1.83333 0.30264,-2.58333 0.67252,-1.66667 0.36988,0.91667 0.36988,2.41667 0,3.33334 -0.36988,0.91666 -0.67252,0.16666 -0.67252,-1.66667 z m -6.56785,-20 c 0,-2.56667 0.2744,-3.61667 0.60977,-2.33333 0.33536,1.28333 0.33536,3.38333 0,4.66666 -0.33537,1.28334 -0.60977,0.23334 -0.60977,-2.33333 z m 5.33333,-14.66667 c 0,-2.56667 0.2744,-3.61667 0.60977,-2.33333 0.33536,1.28333 0.33536,3.38333 0,4.66667 -0.33537,1.28333 -0.60977,0.23333 -0.60977,-2.33334 z m -6.66667,-18.66667 c 0,-2.56666 0.2744,-3.61666 0.60978,-2.33333 0.33536,1.28333 0.33536,3.38333 0,4.66667 -0.33538,1.28333 -0.60978,0.23333 -0.60978,-2.33334 z m 5.33334,-13.33333 c 0,-2.56667 0.2744,-3.61667 0.60977,-2.33333 0.33536,1.28333 0.33536,3.38333 0,4.66666 -0.33537,1.28334 -0.60977,0.23334 -0.60977,-2.33333 z m -6.71607,-19.333334 c 0.0272,-2.2 0.326,-2.938581 0.66405,-1.64129 0.33806,1.297289 0.31583,3.097289 -0.0495,4 -0.36518,0.902709 -0.64176,-0.15871 -0.61459,-2.35871 z m 5.38273,-14 c 0,-2.566667 0.2744,-3.616667 0.60978,-2.333334 0.33536,1.283334 0.33536,3.383334 0,4.666667 -0.33538,1.283334 -0.60978,0.233334 -0.60978,-2.333333 z m -6.66666,-18.666668 c 0,-2.566666 0.2744,-3.616666 0.60977,-2.333333 0.33536,1.283333 0.33536,3.383333 0,4.666667 -0.33537,1.283333 -0.60977,0.233333 -0.60977,-2.333334 z m 5.28393,-14 c 0.0272,-2.2 0.326,-2.938582 0.66405,-1.641291 0.33806,1.297289 0.31583,3.09729 -0.0495,4 -0.36518,0.90271 -0.64176,-0.158709 -0.61459,-2.358709 z"
     style="fill:#9da0a0;stroke-width:1.33333337" />
  <path
     inkscape:connector-curvature="0"
     id="path18"
     d="m 361.1356,506.0111 c 0,-1.9036 10.00894,-3.61701 21.12892,-3.61701 2.77626,0 4.21334,-0.48171 3.47108,-1.1635 -0.69666,-0.63992 -46.56667,-25.02398 -101.93333,-54.18683 C 228.4356,417.88092 179.23559,391.95784 174.46893,389.43692 169.70226,386.91599 135.65226,368.93231 98.802261,349.47319 61.95226,330.01407 31.802259,313.52531 31.802259,312.83149 c 0,-0.6938 -0.555814,-0.91794 -1.235143,-0.49809 -1.978455,1.22275 -2.48187,-7.61992 -6.752252,-118.60599 C 21.585777,135.79407 19.413498,84.552684 18.987578,79.857659 l -0.7744,-8.536411 -6.074001,11.203078 C 4.8570618,95.955685 5.4294488,95.221261 3.6389959,93.430809 2.5916842,92.383497 4.6703417,87.297207 11.095109,75.186364 c 4.899544,-9.235763 9.103256,-16.792295 9.34158,-16.792295 1.312449,0 20.671449,32.299067 20.005162,33.377142 -1.515939,2.452839 -2.721459,1.244195 -9.333056,-9.357243 -3.651929,-5.855723 -7.001794,-10.655723 -7.444146,-10.666667 -0.442353,-0.01093 -0.5926,2.830102 -0.333883,6.313435 0.258716,3.483333 2.284672,53.133334 4.502124,110.333334 4.241839,109.41983 4.855965,120.66668 6.588913,120.66668 0.922961,0 159.116327,-53.32786 274.713797,-92.60754 85.60422,-29.08806 210.94797,-71.39247 211.52877,-71.39247 0.34575,0 0.32016,-0.49909 -0.0568,-1.10909 -0.377,-0.61 -5.06241,-1.88145 -10.41203,-2.82544 -10.90613,-1.92449 -15.28193,-3.7101 -13.48804,-5.50399 1.33909,-1.33913 37.76144,5.41587 37.76144,7.00336 0,0.54358 -4.86813,6.56387 -10.81808,13.37841 -15.40549,17.6441 -14.26152,16.60274 -15.2911,13.91968 -0.61834,-1.61136 1.54098,-4.99426 7.3852,-11.57005 4.54246,-5.11108 7.69514,-9.29288 7.00594,-9.29288 -1.61582,0 -481.943256,162.55018 -482.76979,163.37671 -0.342812,0.34282 -0.373295,0.82106 -0.06775,1.06276 0.305563,0.2417 52.755565,27.93091 116.55557,61.53158 138.8514,73.12696 127.60286,67.19433 185.1245,97.63708 25.5518,13.52304 46.68857,24.35659 46.9706,24.07456 0.28204,-0.28202 -2.17399,-4.83014 -5.45781,-10.10692 -5.77764,-9.28406 -7.28083,-13.57576 -4.75496,-13.57576 1.19056,0 21.94592,32.00946 21.17574,32.6578 -0.21526,0.18122 -8.9414,0.74954 -19.3914,1.26292 -16.00909,0.78648 -19,0.63374 -19,-0.97037 z"
     style="fill:#2c7cf4;stroke-width:1.33333337" />
  <path
     inkscape:connector-curvature="0"
     id="path16"
     d="m 292.13851,533.72742 c 0.0148,-2.93333 0.28785,-3.97633 0.60677,-2.31779 0.31892,1.65855 0.30681,4.05855 -0.0269,5.33334 -0.33372,1.27478 -0.59467,-0.0823 -0.57987,-3.01555 z m -5.33334,-2.66667 c 0.0148,-2.93333 0.28786,-3.97633 0.60678,-2.31778 0.31892,1.65854 0.30681,4.05854 -0.0269,5.33333 -0.33372,1.27479 -0.59466,-0.0823 -0.57986,-3.01555 z m 4,-29.33333 c 0.0148,-2.93333 0.28786,-3.97633 0.60678,-2.31779 0.31892,1.65855 0.30681,4.05855 -0.0269,5.33334 -0.33372,1.27478 -0.59466,-0.0823 -0.57986,-3.01555 z m -5.33333,-2.66667 c 0.0148,-2.93333 0.28785,-3.97633 0.60677,-2.31778 0.31892,1.65854 0.30682,4.05854 -0.0269,5.33333 -0.33372,1.27479 -0.59467,-0.0823 -0.57987,-3.01555 z m 3.97309,-30 c 0,-2.56667 0.2744,-3.61667 0.60978,-2.33333 0.33536,1.28333 0.33536,3.38333 0,4.66667 -0.33538,1.28333 -0.60978,0.23333 -0.60978,-2.33334 z m -5.33333,-2.66667 c 0,-2.56666 0.2744,-3.61666 0.60977,-2.33333 0.33536,1.28333 0.33536,3.38333 0,4.66667 -0.33537,1.28333 -0.60977,0.23333 -0.60977,-2.33334 z m 4.02691,-30 c 0.0148,-2.93333 0.28785,-3.97633 0.60677,-2.31778 0.31892,1.65854 0.30681,4.05854 -0.0269,5.33333 -0.33372,1.27479 -0.59467,-0.0823 -0.57987,-3.01555 z m -5.33334,-2.66666 c 0.0148,-2.93334 0.28786,-3.97634 0.60678,-2.31779 0.31892,1.65855 0.30681,4.05855 -0.0269,5.33333 -0.33372,1.27479 -0.59466,-0.0823 -0.57986,-3.01554 z M 33.240855,412.28298 c 0.06397,-1.55327 0.379921,-1.8692 0.805556,-0.80556 0.385161,0.96249 0.337792,2.1125 -0.105267,2.55556 -0.443056,0.44305 -0.758188,-0.34446 -0.700293,-1.75 z m 253.564315,-7.8889 c 0.0148,-2.93333 0.28786,-3.97633 0.60678,-2.31778 0.31892,1.65854 0.30681,4.05854 -0.0269,5.33333 -0.33372,1.27479 -0.59466,-0.0823 -0.57986,-3.01555 z m -5.33333,-2.66666 c 0.0148,-2.93334 0.28785,-3.97634 0.60677,-2.31779 0.31892,1.65855 0.30682,4.05855 -0.0269,5.33333 -0.33372,1.27479 -0.59467,-0.0823 -0.57987,-3.01554 z m -168.33625,2.07869 c 0,-0.69005 0.59313,-1.62123 1.31806,-2.06925 0.75582,-0.46712 0.97935,0.0681 0.52402,1.25464 -0.88639,2.30989 -1.84208,2.73252 -1.84208,0.81461 z m 9.4386,-3.52313 c 0.064,-1.55327 0.37992,-1.8692 0.80555,-0.80556 0.38517,0.96249 0.3378,2.1125 -0.10526,2.55556 -0.44306,0.44305 -0.75819,-0.34446 -0.7003,-1.75 z m 42.66667,-10.66667 c 0.064,-1.55327 0.37992,-1.8692 0.80555,-0.80556 0.38516,0.96249 0.3378,2.11251 -0.1052,2.55556 -0.44307,0.44305 -0.75819,-0.34445 -0.7003,-1.75 z m -127.769024,-3.8889 c 0.0148,-2.93333 0.287847,-3.97633 0.606771,-2.31778 0.318924,1.65854 0.306816,4.05855 -0.02691,5.33333 -0.333724,1.27479 -0.594662,-0.0822 -0.579864,-3.01555 z m -5.333333,-2.66666 c 0.0148,-2.93334 0.287846,-3.97634 0.60677,-2.31779 0.318924,1.65855 0.306816,4.05855 -0.02691,5.33333 -0.333724,1.27479 -0.594663,-0.0822 -0.579864,-3.01554 z m 146.435687,-0.11107 c 0.064,-1.55327 0.37992,-1.8692 0.80555,-0.80556 0.38516,0.96249 0.3378,2.11251 -0.1052,2.55556 -0.44307,0.44305 -0.75819,-0.34445 -0.70029,-1.75 z m 33.33334,-8 c 0.064,-1.55327 0.37992,-1.8692 0.80555,-0.80556 0.38516,0.96249 0.3378,2.11251 -0.1052,2.55556 -0.44307,0.44305 -0.75819,-0.34445 -0.7003,-1.75 z m 73.5374,-3.22227 c 0,-2.56666 0.2744,-3.61666 0.60978,-2.33333 0.33536,1.28333 0.33536,3.38333 0,4.66667 -0.33538,1.28333 -0.60978,0.23333 -0.60978,-2.33334 z m -69.5374,-0.77777 c 0.064,-1.55327 0.37992,-1.8692 0.80555,-0.80556 0.38516,0.96249 0.3378,2.11251 -0.1052,2.55556 -0.44307,0.44305 -0.75819,-0.34445 -0.7003,-1.75 z m 64.20407,-1.88889 c 0,-2.56667 0.2744,-3.61667 0.60977,-2.33334 0.33536,1.28334 0.33536,3.38334 0,4.66667 -0.33537,1.28333 -0.60977,0.23333 -0.60977,-2.33333 z m -21.5374,-8.77778 c 0.064,-1.55326 0.37992,-1.8692 0.80554,-0.80556 0.38516,0.9625 0.3378,2.11251 -0.1052,2.55556 -0.44306,0.44306 -0.75818,-0.34445 -0.70029,-1.75 z m 8.64712,-2.27973 c 0.5007,-1.31496 1.24625,-2.05496 1.65677,-1.64444 0.41052,0.41052 8.5e-4,1.48639 -0.91037,2.39084 -1.31683,1.30701 -1.46998,1.15387 -0.7464,-0.7464 z M 36.111596,353.06075 c 0,-2.56667 0.274393,-3.61667 0.609764,-2.33334 0.335369,1.28334 0.335369,3.38334 0,4.66667 -0.335371,1.28333 -0.609764,0.23333 -0.609764,-2.33333 z m -5.333333,-2.66667 c 0,-2.56667 0.274393,-3.61667 0.609764,-2.33333 0.335369,1.28333 0.335369,3.38333 0,4.66666 -0.335371,1.28334 -0.609764,0.23334 -0.609764,-2.33333 z m 283.109727,-7.05751 c 0.5007,-1.31496 1.24625,-2.05496 1.65677,-1.64444 0.41052,0.41052 8.5e-4,1.48639 -0.91037,2.39084 -1.31683,1.30702 -1.46998,1.15387 -0.7464,-0.7464 z m -29.82579,-2.94249 c 0.0272,-2.2 0.326,-2.93859 0.66405,-1.64129 0.33806,1.29729 0.31583,3.09729 -0.0495,4 -0.36524,0.9027 -0.64183,-0.15871 -0.61466,-2.35871 z m -5.488,-1.44444 c 0.064,-1.55327 0.37992,-1.8692 0.80555,-0.80556 0.38516,0.96249 0.3378,2.11249 -0.1052,2.55556 -0.44307,0.44305 -0.75819,-0.34445 -0.7003,-1.75 z M 34.778263,321.06075 c 0,-2.56667 0.274393,-3.61667 0.609764,-2.33334 0.335369,1.28334 0.335369,3.38334 0,4.66667 -0.335371,1.28333 -0.609764,0.23333 -0.609764,-2.33333 z m -5.333334,-2.66667 c 0,-2.56667 0.274394,-3.61667 0.609764,-2.33333 0.33537,1.28333 0.33537,3.38333 0,4.66666 -0.33537,1.28334 -0.609764,0.23334 -0.609764,-2.33333 z m 354.969181,2.57796 c -0.48337,-0.78212 -0.59291,-1.708 -0.2434,-2.05751 0.34949,-0.3495 0.99075,0.29042 1.425,1.42204 0.90157,2.34948 0.1332,2.76275 -1.1816,0.63547 z m 13.38816,-3.91129 c 0.45323,-0.73334 1.08864,-1.33334 1.41203,-1.33334 0.32338,0 0.58797,0.6 0.58797,1.33334 0,0.73333 -0.63541,1.33333 -1.41203,1.33333 -0.77661,0 -1.0412,-0.6 -0.58797,-1.33333 z M 31.955591,293.47277 c -0.08433,-4.54005 0.446668,-8.62547 1.180001,-9.07869 1.593435,-0.9848 1.628379,4.49726 0.07649,12 -1.058073,5.11534 -1.109428,4.99594 -1.256494,-2.92131 z M 462.77827,278.39408 c 0,-2.56667 0.2744,-3.61667 0.60978,-2.33334 0.33536,1.28334 0.33536,3.38334 0,4.66667 -0.33538,1.28333 -0.60978,0.23333 -0.60978,-2.33333 z m -5.33333,-2.66667 c 0,-2.56667 0.2744,-3.61667 0.60977,-2.33333 0.33536,1.28333 0.33536,3.38333 0,4.66666 -0.33537,1.28334 -0.60977,0.23334 -0.60977,-2.33333 z M 30.626679,260.8061 c -0.08676,-4.17338 0.442246,-7.9588 1.17558,-8.41202 1.539289,-0.95134 1.539289,5.95068 0,12 -0.841228,3.30597 -1.045199,2.68344 -1.17558,-3.58798 z M 461.47185,245.72741 c 0.0148,-2.93333 0.28785,-3.97633 0.60677,-2.31779 0.31892,1.65855 0.30681,4.05855 -0.0269,5.33334 -0.33372,1.27478 -0.59467,-0.0823 -0.57987,-3.01555 z m -5.33334,-2.66667 c 0.0148,-2.93333 0.28786,-3.97633 0.60678,-2.31778 0.31892,1.65854 0.30681,4.05854 -0.0269,5.33333 -0.33372,1.27479 -0.59466,-0.0823 -0.57986,-3.01555 z m -426.849586,-15 c -0.08775,-4.76889 0.416979,-8.33333 1.180001,-8.33333 1.575282,0 1.601996,3.95815 0.07649,11.33333 -1.053945,5.09539 -1.110002,4.96155 -1.256495,-3 z M 460.13851,212.39407 c 0.0148,-2.93333 0.28786,-3.97633 0.60678,-2.31778 0.31892,1.65854 0.30681,4.05854 -0.0269,5.33333 -0.33372,1.27479 -0.59466,-0.0823 -0.57986,-3.01555 z m -5.33333,-2.66666 c 0.0148,-2.93334 0.28785,-3.97634 0.60677,-2.31779 0.31892,1.65855 0.30682,4.05855 -0.0269,5.33333 -0.33372,1.27479 -0.59467,-0.0823 -0.57987,-3.01554 z m -426.576156,-14 c 0,-4.76667 0.241993,-6.71667 0.537762,-4.33334 0.295768,2.38334 0.295768,6.28334 0,8.66667 -0.295769,2.38333 -0.537762,0.43333 -0.537762,-4.33333 z m 430.549246,-16 c 0,-2.56667 0.2744,-3.61667 0.60978,-2.33334 0.33536,1.28334 0.33536,3.38334 0,4.66667 -0.33538,1.28333 -0.60978,0.23333 -0.60978,-2.33333 z m -5.30642,-3.33334 c 0.0148,-2.93333 0.28785,-3.97633 0.60677,-2.31778 0.31892,1.65854 0.30681,4.05854 -0.0269,5.33333 -0.33372,1.27479 -0.59467,-0.0823 -0.57987,-3.01555 z M 26.728857,167.06074 c 0.02717,-2.2 0.325997,-2.93859 0.664056,-1.64129 0.338057,1.29729 0.315825,3.09729 -0.0494,4 -0.365236,0.9027 -0.641829,-0.15871 -0.614656,-2.35871 z m 430.742993,-20 c 0.0148,-2.93333 0.28785,-3.97634 0.60677,-2.31779 0.31892,1.65855 0.30681,4.05855 -0.0269,5.33334 -0.33372,1.27478 -0.59467,-0.0823 -0.57987,-3.01555 z m -5.33334,-2.66667 c 0.0148,-2.93333 0.28786,-3.97634 0.60678,-2.31779 0.31892,1.65855 0.30681,4.05855 -0.0269,5.33334 -0.33372,1.27479 -0.59466,-0.0823 -0.57986,-3.01555 z m 3.9731,-30 c 0,-2.56667 0.2744,-3.61667 0.60977,-2.33333 0.33536,1.28333 0.33536,3.38333 0,4.66666 -0.33537,1.28334 -0.60977,0.23334 -0.60977,-2.33333 z m -5.33334,-2.66667 c 0,-2.56666 0.2744,-3.61666 0.60978,-2.33333 0.33536,1.28333 0.33536,3.38333 0,4.66667 -0.33538,1.28333 -0.60978,0.23333 -0.60978,-2.33334 z m 4.02691,-29.999997 c 0.0148,-2.933334 0.28785,-3.976338 0.60677,-2.317788 0.31892,1.65855 0.30682,4.058551 -0.0269,5.333333 -0.33372,1.274784 -0.59467,-0.08221 -0.57987,-3.015545 z m -5.33333,-2.666667 c 0.0148,-2.933333 0.28785,-3.976337 0.60677,-2.317788 0.31892,1.658551 0.30681,4.058551 -0.0269,5.333333 -0.33372,1.274785 -0.59467,-0.08221 -0.57987,-3.015545 z m 4,-30.666668 c 0.0148,-2.933333 0.28785,-3.976337 0.60677,-2.317788 0.31892,1.658551 0.30681,4.058551 -0.0269,5.333334 -0.3337,1.274784 -0.59464,-0.08221 -0.57984,-3.015546 z m -5.36024,-2 c 0,-2.566667 0.2744,-3.616667 0.60977,-2.333333 0.33536,1.283333 0.33536,3.383333 0,4.666666 -0.33537,1.283334 -0.60977,0.233334 -0.60977,-2.333333 z"
     style="fill:#575a5b;stroke-width:1.33333337" />
  <path
     inkscape:connector-curvature="0"
     id="path14"
     d="M 168.46893,500.91065 C 101.00226,464.21502 43.012375,432.7055 39.602516,430.88948 l -6.199743,-3.30184 -0.200197,-20.26345 c -0.110107,-11.14489 -0.920224,-36.91368 -1.800257,-57.26396 -0.880034,-20.35028 -1.407203,-37.00028 -1.171488,-37 0.235713,2.8e-4 1.349461,0.92141 2.474993,2.04694 1.674369,1.67436 2.370385,9.85568 3.828325,45 2.41915,58.31469 2.987354,64.97762 5.460257,64.02869 1.223186,-0.46939 2.221526,0.21877 2.640236,1.81992 0.472849,1.80818 36.472801,21.97273 120.920458,67.73084 66.13594,35.83587 120.7401,65.41712 121.34257,65.73611 1.30408,0.69048 1.16893,-6.34829 -1.25907,-65.5756 -1.01944,-24.8675 -1.65585,-45.4113 -1.41427,-45.6529 0.2416,-0.24159 1.39622,0.30455 2.56582,1.21363 1.80709,1.4046 2.44778,9.16364 4.26516,51.65289 1.17625,27.5 2.59136,52.05722 3.14468,54.57159 0.98574,4.47938 1.5029,3.77412 25.63749,-34.96208 16.23017,-26.04955 25.31361,-39.42668 26.63145,-39.21999 1.1,0.17252 2,0.90546 2,1.62875 0,0.72328 -11.7,20.05148 -26,42.95153 -20.10005,32.18827 -26.60512,41.63226 -28.66666,41.61794 -1.46667,-0.0107 -57.86667,-30.04223 -125.33334,-66.73784 z m 181.37978,-25.10808 c -0.47554,-0.76943 23.82861,-40.75771 54.0092,-88.86283 42.38084,-67.55121 54.73422,-88.19414 54.26066,-90.67144 -0.33724,-1.76416 -0.1152,-3.20756 0.49342,-3.20756 0.60863,0 0.84142,-0.75 0.51731,-1.66666 -0.68528,-1.93823 -4.66036,-95.80491 -4.66036,-110.0489 0,-7.66024 0.40707,-9.61777 2,-9.61777 1.1,0 2.02255,0.45 2.05012,1 1.85841,37.08345 4.80215,118.70223 4.32596,119.94312 -0.36376,0.94795 0.003,1.72355 0.8146,1.72355 0.8118,0 1.44143,1.05 1.39917,2.33333 -0.0915,2.78043 -110.81248,179.29644 -112.90185,179.9929 -0.794,0.26467 -1.8327,-0.14832 -2.30823,-0.91774 z m -64.40014,-33.18685 c -1.24272,-0.78882 -2.19633,-13.16166 -3.62086,-46.97957 -2.10456,-49.96115 -3.01824,-67.24582 -4.15924,-78.68312 -0.65872,-6.60303 -1.21856,-7.71795 -4.97094,-9.89959 -2.32573,-1.35219 -4.5286,-2.83153 -4.89527,-3.28743 -0.36666,-0.45589 -17.70996,-10.06568 -38.54065,-21.35509 -32.23949,-17.47252 -37.45735,-20.71211 -35.07335,-21.77588 2.30071,-1.0266 7.99047,1.57746 31.87399,14.58801 31.50995,17.16503 48.24678,25.7092 50.5146,25.78776 0.7927,0.0275 6.66843,-8.33056 13.05718,-18.57337 6.38876,-10.24283 12.06897,-18.90332 12.62269,-19.24555 0.55373,-0.34221 7.87801,-11.73379 16.27617,-25.3146 11.70424,-18.92712 16.1283,-25.00296 18.94808,-26.02263 4.58558,-1.6582 5.216,-2.90699 -13.30978,26.3654 -7.71836,12.19571 -14.70888,23.70371 -15.53448,25.57334 -0.82562,1.86962 -6.90111,12.01153 -13.50111,22.53757 -6.6,10.52603 -11.86217,19.60982 -11.69372,20.18618 0.3094,1.05865 1.86947,37.14505 1.92567,44.5436 0.0845,11.12708 2.55628,83.34005 3.0007,87.66667 0.52548,5.11566 0.0376,5.76545 -2.91968,3.8883 z M 48.308929,425.79127 c -1.033872,-2.69424 0.50373,-4.73052 3.57202,-4.73052 1.87162,0 2.587977,0.92267 2.587977,3.33333 0,2.46162 -0.708321,3.33334 -2.708513,3.33334 -1.489682,0 -3.04285,-0.87127 -3.451484,-1.93615 z m 9.761645,-1.57332 c -0.51424,-0.51424 -0.934981,-2.03497 -0.934981,-3.37943 0,-1.73616 0.992709,-2.44444 3.426068,-2.44444 2.786259,0 3.346502,0.5577 3,2.98638 -0.421705,2.95581 -3.685977,4.6426 -5.491087,2.83749 z m 9.287242,-2.71276 c -1.81876,-1.81876 -0.802801,-5.48927 1.700571,-6.14392 1.424204,-0.37243 2.924204,-0.34241 3.333333,0.0667 1.524988,1.52498 0.671228,5.37533 -1.365176,6.15677 -2.611445,1.00211 -2.586512,1.00265 -3.668728,-0.0796 z m 8.951114,-3.71392 c -0.928822,-2.42048 0.420283,-4.73052 2.762701,-4.73052 2.432742,0 3.525771,3.33819 1.693103,5.17085 -2.031079,2.03108 -3.565624,1.87944 -4.455804,-0.44033 z m 10.159998,-4.73052 c 0,-1.46667 0.835806,-2.66667 1.857348,-2.66667 2.666262,0 3.689047,3.63294 1.282745,4.55632 -2.965763,1.13807 -3.140093,1.03316 -3.140093,-1.88965 z m 9.333333,-2.64884 c 0,-3.32333 3.577193,-4.44532 4.380389,-1.37389 0.42574,1.62802 -0.205931,2.68144 -1.868622,3.11624 -1.772892,0.46362 -2.511767,-0.0489 -2.511767,-1.74235 z m 8.901579,-3.21977 c -0.41987,-1.09418 0.30224,-2.13518 1.74235,-2.51178 1.62802,-0.42573 2.68144,0.20594 3.11624,1.86862 0.78754,3.01156 -3.72075,3.60833 -4.85859,0.64316 z m 9.76508,-2.71936 c 0,-2.73882 2.76034,-4.08451 4.0611,-1.97984 0.60296,0.9756 0.80046,2.25246 0.43891,2.83748 -1.12057,1.81312 -4.50001,1.16904 -4.50001,-0.85764 z m 9.33334,-3.41203 c 0,-3.03179 3.34384,-3.63311 4.43215,-0.79703 0.83676,2.18059 -0.14654,3.4637 -2.65437,3.4637 -0.97778,0 -1.77778,-1.2 -1.77778,-2.66667 z m 9.33333,-2.66667 c 0,-1.46666 0.83581,-2.66666 1.85735,-2.66666 2.66627,0 3.68905,3.63293 1.28275,4.55632 -2.96577,1.13806 -3.1401,1.03316 -3.1401,-1.88966 z m 8.93658,-2.70656 c -0.40056,-1.5317 0.23829,-2.62298 1.76998,-3.02353 1.53171,-0.40056 2.62299,0.23829 3.02354,1.76999 0.40056,1.5317 -0.2383,2.62298 -1.76999,3.02353 -1.53171,0.40056 -2.62299,-0.23829 -3.02353,-1.76999 z m 9.29834,-3.16205 c -0.41988,-1.09417 0.30224,-2.13517 1.74235,-2.51177 1.62803,-0.42574 2.68144,0.20593 3.11624,1.86861 0.78753,3.01156 -3.72075,3.60833 -4.85859,0.64316 z m 9.32526,-2.68771 c -0.39882,-1.0393 0.18605,-2.2393 1.29973,-2.66666 2.96576,-1.13807 3.14009,-1.03317 3.14009,1.88965 0,3.04304 -3.34558,3.62855 -4.43982,0.77701 z m 19.10649,-6.11035 c 0,-1.46666 0.83581,-2.66666 1.85735,-2.66666 2.66626,0 3.68905,3.63293 1.28274,4.55632 -2.96576,1.13807 -3.14009,1.03316 -3.14009,-1.88966 z m 8.93657,-2.70656 c -0.40056,-1.5317 0.2383,-2.62298 1.76999,-3.02353 1.53171,-0.40056 2.62299,0.23829 3.02353,1.76999 0.40056,1.5317 -0.23829,2.62298 -1.76998,3.02353 -1.53171,0.40056 -2.62299,-0.23829 -3.02354,-1.76999 z m 9.29027,-3.18309 c -0.39881,-1.03931 0.18606,-2.23931 1.29974,-2.66667 2.7928,-1.07169 2.74537,-1.0971 3.52642,1.88966 0.50655,1.93704 0.0409,2.66666 -1.70184,2.66666 -1.31956,0 -2.72549,-0.85034 -3.12432,-1.88965 z m 9.33334,-2.66667 c -0.39882,-1.0393 0.18605,-2.2393 1.29973,-2.66666 2.96576,-1.13807 3.14009,-1.03316 3.14009,1.88965 0,3.04304 -3.34558,3.62855 -4.43982,0.77701 z m 9.77316,-3.44368 c 0,-1.46666 0.83581,-2.66666 1.85734,-2.66666 2.66627,0 3.68906,3.63293 1.28275,4.55632 -2.96576,1.13806 -3.14009,1.03316 -3.14009,-1.88966 z m 8.947,-2.66666 c -0.50655,-1.93704 -0.0409,-2.66667 1.70184,-2.66667 3.07457,0 4.48962,3.53365 1.82458,4.55632 -2.7928,1.07169 -2.74537,1.09711 -3.52642,-1.88965 z m 9.3229,-2.70656 c -0.40056,-1.53171 0.2383,-2.62299 1.76999,-3.02354 1.53171,-0.40056 2.62299,0.2383 3.02353,1.76999 0.40056,1.53171 -0.23829,2.62299 -1.76998,3.02353 -1.53171,0.40056 -2.62299,-0.23829 -3.02354,-1.76998 z m 9.29027,-3.1831 c -0.39881,-1.0393 0.18605,-2.2393 1.29973,-2.66666 2.96576,-1.13807 3.1401,-1.03316 3.1401,1.88965 0,3.04304 -3.34559,3.62855 -4.43983,0.77701 z m 9.33333,-2.66666 c -0.39881,-1.03931 0.18606,-2.23931 1.29974,-2.66667 2.96576,-1.13807 3.14009,-1.03316 3.14009,1.88965 0,3.04304 -3.34559,3.62855 -4.43983,0.77702 z m 9.27163,-2.82748 c -0.45309,-1.18075 0.0763,-2.38171 1.24819,-2.83139 2.60881,-1.00111 3.79929,0.20264 2.79324,2.82435 -1.01212,2.63756 -3.03066,2.64106 -4.04143,0.007 z m 9.44853,-3.28287 c -0.50654,-1.93704 -0.0409,-2.66667 1.70185,-2.66667 3.07457,0 4.48962,3.53366 1.82458,4.55632 -2.7928,1.0717 -2.74537,1.09711 -3.52643,-1.88965 z m 18.61318,-5.88965 c -0.39881,-1.03931 0.18605,-2.23931 1.29973,-2.66667 2.96576,-1.13807 3.1401,-1.03316 3.1401,1.88965 0,3.04304 -3.34559,3.62855 -4.43983,0.77702 z m 9.33333,-2.66667 c -0.39881,-1.03931 0.18606,-2.23931 1.29974,-2.66667 2.96576,-1.13806 3.14009,-1.03316 3.14009,1.88966 0,3.04304 -3.34559,3.62854 -4.43983,0.77701 z m 9.27163,-2.82748 c -0.45309,-1.18075 0.0763,-2.38171 1.24819,-2.83139 2.60881,-1.0011 3.79929,0.20264 2.79324,2.82435 -1.01212,2.63756 -3.03066,2.64107 -4.04143,0.007 z m 9.25431,-2.8726 c -1.04172,-2.71469 -1.05651,-2.68649 1.79889,-3.43319 1.69852,-0.44417 2.76123,0.13407 3.17843,1.72948 0.78033,2.98398 -3.8746,4.57734 -4.97732,1.70371 z m 9.3805,-2.54373 c -1.4016,-3.65252 -0.87568,-4.72982 2.09562,-4.2926 3.85898,0.56782 4.5668,3.23973 1.31874,4.97804 -2.03557,1.0894 -2.79152,0.93764 -3.41436,-0.68544 z m 9.42228,-1.4221 c -0.48889,-0.48888 -0.88889,-1.98888 -0.88889,-3.33333 0,-3.07969 5.07645,-3.33195 6.23613,-0.30988 1.09268,2.84747 -3.21088,5.77957 -5.34724,3.64321 z m 9.33334,-2.66666 c -1.68592,-1.68591 -0.88308,-5.49471 1.33784,-6.34695 2.20958,-0.84789 4.38025,1.16249 4.41952,4.09319 0.0107,0.83821 -0.92865,1.88821 -2.08864,2.33333 -2.61144,1.00211 -2.58651,1.00265 -3.66872,-0.0796 z m 9.18831,-2.81168 c -1.52858,-1.52859 -0.66899,-5.37619 1.37645,-6.16111 2.80195,-1.0752 4.54635,0.1212 4.54635,3.1182 0,2.33368 -4.38115,4.58455 -5.9228,3.04291 z m 8.83006,-5.9661 c 0.27966,-1.96909 1.34243,-3 3.09274,-3 1.7503,0 2.81308,1.03091 3.09273,3 0.34951,2.46091 -0.20625,3 -3.09273,3 -2.88648,0 -3.44224,-0.53909 -3.09274,-3 z m 10.04568,-2.3106 c -0.42573,-1.62802 0.20594,-2.68144 1.86862,-3.11624 1.77289,-0.46362 2.51177,0.0489 2.51177,1.74235 0,3.32333 -3.57719,4.44532 -4.38039,1.37389 z m 9.2739,-3.24572 c -0.39882,-1.0393 0.18605,-2.2393 1.29973,-2.66666 2.96576,-1.13807 3.14009,-1.03316 3.14009,1.88965 0,3.04304 -3.34558,3.62855 -4.43982,0.77701 z m 9.27162,-2.82748 c -0.45309,-1.18074 0.0764,-2.3817 1.24819,-2.83138 2.60881,-1.00111 3.79929,0.20264 2.79324,2.82434 -1.01212,2.63756 -3.03065,2.64107 -4.04143,0.007 z m 9.33334,-2.66666 c -0.4531,-1.18075 0.0764,-2.38171 1.24818,-2.83139 2.60882,-1.00111 3.7993,0.20264 2.79324,2.82435 -1.01212,2.63756 -3.03065,2.64106 -4.04142,0.007 z m 9.27854,-2.80944 c -1.13806,-2.96576 -1.03316,-3.1401 1.88966,-3.1401 1.46666,0 2.66666,0.83582 2.66666,1.85735 0,2.66627 -3.63293,3.68905 -4.55632,1.28275 z m 9.28818,-2.78435 c -0.4522,-1.1784 -0.0519,-2.63133 0.88965,-3.22873 2.69468,-1.70982 3.71183,-1.327 3.71183,1.397 0,3.24133 -3.5225,4.64353 -4.60148,1.83173 z M 33.562357,301.06074 c 0,-4.76666 0.241994,-6.71666 0.537763,-4.33333 0.295768,2.38333 0.295768,6.28333 0,8.66667 -0.295769,2.38333 -0.537763,0.43333 -0.537763,-4.33334 z m 396.906583,3.48885 c 0,-4.22454 4.8734,-5.7051 6.09631,-1.8521 0.51833,1.63315 0.14234,3.1482 -0.95363,3.84263 -3.19555,2.0248 -5.14268,1.27113 -5.14268,-1.99053 z m 10.22223,-0.37774 c -1.68592,-1.68591 -0.88308,-5.49471 1.33784,-6.34695 2.20958,-0.84789 4.38025,1.1625 4.41952,4.09319 0.0107,0.83821 -0.92866,1.88822 -2.08864,2.33334 -2.61144,1.0021 -2.58651,1.00265 -3.66872,-0.0796 z m 8.51014,-4.88135 c -0.85354,-2.2372 -0.50861,-3.18065 1.51551,-4.1452 1.88987,-0.90057 2.95853,-0.71468 3.8326,0.66667 1.93771,3.06229 1.45603,4.88463 -1.49509,5.65636 -1.98103,0.51805 -3.05636,-0.0897 -3.85302,-2.17783 z M 32.28292,273.06074 c 0,-6.96666 0.224727,-9.81666 0.499391,-6.33333 0.274665,3.48333 0.274665,9.18333 0,12.66667 -0.274664,3.48333 -0.499391,0.63333 -0.499391,-6.33334 z m 84.9207,-51.52065 C 80.311485,201.47645 49.687033,185.06074 49.149285,185.06074 c -0.537748,0 -5.110817,-2.27268 -10.162375,-5.0504 l -9.184651,-5.0504 0.448868,22.71707 c 0.246877,12.49438 0.171678,22.41707 -0.167108,22.0504 -0.338786,-0.36667 -1.032645,-13.26667 -1.541907,-28.66667 l -0.925932,-28 11.093039,-3.08367 C 52.761194,156.07089 411.64208,42.964819 430.46894,36.508813 c 11.84611,-4.062206 14.55729,-4.57212 17.62233,-3.314381 1.99228,0.817534 3.94646,2.507657 4.3426,3.755828 1.03435,3.258922 6.09456,126.93552 5.24951,128.30285 -0.38784,0.62754 -1.56975,1.14096 -2.62647,1.14096 -1.48658,0 -1.94492,-2.1872 -2.02566,-9.66666 -0.0575,-5.31667 -1.1074,-33.36043 -2.33334,-62.319473 l -2.22897,-52.652802 -6.52921,10.6528 c -3.59108,5.85904 -7.21624,11.2528 -8.05592,11.986134 -0.83968,0.733333 -20.98085,32.347169 -44.75813,70.252971 -39.38001,62.7797 -46.25023,72.59801 -48.92659,69.92163 -0.21246,-0.21245 18.55458,-30.59732 41.70453,-67.52191 23.14996,-36.92459 43.292,-69.490102 44.76009,-72.367806 1.46809,-2.877704 5.36152,-9.432382 8.65206,-14.565951 3.29053,-5.13357 5.79612,-9.507938 5.56798,-9.720818 -0.22814,-0.21288 -5.51481,1.099938 -11.74814,2.917375 -23.35898,6.810711 -372.832021,116.79185 -376.666684,118.53913 -2.2,1.00242 -7.6,2.91532 -12,4.25085 l -8.000001,2.42825 6.666667,3.81066 c 3.666667,2.09585 9.666667,5.70561 13.333334,8.02168 3.666667,2.31608 35.915502,20.0712 71.664074,39.45582 35.74858,19.38465 64.99858,35.62482 65.00001,36.08929 0.012,4.01878 -11.20494,-1.3404 -71.92939,-34.36515 z M 30.9559,240.39408 c 0.0035,-7.33334 0.227376,-10.16323 0.497564,-6.28864 0.270189,3.87458 0.267349,9.87458 -0.0063,13.33333 -0.273705,3.45875 -0.494769,0.28864 -0.491297,-7.04469 z"
     style="fill:#0a0c0c;stroke-width:1.33333337" />
  <circle
     style="fill:#ff0000;stroke:#000000;stroke-opacity:1"
     id="path28"
     cx="460.57751"
     cy="295.84924"
     r="13.579097" />
  <circle
     style="fill:#ff0000;stroke:#000000;stroke-opacity:1"
     id="path28-3"
     cx="446.05057"
     cy="37.105816"
     r="13.579097" />
  <circle
     style="fill:#ff0000;stroke:#000000;stroke-opacity:1"
     id="path28-6"
     cx="454.77951"
     cy="171.53203"
     r="13.579097" />
  <circle
     style="fill:#ff0000;stroke:#000000;stroke-opacity:1"
     id="path28-7"
     cx="284.56454"
     cy="443.87601"
     r="13.579097" />
  <circle
     style="fill:#ff0000;stroke:#000000;stroke-opacity:1"
     id="path28-5"
     cx="278.45425"
     cy="301.59372"
     r="13.579097"
     inkscape:transform-center-x="-68.958894"
     inkscape:transform-center-y="160.61312" />
  <circle
     style="fill:#ff0000;stroke:#000000;stroke-opacity:1"
     id="path28-35"
     cx="27.059805"
     cy="167.16753"
     r="13.579097"
     inkscape:transform-center-x="-276.70847"
     inkscape:transform-center-y="89.035534" />
  <circle
     style="fill:#ff0000;stroke:#000000;stroke-opacity:1"
     id="path28-62"
     cx="30.551411"
     cy="312.06851"
     r="13.579097"
     inkscape:transform-center-x="-29.678511"
     inkscape:transform-center-y="-59.357023" />
  <circle
     style="fill:#ff0000;stroke:#000000;stroke-opacity:1"
     id="path28-9"
     cx="36.815998"
     cy="426.93845"
     r="13.579097" />
  <circle
     style="fill:#ff0000;stroke:#000000;stroke-opacity:1"
     id="path28-1"
     cx="289.80191"
     cy="560.84424"
     r="13.579097" />
  <text
     xml:space="preserve"
     style="font-style:normal;font-weight:normal;font-size:40px;line-height:1.25;font-family:sans-serif;letter-spacing:0px;word-spacing:0px;fill:#000000;fill-opacity:1;stroke:none"
     x="29.678511"
     y="483.1564"
     id="text4604"><tspan
       sodipodi:role="line"
       id="tspan4602"
       x="29.678511"
       y="483.1564">1</tspan></text>
  <text
     xml:space="preserve"
     style="font-style:normal;font-weight:normal;font-size:40px;line-height:1.25;font-family:sans-serif;letter-spacing:0px;word-spacing:0px;fill:#000000;fill-opacity:1;stroke:none"
     x="316.87903"
     y="578.04303"
     id="text4604-7"><tspan
       sodipodi:role="line"
       id="tspan4602-0"
       x="316.87903"
       y="578.04303">2</tspan></text>
  <text
     xml:space="preserve"
     style="font-style:normal;font-weight:normal;font-size:40px;line-height:1.25;font-family:sans-serif;letter-spacing:0px;word-spacing:0px;fill:#000000;fill-opacity:1;stroke:none"
     x="479.23795"
     y="334.50461"
     id="text4604-9"><tspan
       sodipodi:role="line"
       id="tspan4602-3"
       x="479.23795"
       y="334.50461">3</tspan></text>
  <text
     xml:space="preserve"
     style="font-style:normal;font-weight:normal;font-size:40px;line-height:1.25;font-family:sans-serif;letter-spacing:0px;word-spacing:0px;fill:#000000;fill-opacity:1;stroke:none"
     x="300.15005"
     y="317.04669"
     id="text4604-6"><tspan
       sodipodi:role="line"
       id="tspan4602-06"
       x="300.15005"
       y="317.04669">5</tspan></text>
  <text
     xml:space="preserve"
     style="font-style:normal;font-weight:normal;font-size:40px;line-height:1.25;font-family:sans-serif;letter-spacing:0px;word-spacing:0px;fill:#000000;fill-opacity:1;stroke:none"
     x="27.950005"
     y="140.72144"
     id="text4604-2"><tspan
       sodipodi:role="line"
       id="tspan4602-6"
       x="27.950005"
       y="140.72144">4</tspan></text>
  <text
     xml:space="preserve"
     style="font-style:normal;font-weight:normal;font-size:40px;line-height:1.25;font-family:sans-serif;letter-spacing:0px;word-spacing:0px;fill:#000000;fill-opacity:1;stroke:none"
     x="465.27161"
     y="47.321407"
     id="text4604-1"><tspan
       sodipodi:role="line"
       id="tspan4602-8"
       x="465.27161"
       y="47.321407">6</tspan></text>
  <text
     xml:space="preserve"
     style="font-style:normal;font-weight:normal;font-size:40px;line-height:1.25;font-family:sans-serif;letter-spacing:0px;word-spacing:0px;fill:#000000;fill-opacity:1;stroke:none"
     x="54.136955"
     y="313.55511"
     id="text4604-79"><tspan
       sodipodi:role="line"
       id="tspan4602-2"
       x="54.136955"
       y="313.55511">7</tspan></text>
  <text
     xml:space="preserve"
     style="font-style:normal;font-weight:normal;font-size:40px;line-height:1.25;font-family:sans-serif;letter-spacing:0px;word-spacing:0px;fill:#000000;fill-opacity:1;stroke:none"
     x="303.78558"
     y="436.63367"
     id="text4604-0"><tspan
       sodipodi:role="line"
       id="tspan4602-23"
       x="303.78558"
       y="436.63367">8</tspan></text>
  <text
     xml:space="preserve"
     style="font-style:normal;font-weight:normal;font-size:40px;line-height:1.25;font-family:sans-serif;letter-spacing:0px;word-spacing:0px;fill:#000000;fill-opacity:1;stroke:none"
     x="466.14447"
     y="153.81488"
     id="text4604-75"><tspan
       sodipodi:role="line"
       id="tspan4602-9"
       x="466.14447"
       y="153.81488">9</tspan></text>
  <text
     xml:space="preserve"
     style="font-style:normal;font-weight:normal;font-size:40px;line-height:1.25;font-family:sans-serif;letter-spacing:0px;word-spacing:0px;fill:#000000;fill-opacity:1;stroke:none"
     x="404.18457"
     y="525.93286"
     id="text4604-7-2"><tspan
       sodipodi:role="line"
       id="tspan4602-0-2"
       x="404.18457"
       y="525.93286">r<tspan
   style="font-size:64.99999762%;baseline-shift:super"
   id="tspan851" /></tspan></text>
  <text
     xml:space="preserve"
     style="font-style:normal;font-weight:normal;font-size:40px;line-height:1.25;font-family:sans-serif;letter-spacing:0px;word-spacing:0px;fill:#000000;fill-opacity:1;stroke:none"
     x="502.20895"
     y="202.60477"
     id="text4604-7-2-8"><tspan
       sodipodi:role="line"
       id="tspan4602-0-2-9"
       x="502.20895"
       y="202.60477">s</tspan></text>
  <text
     xml:space="preserve"
     style="font-style:normal;font-weight:normal;font-size:40px;line-height:1.25;font-family:sans-serif;letter-spacing:0px;word-spacing:0px;fill:#000000;fill-opacity:1;stroke:none"
     x="43.064949"
     y="70.797256"
     id="text4604-7-2-7"><tspan
       sodipodi:role="line"
       id="tspan4602-0-2-3"
       x="43.064949"
       y="70.797256">z</tspan></text>
</svg>
