<?xml version="1.0" encoding="UTF-8" standalone="no"?>
<!-- Created with Inkscape (http://www.inkscape.org/) -->

<svg
   xmlns:dc="http://purl.org/dc/elements/1.1/"
   xmlns:cc="http://creativecommons.org/ns#"
   xmlns:rdf="http://www.w3.org/1999/02/22-rdf-syntax-ns#"
   xmlns:svg="http://www.w3.org/2000/svg"
   xmlns="http://www.w3.org/2000/svg"
   xmlns:sodipodi="http://sodipodi.sourceforge.net/DTD/sodipodi-0.dtd"
   xmlns:inkscape="http://www.inkscape.org/namespaces/inkscape"
   version="1.1"
   id="svg2"
   xml:space="preserve"
   width="508.26611"
   height="388.92117"
   viewBox="0 0 508.2661 388.92117"
   sodipodi:docname="scordelis.svg"
   inkscape:version="0.92.5 (2060ec1f9f, 2020-04-08)"><metadata
     id="metadata8"><rdf:RDF><cc:Work
         rdf:about=""><dc:format>image/svg+xml</dc:format><dc:type
           rdf:resource="http://purl.org/dc/dcmitype/StillImage" /><dc:title></dc:title></cc:Work></rdf:RDF></metadata><defs
     id="defs6"><clipPath
   clipPathUnits="userSpaceOnUse"
   id="clipPath78"><path
     d="M 0,0 H 388 V 294 H 0 Z"
     id="path76"
     inkscape:connector-curvature="0" /></clipPath><clipPath
   clipPathUnits="userSpaceOnUse"
   id="clipPath152"><path
     d="M 0,0 V 2940 H 3880 V 0 Z m 692.795,2384.08 v 23.3 h -67.399 l 47.242,-11.97 -47.242,-11.33 z"
     id="path150"
     inkscape:connector-curvature="0" /></clipPath><clipPath
   clipPathUnits="userSpaceOnUse"
   id="clipPath166"><path
     d="M 0,0 V 2940 H 3880 V 0 Z m 137.854,2275.73 13.857,-18.89 54.801,38.42 -44.722,-17.64 31.495,37.17 z"
     id="path164"
     inkscape:connector-curvature="0" /></clipPath><clipPath
   clipPathUnits="userSpaceOnUse"
   id="clipPath180"><path
     d="M 0,0 V 2940 H 3880 V 0 Z m 341.311,2758.24 h -23.306 v -66.77 l 11.968,46.61 11.338,-46.61 z"
     id="path178"
     inkscape:connector-curvature="0" /></clipPath><clipPath
   clipPathUnits="userSpaceOnUse"
   id="clipPath194"><path
     d="M 0,0 V 2940 H 3880 V 0 Z m 1844.88,1296.87 -8.82,-21.42 61.73,-25.19 -39.05,28.34 47.87,-6.3 z"
     id="path192"
     inkscape:connector-curvature="0" /></clipPath><clipPath
   clipPathUnits="userSpaceOnUse"
   id="clipPath208"><path
     d="M 0,0 V 2940 H 3880 V 0 Z m 3506.56,2377.78 -17.64,15.12 -43.46,-51.03 39.68,27.72 -22.04,-43.46 z"
     id="path206"
     inkscape:connector-curvature="0" /></clipPath><clipPath
   clipPathUnits="userSpaceOnUse"
   id="clipPath222"><path
     d="m 0,0 v 1494 h 1 v -1 h 1 v -1 h 1 v -2 h 1 v -1 h 1 v -1 h 1 v -2 h 1 v -1 h 1 v -2 h 1 v -1 h 1 v -1 h 1 v -2 h 2 v 1 h 2 v 1 h 1 v 1 h 2 v 1 h 1 v 1 h 2 v 1 h 1 v 1 h 1 v 1 h 2 v 1 h 1 v 1 h 2 v 1 h 1 v 1 h 2 v 1 h 1 v 1 h 2 v 1 h 1 v 1 h 2 v 1 h 1 v 1 h 1 v 1 h 2 v 1 h 1 v 1 h 2 v 1 h 1 v 1 h 2 v 1 h 1 v 1 h 2 v 1 h 1 v 1 h 1 v 1 h 2 v 1 h 1 v 1 h 2 v 1 h 1 v 1 h 2 v 1 h -2 v -1 h -2 v -1 h -3 v -1 h -2 v -1 h -3 v -1 h -2 v -1 h -3 v -1 h -2 v -1 h -3 v -1 h -2 v -1 h -3 v -1 h -2 v -1 h -3 v -1 h -3 v -1 h -2 v -1 h -2 v 1 h 1 v 2 h 1 v 1 h 1 v 1 h 1 v 1 h 1 v 1 h 1 v 1 h 1 v 2 h 1 v 1 h 1 v 1 h 1 v 1 h 1 v 1 h 1 v 2 h 1 v 1 h 1 v 1 h 1 v 1 h 1 v 1 h 1 v 1 h 1 v 2 h 1 v 1 h 1 v 1 h 1 v 1 h 1 v 1 h 1 v 2 h 1 v 1 h 1 v 1 h 1 v 1 h 1 v 1 h 1 v 1 h -1 v -1 h -1 v -1 h -2 v -1 h -1 v -1 h -2 v -1 h -1 v -1 h -1 v -1 h -2 v -1 h -1 v -1 h -2 v -1 h -1 v -1 h -2 v -1 h -1 v -1 h -2 v -1 h -1 v -1 h -1 v -1 h -2 v -1 h -1 v -1 h -2 v -1 h -1 v -1 h -2 v -1 h -1 v -1 h -2 v -1 h -1 v -1 h -1 v -1 h -2 v -1 h -1 v -1 H 9 v -1 H 8 v -1 H 6 v -1 H 5 v -1 H 3 v -1 H 2 v -1 H 1 v -1 H 0 V 2940 H 3880 V 0 Z m 1744,2692 v -1 h 1 v 1 h 2 v 1 h 1 v 1 h 1 v 1 h 2 v 1 h 1 v 1 h 2 v 1 h 1 v 1 h 2 v 1 h 1 v 1 h 2 v 1 h 1 v 1 h 1 v 1 h 2 v 1 h 1 v 1 h 2 v 1 h 1 v 1 h 2 v 1 h 1 v 1 h 2 v 1 h 1 v 1 h 1 v 1 h 2 v 1 h 1 v 1 h 2 v 1 h 1 v 1 h 2 v 1 h 1 v 1 h 2 v 1 h 1 v 1 h 1 v 1 h 2 v 1 h 1 v 1 h 2 v 2 h -1 v 2 h -1 v 1 h -1 v 1 h -1 v 2 h -1 v 1 h -1 v 2 h -1 v 1 h -1 v 1 h -1 v 2 h -1 v 1 h -1 v 1 h -1 v 2 h -1 v -1 h -1 v -1 h -2 v -1 h -1 v -1 h -2 v -1 h -1 v -1 h -2 v -1 h -1 v -1 h -2 v -1 h -1 v -1 h -1 v -1 h -2 v -1 h -1 v -1 h -2 v -1 h -1 v -1 h -2 v -1 h -1 v -1 h -2 v -1 h -1 v -1 h -2 v -1 h -1 v -1 h -1 v -1 h -2 v -1 h -1 v -1 h -2 v -1 h -1 v -1 h -2 v -1 h -1 v -1 h -2 v -1 h -1 v -1 h -1 v -1 h -2 v -1 h -1 v -1 h 2 v 1 h 3 v 1 h 2 v 1 h 3 v 1 h 3 v 1 h 2 v 1 h 3 v 1 h 3 v 1 h 2 v 1 h 3 v 1 h 3 v 1 h 2 v 1 h 3 v 1 h 4 v -1 h -1 v -1 h -1 v -1 h -1 v -1 h -1 v -1 h -1 v -1 h -1 v -2 h -1 v -1 h -1 v -1 h -1 v -1 h -1 v -1 h -1 v -1 h -1 v -1 h -1 v -2 h -1 v -1 h -1 v -1 h -1 v -1 h -1 v -1 h -1 v -1 h -1 v -1 h -1 v -1 h -1 v -2 h -1 v -1 h -1 v -1 h -1 v -1 h -1 v -1 h -1 v -1 h -1 v -1 z m -12,18 v -1 h 1 v 1 z"
     id="path220"
     inkscape:connector-curvature="0" /></clipPath><clipPath
   clipPathUnits="userSpaceOnUse"
   id="clipPath256"><path
     d="M 0,0 V 2940 H 3880 V 0 Z m 1158.92,343.831 15.12,18.267 -52.28,41.573 29.6,-39.054 -44.09,20.787 z m -216.054,115.901 -2.52,-23.306 66.144,-7.559 -45.357,16.377 47.877,6.929 z"
     id="path254"
     inkscape:connector-curvature="0" /></clipPath><clipPath
   clipPathUnits="userSpaceOnUse"
   id="clipPath454"><path
     d="M 0,0 H 475 V 122 H 0 Z"
     id="path452"
     inkscape:connector-curvature="0" /></clipPath>




























</defs><sodipodi:namedview
     pagecolor="#ffffff"
     bordercolor="#666666"
     borderopacity="1"
     objecttolerance="10"
     gridtolerance="10"
     guidetolerance="10"
     inkscape:pageopacity="0"
     inkscape:pageshadow="2"
     inkscape:window-width="2560"
     inkscape:window-height="1380"
     id="namedview4"
     showgrid="false"
     fit-margin-top="0"
     fit-margin-left="0"
     fit-margin-right="0"
     fit-margin-bottom="0"
     inkscape:zoom="0.84100751"
     inkscape:cx="-421.84333"
     inkscape:cy="368.97034"
     inkscape:window-x="1920"
     inkscape:window-y="0"
     inkscape:window-maximized="1"
     inkscape:current-layer="g64" /><g
     id="g10"
     inkscape:groupmode="layer"
     inkscape:label="coque3d"
     transform="matrix(1.3333333,0,0,-1.3333333,-266.68519,-153.35171)"><g
       id="g50"
       transform="translate(489.425,-72.278)" /><g
       transform="translate(267.772,-72.278)"
       id="g54"><g
         id="g56" /><g
         transform="translate(226.137)"
         id="g60"><g
           transform="translate(-493.909,-31.881)"
           id="g62"><g
             transform="translate(188.874,-303.607)"
             id="g64"><g
               id="g70"
               transform="translate(9.962)"><g
                 id="g72"><g
                   clip-path="url(#clipPath78)"
                   id="g74"><g
                     transform="scale(0.1)"
                     id="g80"><g
                       id="g82"><path
                         inkscape:connector-curvature="0"
                         id="path84"
                         style="fill:none;stroke:#000000;stroke-width:4.72424984;stroke-linecap:butt;stroke-linejoin:miter;stroke-miterlimit:10;stroke-dasharray:none;stroke-opacity:1"
                         d="m 65.1941,1423.75 c 262.0779,172.81 569.1029,264.92 883.0259,264.92 313.93,0 620.95,-92.12 883.03,-264.93" /><path
                         inkscape:connector-curvature="0"
                         id="path86"
                         style="fill:none;stroke:#000000;stroke-width:4.72424984;stroke-linecap:butt;stroke-linejoin:miter;stroke-miterlimit:10;stroke-dasharray:none;stroke-opacity:1"
                         d="m 1832.34,2660.42 c 261.9,172.69 568.72,264.74 882.43,264.74 313.72,0 620.54,-92.05 882.45,-264.75" /><path
                         inkscape:connector-curvature="0"
                         id="path88"
                         style="fill:none;stroke:#000000;stroke-width:4.72424984;stroke-linecap:butt;stroke-linejoin:miter;stroke-miterlimit:10;stroke-dasharray:none;stroke-opacity:1"
                         d="m 948.891,2042.69 c 262.109,172.17 568.849,263.91 882.449,263.91 313.6,0 620.35,-91.74 882.45,-263.91" /><path
                         inkscape:connector-curvature="0"
                         id="path90"
                         style="fill:none;stroke:#000000;stroke-width:4.72424984;stroke-linecap:butt;stroke-linejoin:miter;stroke-miterlimit:10;stroke-dasharray:9.4485, 28.3455;stroke-dashoffset:28.34550095;stroke-opacity:1"
                         d="M 947.905,1688.67 V 10.6133" /><path
                         inkscape:connector-curvature="0"
                         id="path92"
                         style="fill:none;stroke:#000000;stroke-width:4.72424984;stroke-linecap:butt;stroke-linejoin:miter;stroke-miterlimit:10;stroke-dasharray:none;stroke-opacity:1"
                         d="M 64.7849,1423.48 1831.65,2659.97" /><path
                         inkscape:connector-curvature="0"
                         id="path94"
                         style="fill:none;stroke:#000000;stroke-width:4.72424984;stroke-linecap:butt;stroke-linejoin:miter;stroke-miterlimit:10;stroke-dasharray:none;stroke-opacity:1"
                         d="M 947.905,1688.67 2714.77,2925.16" /><path
                         inkscape:connector-curvature="0"
                         id="path96"
                         style="fill:none;stroke:#000000;stroke-width:4.72424984;stroke-linecap:butt;stroke-linejoin:miter;stroke-miterlimit:10;stroke-dasharray:none;stroke-opacity:1"
                         d="M 1831.65,1423.48 3597.89,2659.97" /><path
                         inkscape:connector-curvature="0"
                         id="path98"
                         style="fill:none;stroke:#000000;stroke-width:4.72424984;stroke-linecap:butt;stroke-linejoin:miter;stroke-miterlimit:10;stroke-dasharray:9.4485, 28.3455;stroke-dashoffset:28.34550095;stroke-opacity:1"
                         d="M 64.7849,1423.48 947.905,10.6133 1831.65,1423.48" /><path
                         inkscape:connector-curvature="0"
                         id="path100"
                         style="fill:none;stroke:#000000;stroke-width:4.72424984;stroke-linecap:butt;stroke-linejoin:miter;stroke-miterlimit:10;stroke-dasharray:none;stroke-opacity:1"
                         d="M 64.7849,1423.48 V 1158.92 H 1831.65 v 264.56" /><path
                         inkscape:connector-curvature="0"
                         id="path102"
                         style="fill:none;stroke:#000000;stroke-width:4.72424984;stroke-linecap:butt;stroke-linejoin:miter;stroke-miterlimit:10;stroke-dasharray:none;stroke-opacity:1"
                         d="m 152.971,1158.92 v 318.1" /><path
                         inkscape:connector-curvature="0"
                         id="path104"
                         style="fill:none;stroke:#000000;stroke-width:4.72424984;stroke-linecap:butt;stroke-linejoin:miter;stroke-miterlimit:10;stroke-dasharray:none;stroke-opacity:1"
                         d="m 241.787,1158.92 v 371.01" /><path
                         inkscape:connector-curvature="0"
                         id="path106"
                         style="fill:none;stroke:#000000;stroke-width:4.72424984;stroke-linecap:butt;stroke-linejoin:miter;stroke-miterlimit:10;stroke-dasharray:none;stroke-opacity:1"
                         d="m 329.973,1158.92 v 406.29" /><path
                         inkscape:connector-curvature="0"
                         id="path108"
                         style="fill:none;stroke:#000000;stroke-width:4.72424984;stroke-linecap:butt;stroke-linejoin:miter;stroke-miterlimit:10;stroke-dasharray:none;stroke-opacity:1"
                         d="m 418.159,1158.92 v 441.56" /><path
                         inkscape:connector-curvature="0"
                         id="path110"
                         style="fill:none;stroke:#000000;stroke-width:4.72424984;stroke-linecap:butt;stroke-linejoin:miter;stroke-miterlimit:10;stroke-dasharray:none;stroke-opacity:1"
                         d="m 506.345,1158.92 1.26,468.65" /><path
                         inkscape:connector-curvature="0"
                         id="path112"
                         style="fill:none;stroke:#000000;stroke-width:4.72424984;stroke-linecap:butt;stroke-linejoin:miter;stroke-miterlimit:10;stroke-dasharray:none;stroke-opacity:1"
                         d="m 595.161,1158.92 0.63,491.95" /><path
                         inkscape:connector-curvature="0"
                         id="path114"
                         style="fill:none;stroke:#000000;stroke-width:4.72424984;stroke-linecap:butt;stroke-linejoin:miter;stroke-miterlimit:10;stroke-dasharray:none;stroke-opacity:1"
                         d="m 683.347,1158.92 v 512.11" /><path
                         inkscape:connector-curvature="0"
                         id="path116"
                         style="fill:none;stroke:#000000;stroke-width:4.72424984;stroke-linecap:butt;stroke-linejoin:miter;stroke-miterlimit:10;stroke-dasharray:none;stroke-opacity:1"
                         d="m 772.163,1672.29 -0.63,-513.37" /><path
                         inkscape:connector-curvature="0"
                         id="path118"
                         style="fill:none;stroke:#000000;stroke-width:4.72424984;stroke-linecap:butt;stroke-linejoin:miter;stroke-miterlimit:10;stroke-dasharray:none;stroke-opacity:1"
                         d="M 859.719,1688.67 V 1158.92" /><path
                         inkscape:connector-curvature="0"
                         id="path120"
                         style="fill:none;stroke:#000000;stroke-width:4.72424984;stroke-linecap:butt;stroke-linejoin:miter;stroke-miterlimit:10;stroke-dasharray:none;stroke-opacity:1"
                         d="m 1037.35,1688.04 -0.63,-529.12" /><path
                         inkscape:connector-curvature="0"
                         id="path122"
                         style="fill:none;stroke:#000000;stroke-width:4.72424984;stroke-linecap:butt;stroke-linejoin:miter;stroke-miterlimit:10;stroke-dasharray:none;stroke-opacity:1"
                         d="m 1125.54,1676.7 -0.63,-517.78" /><path
                         inkscape:connector-curvature="0"
                         id="path124"
                         style="fill:none;stroke:#000000;stroke-width:4.72424984;stroke-linecap:butt;stroke-linejoin:miter;stroke-miterlimit:10;stroke-dasharray:none;stroke-opacity:1"
                         d="m 1213.72,1666.62 -0.63,-507.7" /><path
                         inkscape:connector-curvature="0"
                         id="path126"
                         style="fill:none;stroke:#000000;stroke-width:4.72424984;stroke-linecap:butt;stroke-linejoin:miter;stroke-miterlimit:10;stroke-dasharray:none;stroke-opacity:1"
                         d="m 1302.54,1648.98 -1.26,-490.06" /><path
                         inkscape:connector-curvature="0"
                         id="path128"
                         style="fill:none;stroke:#000000;stroke-width:4.72424984;stroke-linecap:butt;stroke-linejoin:miter;stroke-miterlimit:10;stroke-dasharray:none;stroke-opacity:1"
                         d="m 1390.09,1618.12 v -459.2" /><path
                         inkscape:connector-curvature="0"
                         id="path130"
                         style="fill:none;stroke:#000000;stroke-width:4.72424984;stroke-linecap:butt;stroke-linejoin:miter;stroke-miterlimit:10;stroke-dasharray:none;stroke-opacity:1"
                         d="m 1478.91,1599.85 -0.63,-440.93" /><path
                         inkscape:connector-curvature="0"
                         id="path132"
                         style="fill:none;stroke:#000000;stroke-width:4.72424984;stroke-linecap:butt;stroke-linejoin:miter;stroke-miterlimit:10;stroke-dasharray:none;stroke-opacity:1"
                         d="M 1566.47,1565.21 V 1158.92" /><path
                         inkscape:connector-curvature="0"
                         id="path134"
                         style="fill:none;stroke:#000000;stroke-width:4.72424984;stroke-linecap:butt;stroke-linejoin:miter;stroke-miterlimit:10;stroke-dasharray:none;stroke-opacity:1"
                         d="m 1655.91,1523.63 -1.26,-364.71" /><path
                         inkscape:connector-curvature="0"
                         id="path136"
                         style="fill:none;stroke:#000000;stroke-width:4.72424984;stroke-linecap:butt;stroke-linejoin:miter;stroke-miterlimit:10;stroke-dasharray:none;stroke-opacity:1"
                         d="m 1743.47,1477.02 v -318.1" /><path
                         inkscape:connector-curvature="0"
                         id="path138"
                         style="fill:none;stroke:#000000;stroke-width:4.72424984;stroke-linecap:butt;stroke-linejoin:miter;stroke-miterlimit:10;stroke-dasharray:none;stroke-opacity:1"
                         d="M 3597.89,2659.97 V 2395.41 H 3226.88" /><path
                         inkscape:connector-curvature="0"
                         id="path140"
                         style="fill:none;stroke:#000000;stroke-width:4.72424984;stroke-linecap:butt;stroke-linejoin:miter;stroke-miterlimit:10;stroke-dasharray:none;stroke-opacity:1"
                         d="m 3509.71,2395.41 v 194.01" /><path
                         inkscape:connector-curvature="0"
                         id="path142"
                         style="fill:none;stroke:#000000;stroke-width:4.72424984;stroke-linecap:butt;stroke-linejoin:miter;stroke-miterlimit:10;stroke-dasharray:none;stroke-opacity:1"
                         d="m 3421.52,2395.41 v 141.1" /><path
                         inkscape:connector-curvature="0"
                         id="path144"
                         style="fill:none;stroke:#000000;stroke-width:4.72424984;stroke-linecap:butt;stroke-linejoin:miter;stroke-miterlimit:10;stroke-dasharray:none;stroke-opacity:1"
                         d="m 3333.34,2395.41 v 70.55" /></g><g
                       id="g146"><g
                         clip-path="url(#clipPath152)"
                         id="g148"><path
                           inkscape:connector-curvature="0"
                           id="path154"
                           style="fill:none;stroke:#000000;stroke-width:4.72424984;stroke-linecap:butt;stroke-linejoin:miter;stroke-miterlimit:10;stroke-dasharray:none;stroke-opacity:1"
                           d="M 329.973,2395.41 H 683.347" /></g></g><g
                       id="g156"><path
                         inkscape:connector-curvature="0"
                         id="path158"
                         style="fill:none;stroke:#000000;stroke-width:4.72424984;stroke-linecap:butt;stroke-linejoin:miter;stroke-miterlimit:10;stroke-dasharray:none;stroke-opacity:1"
                         d="m 625.396,2384.08 47.242,11.33 -47.242,11.97" /></g><g
                       id="g160"><g
                         clip-path="url(#clipPath166)"
                         id="g162"><path
                           inkscape:connector-curvature="0"
                           id="path168"
                           style="fill:none;stroke:#000000;stroke-width:4.72424984;stroke-linecap:butt;stroke-linejoin:miter;stroke-miterlimit:10;stroke-dasharray:none;stroke-opacity:1"
                           d="M 329.973,2395.41 152.971,2271.32" /></g></g><g
                       id="g170"><path
                         inkscape:connector-curvature="0"
                         id="path172"
                         style="fill:none;stroke:#000000;stroke-width:4.72424984;stroke-linecap:butt;stroke-linejoin:miter;stroke-miterlimit:10;stroke-dasharray:none;stroke-opacity:1"
                         d="m 193.285,2314.79 -31.495,-37.17 44.722,17.64" /></g><g
                       id="g174"><g
                         clip-path="url(#clipPath180)"
                         id="g176"><path
                           inkscape:connector-curvature="0"
                           id="path182"
                           style="fill:none;stroke:#000000;stroke-width:4.72424984;stroke-linecap:butt;stroke-linejoin:miter;stroke-miterlimit:10;stroke-dasharray:none;stroke-opacity:1"
                           d="m 329.973,2395.41 v 353.38" /></g></g><g
                       id="g184"><path
                         inkscape:connector-curvature="0"
                         id="path186"
                         style="fill:none;stroke:#000000;stroke-width:4.72424984;stroke-linecap:butt;stroke-linejoin:miter;stroke-miterlimit:10;stroke-dasharray:none;stroke-opacity:1"
                         d="m 341.311,2691.47 -11.338,46.61 -11.968,-46.61" /></g><g
                       id="g188"><g
                         clip-path="url(#clipPath194)"
                         id="g190"><path
                           inkscape:connector-curvature="0"
                           id="path196"
                           style="fill:none;stroke:#000000;stroke-width:4.72424984;stroke-linecap:butt;stroke-linejoin:miter;stroke-miterlimit:10;stroke-dasharray:none;stroke-opacity:1"
                           d="m 2379.04,1070.74 -529.75,211.64" /></g></g><g
                       id="g198"><path
                         inkscape:connector-curvature="0"
                         id="path200"
                         style="fill:none;stroke:#000000;stroke-width:4.72424984;stroke-linecap:butt;stroke-linejoin:miter;stroke-miterlimit:10;stroke-dasharray:none;stroke-opacity:1"
                         d="m 1906.61,1272.3 -47.87,6.3 39.05,-28.34" /></g><g
                       id="g202"><g
                         clip-path="url(#clipPath208)"
                         id="g204"><path
                           inkscape:connector-curvature="0"
                           id="path210"
                           style="fill:none;stroke:#000000;stroke-width:4.72424984;stroke-linecap:butt;stroke-linejoin:miter;stroke-miterlimit:10;stroke-dasharray:none;stroke-opacity:1"
                           d="M 2379.04,1070.74 3492.07,2377.78" /></g></g><g
                       id="g212"><path
                         inkscape:connector-curvature="0"
                         id="path214"
                         style="fill:none;stroke:#000000;stroke-width:4.72424984;stroke-linecap:butt;stroke-linejoin:miter;stroke-miterlimit:10;stroke-dasharray:none;stroke-opacity:1"
                         d="m 3463.1,2326.13 22.04,43.46 -39.68,-27.72" /></g><g
                       id="g216"><g
                         clip-path="url(#clipPath222)"
                         id="g218"><path
                           inkscape:connector-curvature="0"
                           id="path224"
                           style="fill:none;stroke:#000000;stroke-width:4.72424984;stroke-linecap:butt;stroke-linejoin:miter;stroke-miterlimit:10;stroke-dasharray:none;stroke-opacity:1"
                           d="M 13.1333,1492.14 1780,2728.63" /></g></g><g
                       id="g226"><path
                         inkscape:connector-curvature="0"
                         id="path228"
                         style="fill:none;stroke:#000000;stroke-width:4.72424984;stroke-linecap:butt;stroke-linejoin:miter;stroke-miterlimit:10;stroke-dasharray:none;stroke-opacity:1"
                         d="m 53.4468,1534.97 -31.4949,-37.16 44.7229,17.63" /><path
                         inkscape:connector-curvature="0"
                         id="path230"
                         style="fill:none;stroke:#000000;stroke-width:4.72424984;stroke-linecap:butt;stroke-linejoin:miter;stroke-miterlimit:10;stroke-dasharray:none;stroke-opacity:1"
                         d="m 1739.06,2686.43 32.12,36.53 -45.35,-17" /><path
                         inkscape:connector-curvature="0"
                         id="path232"
                         style="fill:none;stroke:#000000;stroke-width:4.72424984;stroke-linecap:butt;stroke-linejoin:miter;stroke-miterlimit:10;stroke-dasharray:none;stroke-opacity:1"
                         d="m 1162.07,1833.54 v -0.63 l 1.26,-1.89 3.15,-5.03 5.04,-7.56 5.67,-10.08 5.67,-9.45 5.67,-10.08 5.04,-8.19 4.41,-8.19 3.14,-6.3 3.15,-6.92 2.52,-6.3 3.15,-6.93 3.15,-8.19 2.52,-8.82 2.52,-10.08 3.15,-11.34 3.15,-12.59 2.52,-11.34 1.89,-7.56 1.26,-3.78 v -0.63" /><path
                         inkscape:connector-curvature="0"
                         id="path234"
                         style="fill:none;stroke:#000000;stroke-width:4.72424984;stroke-linecap:butt;stroke-linejoin:miter;stroke-miterlimit:10;stroke-dasharray:none;stroke-opacity:1"
                         d="m 1285.53,1921.73 v -0.63 l 1.26,-1.89 3.15,-5.67 5.04,-8.82 6.3,-11.97 6.93,-13.22 6.93,-13.86 6.93,-13.86 6.29,-12.6 5.67,-11.33 4.41,-10.71 4.41,-9.45 3.15,-10.08 3.78,-9.45 2.52,-8.19 3.15,-8.82 2.52,-9.44 2.52,-10.08 2.52,-11.34 3.15,-12.6 2.52,-13.86 3.15,-14.48 3.15,-15.12 3.15,-15.12 2.52,-14.49 1.89,-11.34 1.89,-8.18 0.63,-5.04 0.63,-1.89 v -0.63" /><path
                         inkscape:connector-curvature="0"
                         id="path236"
                         style="fill:none;stroke:#000000;stroke-width:4.72424984;stroke-linecap:butt;stroke-linejoin:miter;stroke-miterlimit:10;stroke-dasharray:none;stroke-opacity:1"
                         d="m 1406.47,2006.77 0.63,-1.89 2.52,-4.41 3.15,-7.56 5.04,-10.71 5.67,-13.23 6.93,-15.74 6.93,-16.38 7.56,-16.38 6.92,-16.38 6.3,-15.11 5.67,-14.49 5.67,-13.23 4.41,-11.97 4.41,-11.97 3.78,-10.7 3.78,-11.34 3.78,-10.71 3.15,-10.71 3.15,-11.34 3.15,-11.34 3.15,-12.59 3.15,-13.23 3.15,-14.49 3.78,-15.75 3.14,-17.63 3.78,-17.64 3.78,-18.9 3.78,-18.9 3.78,-17.63 2.52,-15.75 2.52,-12.6 1.89,-8.19 0.63,-5.04 0.63,-2.52" /><path
                         inkscape:connector-curvature="0"
                         id="path238"
                         style="fill:none;stroke:#000000;stroke-width:4.72424984;stroke-linecap:butt;stroke-linejoin:miter;stroke-miterlimit:10;stroke-dasharray:none;stroke-opacity:1"
                         d="m 1533.08,2095.58 0.63,-1.89 1.89,-4.41 3.15,-7.56 4.41,-10.7 5.67,-14.49 6.93,-17.01 7.56,-18.27 8.19,-19.52 7.55,-20.16 7.56,-18.9 6.93,-18.26 6.3,-17.64 6.3,-15.75 5.67,-15.75 4.41,-14.48 5.04,-13.86 4.41,-13.23 3.78,-13.23 3.78,-13.22 3.15,-12.6 3.78,-12.6 3.14,-12.6 3.15,-13.86 3.15,-14.48 3.78,-15.12 3.15,-16.38 3.78,-17.64 3.78,-18.89 3.78,-20.79 4.41,-20.79 3.78,-22.04 4.41,-22.05 3.78,-21.42 3.78,-20.15 3.15,-17.64 2.52,-14.49 1.89,-10.71 1.26,-7.56 0.63,-3.77 0.63,-1.89" /><path
                         inkscape:connector-curvature="0"
                         id="path240"
                         style="fill:none;stroke:#000000;stroke-width:4.72424984;stroke-linecap:butt;stroke-linejoin:miter;stroke-miterlimit:10;stroke-dasharray:none;stroke-opacity:1"
                         d="m 1654.02,2177.47 0.63,-1.89 1.89,-3.78 3.15,-6.93 5.04,-10.08 6.3,-13.85 8.19,-17.01 8.82,-18.9 9.45,-20.79 9.44,-21.41 9.45,-21.42 8.82,-20.79 8.82,-20.15 8.19,-19.53 7.56,-18.27 6.3,-17 6.3,-16.38 5.66,-15.75 5.04,-15.75 5.04,-15.11 4.41,-15.12 3.78,-15.12 3.78,-14.49 3.15,-14.48 3.78,-15.12 3.15,-15.12 3.15,-17.01 3.15,-17.63 3.15,-18.9 3.15,-20.16 3.15,-21.41 3.78,-22.68 3.15,-24.57 3.15,-25.82 3.77,-26.46 3.15,-26.45 3.15,-25.83 3.15,-24.57 2.52,-22.67 2.52,-18.9 1.26,-15.75 1.89,-11.34 0.63,-7.55 0.63,-4.41 v -1.89" /><path
                         inkscape:connector-curvature="0"
                         id="path242"
                         style="fill:none;stroke:#000000;stroke-width:4.72424984;stroke-linecap:butt;stroke-linejoin:miter;stroke-miterlimit:10;stroke-dasharray:none;stroke-opacity:1"
                         d="m 1963.3,2301.56 0.63,-1.89 1.89,-4.41 3.15,-7.56 4.41,-11.34 6.3,-14.48 6.93,-18.27 8.19,-20.79 9.45,-22.04 8.82,-23.31 8.81,-22.68 8.82,-22.04 8.19,-21.42 7.56,-19.53 6.93,-18.89 6.3,-17.64 5.67,-16.38 5.67,-15.12 4.41,-14.48 4.41,-14.49 4.4,-13.86 3.78,-13.23 3.78,-13.86 3.78,-13.22 3.78,-13.86 3.15,-14.49 3.15,-15.12 3.15,-15.11 3.78,-17.01 3.15,-17.64 3.78,-18.9 3.15,-20.15 3.78,-20.79 3.78,-21.42 3.15,-21.41 3.78,-20.79 3.15,-18.9 2.52,-17 1.88,-13.86 1.89,-10.71 1.26,-6.93 0.63,-3.78 v -1.89" /><path
                         inkscape:connector-curvature="0"
                         id="path244"
                         style="fill:none;stroke:#000000;stroke-width:4.72424984;stroke-linecap:butt;stroke-linejoin:miter;stroke-miterlimit:10;stroke-dasharray:none;stroke-opacity:1"
                         d="m 2160.46,2271.95 0.63,-1.89 1.89,-4.4 2.52,-8.19 3.78,-11.97 5.04,-14.49 6.3,-18.27 6.93,-19.52 6.3,-20.16 6.93,-20.79 6.92,-20.15 5.67,-18.27 5.67,-17.64 5.67,-16.38 4.41,-15.11 4.41,-14.49 3.78,-13.23 3.78,-12.6 3.15,-11.96 3.15,-11.97 2.52,-11.97 3.15,-12.6 2.52,-11.97 3.15,-12.59 2.52,-13.23 2.52,-14.49 3.15,-15.12 2.52,-16.38 3.14,-17 3.15,-18.27 3.15,-18.9 2.52,-18.89 3.15,-17.64 2.52,-16.38 1.89,-13.23 1.89,-10.7 1.26,-7.56 0.63,-3.78 v -1.89" /><path
                         inkscape:connector-curvature="0"
                         id="path246"
                         style="fill:none;stroke:#000000;stroke-width:4.72424984;stroke-linecap:butt;stroke-linejoin:miter;stroke-miterlimit:10;stroke-dasharray:none;stroke-opacity:1"
                         d="m 2363.29,2213.37 v -0.63 l 0.63,-1.89 1.89,-5.66 3.15,-8.82 3.78,-13.23 5.04,-15.12 5.04,-17.01 5.04,-17 5.04,-16.38 4.4,-15.12 4.41,-13.86 3.15,-12.59 3.78,-11.97 2.52,-10.71 2.52,-10.71 2.52,-10.08 1.89,-10.08 2.52,-10.07 1.89,-10.71 1.89,-11.34 1.89,-11.97 2.52,-13.86 1.89,-14.48 2.52,-15.12 1.89,-16.38 2.52,-15.75 1.89,-14.48 1.89,-11.97 0.63,-8.82 0.63,-5.04 0.63,-1.89 V 1860" /><path
                         inkscape:connector-curvature="0"
                         id="path248"
                         style="fill:none;stroke:#000000;stroke-width:4.72424984;stroke-linecap:butt;stroke-linejoin:miter;stroke-miterlimit:10;stroke-dasharray:none;stroke-opacity:1"
                         d="m 2540.29,2142.2 v -0.63 l 0.63,-2.52 1.89,-6.3 2.52,-10.08 3.15,-11.97 3.15,-12.6 3.15,-11.97 2.52,-10.7 1.89,-9.45 1.89,-8.82 1.89,-7.56 1.89,-7.56 1.89,-8.19 1.89,-8.82 1.89,-10.07 1.89,-10.71 1.89,-12.6 2.52,-13.23 1.89,-11.34 1.89,-8.82 0.63,-3.78 v -0.63" /></g><g
                       id="g250"><g
                         clip-path="url(#clipPath256)"
                         id="g252"><path
                           inkscape:connector-curvature="0"
                           id="path258"
                           style="fill:none;stroke:#000000;stroke-width:4.72424984;stroke-linecap:butt;stroke-linejoin:miter;stroke-miterlimit:10;stroke-dasharray:none;stroke-opacity:1"
                           d="m 951.054,446.504 22.677,-2.519 13.858,-1.89 15.121,-2.52 13.85,-1.889 12.6,-2.52 10.71,-2.52 9.45,-2.519 8.82,-2.52 8.19,-3.149 7.55,-3.78 8.19,-4.409 8.19,-5.039 8.82,-5.669 10.08,-7.559 11.34,-8.189 11.34,-8.818 10.7,-8.819 17.01,-13.858" /></g></g><g
                       id="g260"><path
                         inkscape:connector-curvature="0"
                         id="path262"
                         style="fill:none;stroke:#000000;stroke-width:4.72424984;stroke-linecap:butt;stroke-linejoin:miter;stroke-miterlimit:10;stroke-dasharray:none;stroke-opacity:1"
                         d="m 1009.01,452.173 -47.877,-6.929 45.357,-16.377" /><path
                         inkscape:connector-curvature="0"
                         id="path264"
                         style="fill:none;stroke:#000000;stroke-width:4.72424984;stroke-linecap:butt;stroke-linejoin:miter;stroke-miterlimit:10;stroke-dasharray:none;stroke-opacity:1"
                         d="m 1107.27,385.404 44.09,-20.787 -29.6,39.054" /><path
                         inkscape:connector-curvature="0"
                         id="path266"
                         style="fill:none;stroke:#000000;stroke-width:4.72424984;stroke-linecap:butt;stroke-linejoin:miter;stroke-miterlimit:10;stroke-dasharray:none;stroke-opacity:1"
                         d="m 1803.94,2283.92 0.63,-1.89 1.26,-3.15 2.52,-6.93 3.78,-9.44 5.04,-13.23 6.3,-16.38 6.92,-19.53 7.56,-20.78 8.19,-22.68 8.82,-22.68 8.19,-22.67 8.19,-22.68 7.56,-21.42 6.93,-20.15 6.92,-18.9 6.3,-18.27 5.04,-17 5.67,-16.38 4.41,-15.12 5.04,-15.12 3.78,-14.48 3.78,-13.86 4.41,-14.49 3.15,-14.49 3.78,-13.85 3.15,-14.49 3.78,-15.12 3.15,-15.75 3.15,-16.37 3.77,-17.64 3.15,-18.27 3.78,-19.53 3.15,-20.78 3.78,-22.05 3.78,-22.68 3.78,-23.3 3.78,-23.31 3.78,-23.3 3.78,-21.42 2.52,-19.53 2.52,-17.01 2.52,-13.85 1.26,-10.08 1.26,-6.3 0.63,-3.78 v -1.89" /></g></g></g></g></g><text
               id="text274"
               style="font-variant:normal;font-weight:normal;font-size:12.05500031px;font-family:CMMI7;-inkscape-font-specification:CMMI7;writing-mode:lr-tb;fill:#000000;fill-opacity:1;fill-rule:nonzero;stroke:none"
               transform="scale(1,-1)"
               x="114.851"
               y="-46.68"><tspan
                 id="tspan270"
                 y="-46.68"
                 x="114.851">φ</tspan><tspan
                 id="tspan272"
                 y="-244.55099"
                 x="68.927002">y</tspan></text>
<text
               id="text278"
               style="font-variant:normal;font-weight:normal;font-size:11.95499992px;font-family:Helvetica;-inkscape-font-specification:Helvetica;writing-mode:lr-tb;fill:#000000;fill-opacity:1;fill-rule:nonzero;stroke:none"
               transform="scale(1,-1)"
               x="222.63699"
               y="-96.132004"><tspan
                 id="tspan276"
                 sodipodi:role="line"
                 y="-96.132004"
                 x="222.63699 231.26851 233.92252 240.5695 247.21648 253.86346 257.72491 264.37192 271.01889 280.97739 290.27838">Diaphragms(</tspan></text>
<text
               id="text284"
               style="font-variant:normal;font-weight:normal;font-size:12.05500031px;font-family:CMMI7;-inkscape-font-specification:CMMI7;writing-mode:lr-tb;fill:#000000;fill-opacity:1;fill-rule:nonzero;stroke:none"
               transform="scale(1,-1)"
               x="294.26001"
               y="-96.132004"><tspan
                 id="tspan280"
                 y="-96.132004"
                 x="294.26001">u</tspan><tspan
                 id="tspan282"
                 y="-94.410004"
                 x="302.40201">y</tspan></text>
<text
               id="text288"
               style="font-variant:normal;font-weight:normal;font-size:12.05500031px;font-family:CMR7;-inkscape-font-specification:CMR7;writing-mode:lr-tb;fill:#000000;fill-opacity:1;fill-rule:nonzero;stroke:none"
               transform="scale(1,-1)"
               x="314.237"
               y="-96.132004"><tspan
                 id="tspan286"
                 y="-96.132004"
                 x="314.237">=</tspan></text>
<text
               id="text294"
               style="font-variant:normal;font-weight:normal;font-size:12.05500031px;font-family:CMMI7;-inkscape-font-specification:CMMI7;writing-mode:lr-tb;fill:#000000;fill-opacity:1;fill-rule:nonzero;stroke:none"
               transform="scale(1,-1)"
               x="328.729"
               y="-96.132004"><tspan
                 id="tspan290"
                 y="-96.132004"
                 x="328.729">u</tspan><tspan
                 id="tspan292"
                 y="-94.410004"
                 x="336.871">z</tspan></text>
<text
               id="text298"
               style="font-variant:normal;font-weight:normal;font-size:12.05500031px;font-family:CMR7;-inkscape-font-specification:CMR7;writing-mode:lr-tb;fill:#000000;fill-opacity:1;fill-rule:nonzero;stroke:none"
               transform="scale(1,-1)"
               x="348.36301"
               y="-96.132004"><tspan
                 id="tspan296"
                 sodipodi:role="line"
                 y="-96.132004"
                 x="348.36301 362.85312">=0</tspan></text>
<text
               id="text306"
               style="font-variant:normal;font-weight:normal;font-size:11.95499992px;font-family:Helvetica;-inkscape-font-specification:Helvetica;writing-mode:lr-tb;fill:#000000;fill-opacity:1;fill-rule:nonzero;stroke:none"
               transform="scale(1,-1)"
               x="369.72"
               y="-96.132004"><tspan
                 id="tspan300"
                 y="-96.132004"
                 x="369.72">)</tspan><tspan
                 id="tspan302"
                 sodipodi:role="line"
                 y="-195.099"
                 x="168.162 176.79352 183.44049 193.399 200.04599 206.69296 210.01645 216.66344 219.98692 222.64093 229.28792 235.93489 242.58188">Computational</tspan><tspan
                 id="tspan304"
                 sodipodi:role="line"
                 y="-182.689"
                 x="187.099 193.74599 200.39296 210.35147 216.99846 219.65247">domain</tspan></text>
<text
               id="text312"
               style="font-variant:normal;font-weight:normal;font-size:12.05500031px;font-family:CMMI7;-inkscape-font-specification:CMMI7;writing-mode:lr-tb;fill:#000000;fill-opacity:1;fill-rule:nonzero;stroke:none"
               transform="scale(1,-1)"
               x="79.510002"
               y="-207.44701"><tspan
                 id="tspan308"
                 y="-207.44701"
                 x="79.510002">L</tspan><tspan
                 id="tspan310"
                 y="-62.555"
                 x="192.588">R</tspan></text>
<text
               id="text316"
               style="font-variant:normal;font-weight:normal;font-size:12.05500031px;font-family:CMR7;-inkscape-font-specification:CMR7;writing-mode:lr-tb;fill:#000000;fill-opacity:1;fill-rule:nonzero;stroke:none"
               transform="scale(1,-1)"
               x="206.944"
               y="-62.555"><tspan
                 id="tspan314"
                 y="-62.555"
                 x="206.944">=</tspan></text>
<text
               id="text320"
               style="font-variant:normal;font-weight:normal;font-size:11.95499992px;font-family:Helvetica;-inkscape-font-specification:Helvetica;writing-mode:lr-tb;fill:#000000;fill-opacity:1;fill-rule:nonzero;stroke:none"
               transform="scale(1,-1)"
               x="220.84"
               y="-62.555"><tspan
                 id="tspan318"
                 sodipodi:role="line"
                 y="-62.555"
                 x="220.84 227.48698 234.13396">300 m</tspan></text>
<text
               id="text324"
               style="font-variant:normal;font-weight:normal;font-size:12.05500031px;font-family:CMMI7;-inkscape-font-specification:CMMI7;writing-mode:lr-tb;fill:#000000;fill-opacity:1;fill-rule:nonzero;stroke:none"
               transform="scale(1,-1)"
               x="192.588"
               y="-44.916"><tspan
                 id="tspan322"
                 y="-44.916"
                 x="192.588">L</tspan></text>
<text
               id="text328"
               style="font-variant:normal;font-weight:normal;font-size:12.05500031px;font-family:CMR7;-inkscape-font-specification:CMR7;writing-mode:lr-tb;fill:#000000;fill-opacity:1;fill-rule:nonzero;stroke:none"
               transform="scale(1,-1)"
               x="205.95599"
               y="-44.916"><tspan
                 id="tspan326"
                 y="-44.916"
                 x="205.95599">=</tspan></text>
<text
               id="text332"
               style="font-variant:normal;font-weight:normal;font-size:11.95499992px;font-family:Helvetica;-inkscape-font-specification:Helvetica;writing-mode:lr-tb;fill:#000000;fill-opacity:1;fill-rule:nonzero;stroke:none"
               transform="scale(1,-1)"
               x="219.851"
               y="-44.916"><tspan
                 id="tspan330"
                 sodipodi:role="line"
                 y="-44.916"
                 x="219.851 226.49799 233.14496">600 m</tspan></text>
<text
               id="text336"
               style="font-variant:normal;font-weight:normal;font-size:12.05500031px;font-family:CMMI7;-inkscape-font-specification:CMMI7;writing-mode:lr-tb;fill:#000000;fill-opacity:1;fill-rule:nonzero;stroke:none"
               transform="scale(1,-1)"
               x="192.588"
               y="-27.277"><tspan
                 id="tspan334"
                 y="-27.277"
                 x="192.588">t</tspan></text>
<text
               id="text340"
               style="font-variant:normal;font-weight:normal;font-size:12.05500031px;font-family:CMR7;-inkscape-font-specification:CMR7;writing-mode:lr-tb;fill:#000000;fill-opacity:1;fill-rule:nonzero;stroke:none"
               transform="scale(1,-1)"
               x="201.71001"
               y="-27.277"><tspan
                 id="tspan338"
                 y="-27.277"
                 x="201.71001">=</tspan></text>
<text
               id="text344"
               style="font-variant:normal;font-weight:normal;font-size:11.95499992px;font-family:Helvetica;-inkscape-font-specification:Helvetica;writing-mode:lr-tb;fill:#000000;fill-opacity:1;fill-rule:nonzero;stroke:none"
               transform="scale(1,-1)"
               x="215.606"
               y="-27.277"><tspan
                 id="tspan342"
                 sodipodi:role="line"
                 x="215.606"
                 y="-27.277">3 m</tspan></text>
<text
               id="text348"
               style="font-variant:normal;font-weight:normal;font-size:12.05500031px;font-family:CMMI7;-inkscape-font-specification:CMMI7;writing-mode:lr-tb;fill:#000000;fill-opacity:1;fill-rule:nonzero;stroke:none"
               transform="scale(1,-1)"
               x="192.588"
               y="-9.5760002"><tspan
                 id="tspan346"
                 y="-9.5760002"
                 x="192.588">φ</tspan></text>
<text
               id="text352"
               style="font-variant:normal;font-weight:normal;font-size:12.05500031px;font-family:CMR7;-inkscape-font-specification:CMR7;writing-mode:lr-tb;fill:#000000;fill-opacity:1;fill-rule:nonzero;stroke:none"
               transform="scale(1,-1)"
               x="204.789"
               y="-9.5760002"><tspan
                 id="tspan350"
                 y="-9.5760002"
                 x="204.789">=</tspan></text>
<text
               id="text356"
               style="font-variant:normal;font-weight:normal;font-size:11.95499992px;font-family:Helvetica;-inkscape-font-specification:Helvetica;writing-mode:lr-tb;fill:#000000;fill-opacity:1;fill-rule:nonzero;stroke:none"
               transform="scale(1,-1)"
               x="218.68401"
               y="-9.5760002"><tspan
                 id="tspan354"
                 sodipodi:role="line"
                 y="-9.5760002"
                 x="218.68401 225.33098 235.30145 241.94843 248.59541 255.24239">40deg.</tspan></text>
<text
               id="text360"
               style="font-variant:normal;font-weight:normal;font-size:12.05500031px;font-family:CMMI7;-inkscape-font-specification:CMMI7;writing-mode:lr-tb;fill:#000000;fill-opacity:1;fill-rule:nonzero;stroke:none"
               transform="scale(1,-1)"
               x="289.728"
               y="-62.555"><tspan
                 id="tspan358"
                 y="-62.555"
                 x="289.728">E</tspan></text>
<text
               id="text364"
               style="font-variant:normal;font-weight:normal;font-size:12.05500031px;font-family:CMR7;-inkscape-font-specification:CMR7;writing-mode:lr-tb;fill:#000000;fill-opacity:1;fill-rule:nonzero;stroke:none"
               transform="scale(1,-1)"
               x="304.42099"
               y="-62.555"><tspan
                 id="tspan362"
                 y="-62.555"
                 x="304.42099">=</tspan></text>
<text
               id="text368"
               style="font-variant:normal;font-weight:normal;font-size:11.95499992px;font-family:Helvetica;-inkscape-font-specification:Helvetica;writing-mode:lr-tb;fill:#000000;fill-opacity:1;fill-rule:nonzero;stroke:none"
               transform="scale(1,-1)"
               x="318.31601"
               y="-62.555"><tspan
                 id="tspan366"
                 sodipodi:role="line"
                 y="-62.555"
                 x="318.31601 324.96298 328.28647 338.25693 344.90393">3.010</tspan></text>
<text
               id="text372"
               style="font-variant:normal;font-weight:normal;font-size:12.05500031px;font-family:CMR7;-inkscape-font-specification:CMR7;writing-mode:lr-tb;fill:#000000;fill-opacity:1;fill-rule:nonzero;stroke:none"
               transform="scale(1,-1)"
               x="351.55099"
               y="-67.751999"><tspan
                 id="tspan370"
                 y="-67.751999"
                 x="351.55099">6</tspan></text>
<text
               id="text376"
               style="font-variant:normal;font-weight:normal;font-size:11.95499992px;font-family:Helvetica;-inkscape-font-specification:Helvetica;writing-mode:lr-tb;fill:#000000;fill-opacity:1;fill-rule:nonzero;stroke:none"
               transform="scale(1,-1)"
               x="362.237"
               y="-62.555"><tspan
                 id="tspan374"
                 sodipodi:role="line"
                 y="-62.555"
                 x="362.237">Pa</tspan></text>
<text
               id="text380"
               style="font-variant:normal;font-weight:normal;font-size:12.05500031px;font-family:CMMI7;-inkscape-font-specification:CMMI7;writing-mode:lr-tb;fill:#000000;fill-opacity:1;fill-rule:nonzero;stroke:none"
               transform="scale(1,-1)"
               x="289.728"
               y="-44.916"><tspan
                 id="tspan378"
                 y="-44.916"
                 x="289.728">ν</tspan></text>
<text
               id="text384"
               style="font-variant:normal;font-weight:normal;font-size:12.05500031px;font-family:CMR7;-inkscape-font-specification:CMR7;writing-mode:lr-tb;fill:#000000;fill-opacity:1;fill-rule:nonzero;stroke:none"
               transform="scale(1,-1)"
               x="301.35599"
               y="-44.916"><tspan
                 id="tspan382"
                 y="-44.916"
                 x="301.35599">=</tspan></text>
<text
               id="text390"
               style="font-variant:normal;font-weight:normal;font-size:11.95499992px;font-family:Helvetica;-inkscape-font-specification:Helvetica;writing-mode:lr-tb;fill:#000000;fill-opacity:1;fill-rule:nonzero;stroke:none"
               transform="scale(1,-1)"
               x="315.25101"
               y="-44.916"><tspan
                 id="tspan386"
                 sodipodi:role="line"
                 y="-44.916"
                 x="315.25101 321.89798 325.22147">0.0</tspan><tspan
                 id="tspan388"
                 sodipodi:role="line"
                 y="-27.277"
                 x="289.728 300.65488 307.30185 309.95587 316.60284 323.24982 326.5733">Weight: 0.625 N/m<tspan
   style="font-size:64.99999762%;baseline-shift:super"
   id="tspan1339">2</tspan></tspan></text>
<text
               id="text410"
               style="font-variant:normal;font-weight:normal;font-size:12.05500031px;font-family:CMMI7;-inkscape-font-specification:CMMI7;writing-mode:lr-tb;fill:#000000;fill-opacity:1;fill-rule:nonzero;stroke:none"
               transform="scale(1,-1)"
               x="137.78101"
               y="-74.966003"><tspan
                 id="tspan396"
                 y="-74.966003"
                 x="137.78101">R</tspan><tspan
                 id="tspan398"
                 y="-269.246"
                 x="45.932999">z</tspan><tspan
                 id="tspan400"
                 y="-219.79401"
                 x="28.230997">x</tspan><tspan
                 id="tspan402"
                 y="-135.00101"
                 x="196.116">A</tspan><tspan
                 id="tspan404"
                 y="-195.099"
                 x="282.673">B</tspan><tspan
                 id="tspan406"
                 y="-233.968"
                 x="187.29601">C</tspan><tspan
                 id="tspan408"
                 y="-172.106"
                 x="97.149002">D</tspan></text>
<g
               transform="translate(-188.874,-26.8)"
               id="g412"><g
                 id="g414" /><g
                 transform="translate(29.888,-42.803)"
                 id="g418"><g
                   transform="translate(-29.888,-43.431)"
                   id="g440"><g
                     transform="translate(672.656)"
                     id="g442"><g
                       transform="scale(0.17903)"
                       id="g444"><g
                         id="g446"><g
                           id="g448"><g
                             clip-path="url(#clipPath454)"
                             id="g450"><g
                               transform="scale(0.1)"
                               id="g456"><g
                                 id="g458" /></g></g></g></g></g><g
                       transform="translate(85.04)"
                       id="g496" /></g></g></g></g></g></g></g></g></g></svg>