<?xml version="1.0" encoding="UTF-8" standalone="no"?>
<!-- Created with Inkscape (http://www.inkscape.org/) -->

<svg
   width="61.072456mm"
   height="61.250565mm"
   viewBox="0 0 61.072456 61.250565"
   version="1.1"
   id="svg4341"
   inkscape:version="1.1.1 (3bf5ae0d25, 2021-09-20, custom)"
   sodipodi:docname="stress_tensor.svg"
   xmlns:inkscape="http://www.inkscape.org/namespaces/inkscape"
   xmlns:sodipodi="http://sodipodi.sourceforge.net/DTD/sodipodi-0.dtd"
   xmlns="http://www.w3.org/2000/svg"
   xmlns:svg="http://www.w3.org/2000/svg">
  <sodipodi:namedview
     id="namedview4343"
     pagecolor="#ffffff"
     bordercolor="#666666"
     borderopacity="1.0"
     inkscape:pageshadow="2"
     inkscape:pageopacity="0.0"
     inkscape:pagecheckerboard="0"
     inkscape:document-units="mm"
     showgrid="false"
     fit-margin-top="0"
     fit-margin-left="0"
     fit-margin-right="0"
     fit-margin-bottom="0"
     inkscape:zoom="7.1049893"
     inkscape:cx="101.6891"
     inkscape:cy="157.35421"
     inkscape:window-width="3840"
     inkscape:window-height="2078"
     inkscape:window-x="0"
     inkscape:window-y="0"
     inkscape:window-maximized="1"
     inkscape:current-layer="g930" />
  <defs
     id="defs4338" />
  <g
     inkscape:label="Capa 1"
     inkscape:groupmode="layer"
     id="layer1"
     transform="translate(-2.935201,-74.503286)">
    <path
       d="m 25.43065,85.464463 h 27.432 v 27.467557"
       style="fill:none;stroke:#231f20;stroke-width:0.06858;stroke-linecap:butt;stroke-linejoin:miter;stroke-miterlimit:2.6131;stroke-dasharray:none;stroke-opacity:1"
       id="path814" />
    <path
       d="m 52.86265,85.464886 -27.432,-3.53e-4 -14.399683,14.40053"
       style="fill:none;stroke:#231f20;stroke-width:0.158759;stroke-linecap:butt;stroke-linejoin:round;stroke-miterlimit:2.6131;stroke-dasharray:none;stroke-opacity:1"
       id="path816" />
    <path
       d="m 57.830889,112.35629 v 1.07992 l 3.240194,-0.53975 -3.240194,-0.54017"
       style="fill:#231f20;fill-opacity:1;fill-rule:evenodd;stroke:none;stroke-width:0.0423333"
       id="path818" />
    <path
       d="m 57.830889,112.35629 v 1.07992 l 3.240194,-0.53975 z"
       style="fill:none;stroke:#231f20;stroke-width:0.158759;stroke-linecap:butt;stroke-linejoin:miter;stroke-miterlimit:2.6131;stroke-dasharray:none;stroke-opacity:1"
       id="path820" />
    <path
       d="m 52.86265,112.93202 4.968239,-0.0356"
       style="fill:none;stroke:#231f20;stroke-width:0.158759;stroke-linecap:butt;stroke-linejoin:miter;stroke-miterlimit:2.6131;stroke-dasharray:none;stroke-opacity:1"
       id="path822" />
    <path
       d="m 24.854494,80.496646 h 1.080346 l -0.540173,-3.240193 -0.540173,3.240193"
       style="fill:#231f20;fill-opacity:1;fill-rule:evenodd;stroke:none;stroke-width:0.0423333"
       id="path824" />
    <path
       d="M 24.854494,80.496646 H 25.93484 L 25.394667,77.256453 Z"
       style="fill:none;stroke:#231f20;stroke-width:0.158759;stroke-linecap:butt;stroke-linejoin:miter;stroke-miterlimit:2.6131;stroke-dasharray:none;stroke-opacity:1"
       id="path826" />
    <path
       d="m 25.43065,85.464463 -0.0055,-4.967817"
       style="fill:none;stroke:#231f20;stroke-width:0.158759;stroke-linecap:butt;stroke-linejoin:miter;stroke-miterlimit:2.6131;stroke-dasharray:none;stroke-opacity:1"
       id="path828" />
    <path
       d="m 7.8127873,131.27887 -0.7636934,-0.7637 -1.9092333,2.67293 2.6729267,-1.90923"
       style="fill:#231f20;fill-opacity:1;fill-rule:evenodd;stroke:none;stroke-width:0.0423333"
       id="path830" />
    <path
       d="m 7.8127873,131.27887 -0.7636934,-0.7637 -1.9092333,2.67293 z"
       style="fill:none;stroke:#231f20;stroke-width:0.158759;stroke-linecap:butt;stroke-linejoin:miter;stroke-miterlimit:2.6131;stroke-dasharray:none;stroke-opacity:1"
       id="path832" />
    <path
       d="M 11.030967,127.29699 7.4309406,130.8966"
       style="fill:none;stroke:#231f20;stroke-width:0.158759;stroke-linecap:butt;stroke-linejoin:miter;stroke-miterlimit:2.6131;stroke-dasharray:none;stroke-opacity:1"
       id="path834" />
    <path
       d="m 52.86265,112.93245 -27.432,-0.036"
       style="fill:none;stroke:#231f20;stroke-width:0.158759;stroke-linecap:butt;stroke-linejoin:miter;stroke-miterlimit:2.6131;stroke-dasharray:1.58759, 0.476278;stroke-dashoffset:0;stroke-opacity:1"
       id="path836" />
    <path
       d="M 25.43065,112.89646 11.030967,127.29699"
       style="fill:none;stroke:#231f20;stroke-width:0.158759;stroke-linecap:butt;stroke-linejoin:miter;stroke-miterlimit:2.6131;stroke-dasharray:1.58759, 0.476278;stroke-dashoffset:0;stroke-opacity:1"
       id="path838" />
    <path
       d="m 11.030967,127.29699 h 27.432 V 99.864992 h -27.432 z"
       style="fill:none;stroke:#231f20;stroke-width:0.158759;stroke-linecap:butt;stroke-linejoin:round;stroke-miterlimit:2.6131;stroke-dasharray:none;stroke-opacity:1"
       id="path840" />
    <path
       d="M 38.462967,127.29699 52.86265,112.93245 V 85.464463 L 38.462967,99.864992"
       style="fill:none;stroke:#231f20;stroke-width:0.158759;stroke-linecap:butt;stroke-linejoin:round;stroke-miterlimit:2.6131;stroke-dasharray:none;stroke-opacity:1"
       id="path842" />
    <path
       d="m 45.6808,106.41608 h 3.5433 m -3.5433,0 -1.673014,1.67301 m 1.673014,-1.67301 v -3.5433"
       style="fill:none;stroke:#231f20;stroke-width:0.317519;stroke-linecap:butt;stroke-linejoin:miter;stroke-miterlimit:2.6131;stroke-dasharray:none;stroke-opacity:1"
       id="path844" />
    <path
       d="M 51.172703,106.41608 49.2241,105.8323 v 1.16755 l 1.948603,-0.58377"
       style="fill:#231f20;fill-opacity:1;fill-rule:evenodd;stroke:none;stroke-width:0.0423333"
       id="path846" />
    <path
       d="m 42.629836,109.46704 1.7907,-0.9652 -0.8255,-0.8255 -0.9652,1.7907"
       style="fill:#231f20;fill-opacity:1;fill-rule:evenodd;stroke:none;stroke-width:0.0423333"
       id="path848" />
    <path
       d="m 45.6808,100.92417 -0.583777,1.94861 h 1.167553 L 45.6808,100.92417"
       style="fill:#231f20;fill-opacity:1;fill-rule:evenodd;stroke:none;stroke-width:0.0423333"
       id="path850" />
    <path
       d="m 31.98258,92.664516 h 3.5433 m -3.5433,0 -1.673013,1.673013 m 1.673013,-1.673013 v -3.5433"
       style="fill:none;stroke:#231f20;stroke-width:0.317519;stroke-linecap:butt;stroke-linejoin:miter;stroke-miterlimit:2.6131;stroke-dasharray:none;stroke-opacity:1"
       id="path852" />
    <path
       d="M 37.474483,92.664516 35.52588,92.080739 v 1.167554 l 1.948603,-0.583777"
       style="fill:#231f20;fill-opacity:1;fill-rule:evenodd;stroke:none;stroke-width:0.0423333"
       id="path854" />
    <path
       d="m 28.931617,95.715479 1.7907,-0.9652 -0.8255,-0.8255 -0.9652,1.7907"
       style="fill:#231f20;fill-opacity:1;fill-rule:evenodd;stroke:none;stroke-width:0.0423333"
       id="path856" />
    <path
       d="m 31.98258,87.172613 -0.583777,1.948603 h 1.167554 L 31.98258,87.172613"
       style="fill:#231f20;fill-opacity:1;fill-rule:evenodd;stroke:none;stroke-width:0.0423333"
       id="path858" />
    <path
       d="m 24.764747,113.59835 h 3.5433 m -3.5433,0 -1.673013,1.67301 m 1.673013,-1.67301 v -3.5433"
       style="fill:none;stroke:#231f20;stroke-width:0.317519;stroke-linecap:butt;stroke-linejoin:miter;stroke-miterlimit:2.6131;stroke-dasharray:none;stroke-opacity:1"
       id="path860" />
    <path
       d="m 30.25665,113.59835 -1.948603,-0.58378 v 1.16756 l 1.948603,-0.58378"
       style="fill:#231f20;fill-opacity:1;fill-rule:evenodd;stroke:none;stroke-width:0.0423333"
       id="path862" />
    <path
       d="m 21.713784,116.64931 1.7907,-0.9652 -0.8255,-0.8255 -0.9652,1.7907"
       style="fill:#231f20;fill-opacity:1;fill-rule:evenodd;stroke:none;stroke-width:0.0423333"
       id="path864" />
    <path
       d="m 24.764747,108.10645 -0.583777,1.9486 h 1.167554 l -0.583777,-1.9486"
       style="fill:#231f20;fill-opacity:1;fill-rule:evenodd;stroke:none;stroke-width:0.0423333"
       id="path866" />
    <path
       d="M 25.43065,85.464463 11.030967,99.864992 v 27.431998"
       style="fill:none;stroke:#231f20;stroke-width:0.158759;stroke-linecap:butt;stroke-linejoin:round;stroke-miterlimit:2.6131;stroke-dasharray:none;stroke-opacity:1"
       id="path868" />
    <path
       d="m 11.030967,127.29699 h 27.432 L 52.86265,112.93202"
       style="fill:none;stroke:#231f20;stroke-width:0.158759;stroke-linecap:butt;stroke-linejoin:round;stroke-miterlimit:2.6131;stroke-dasharray:none;stroke-opacity:1"
       id="path870" />
    <path
       d="M 25.43065,85.464886 V 112.89646"
       style="fill:none;stroke:#231f20;stroke-width:0.158759;stroke-linecap:butt;stroke-linejoin:miter;stroke-miterlimit:2.6131;stroke-dasharray:1.58759, 0.476278;stroke-dashoffset:0;stroke-opacity:1"
       id="path872" />
    <g
       id="g886"
       transform="matrix(0.35277777,0,0,-0.35277777,-71.522841,213.09438)">
      <text
         transform="matrix(1,0,0,-1,379.725,282.093)"
         style="font-variant:normal;font-weight:normal;font-size:7.97011px;font-family:CMMI8;-inkscape-font-specification:CMMI8;writing-mode:lr-tb;fill:#231f20;fill-opacity:1;fill-rule:nonzero;stroke:none"
         id="text894"><tspan
           x="0"
           y="0"
           id="tspan888">x</tspan><tspan
           x="-106.873"
           y="-106.405"
           id="tspan890">y</tspan><tspan
           x="-169.00529"
           y="62.860001"
           id="tspan892">z</tspan></text>
    </g>
    <g
       id="g904"
       transform="matrix(0.35277777,0,0,-0.35277777,-71.522841,213.09438)">
      <text
         transform="matrix(1,0,0,-1,270.055,234.654)"
         style="font-variant:normal;font-weight:normal;font-size:7.97011px;font-family:CMMI8;-inkscape-font-specification:CMMI8;writing-mode:lr-tb;fill:#231f20;fill-opacity:1;fill-rule:nonzero;stroke:none"
         id="text912"><tspan
           x="0 4.3223553"
           y="0"
           sodipodi:role="line"
           id="tspan906">dx</tspan><tspan
           x="86.610497 90.932854"
           y="-84.3694"
           sodipodi:role="line"
           id="tspan908">dy</tspan><tspan
           x="69.801102 74.123459"
           y="-27.240499"
           sodipodi:role="line"
           id="tspan910">dz</tspan></text>
    </g>
    <g
       id="g930"
       transform="matrix(0.35277777,0,0,-0.35277777,-71.522841,213.09438)">
      <text
         transform="matrix(1,0,0,-1,338.599,295.589)"
         style="font-variant:normal;font-weight:normal;font-size:7.97011px;font-family:CMMI8;-inkscape-font-specification:CMMI8;writing-mode:lr-tb;fill:#231f20;fill-opacity:1;fill-rule:nonzero;stroke:none"
         id="text934"><tspan
           x="0"
           y="0"
           id="tspan932">σ</tspan></text>
      <text
         transform="matrix(1,0,0,-1,343.399,294.629)"
         style="font-variant:normal;font-weight:normal;font-size:5.97758px;font-family:CMMI6;-inkscape-font-specification:CMMI6;writing-mode:lr-tb;fill:#231f20;fill-opacity:1;fill-rule:nonzero;stroke:none"
         id="text938"><tspan
           x="0 4.2005343"
           y="0"
           sodipodi:role="line"
           id="tspan936">xx</tspan></text>
      <text
         transform="matrix(1,0,0,-1,296.4448,355.4995)"
         style="font-variant:normal;font-weight:normal;font-size:7.97011px;font-family:CMMI8;-inkscape-font-specification:CMMI8;writing-mode:lr-tb;fill:#231f20;fill-opacity:1;fill-rule:nonzero;stroke:none"
         id="text942"><tspan
           x="0"
           y="0"
           id="tspan940">σ</tspan></text>
      <text
         transform="matrix(1,0,0,-1,301.2448,354.5395)"
         style="font-variant:normal;font-weight:normal;font-size:5.97758px;font-family:CMMI6;-inkscape-font-specification:CMMI6;writing-mode:lr-tb;fill:#231f20;fill-opacity:1;fill-rule:nonzero;stroke:none"
         id="text946"><tspan
           x="0 4.0794425"
           y="0"
           sodipodi:role="line"
           id="tspan944">yy</tspan></text>
      <text
         transform="matrix(1,0,0,-1,263.6787,267.0661)"
         style="font-variant:normal;font-weight:normal;font-size:7.97011px;font-family:CMMI8;-inkscape-font-specification:CMMI8;writing-mode:lr-tb;fill:#231f20;fill-opacity:1;fill-rule:nonzero;stroke:none"
         id="text950"><tspan
           x="0"
           y="0"
           id="tspan948">σ</tspan></text>
      <text
         transform="matrix(1,0,0,-1,268.4787,266.1061)"
         style="font-variant:normal;font-weight:normal;font-size:5.97758px;font-family:CMMI6;-inkscape-font-specification:CMMI6;writing-mode:lr-tb;fill:#231f20;fill-opacity:1;fill-rule:nonzero;stroke:none"
         id="text954"><tspan
           x="0 3.8396101"
           y="0"
           sodipodi:role="line"
           id="tspan952">zz</tspan></text>
      <text
         transform="matrix(1,0,0,-1,331.8556,319.7827)"
         style="font-variant:normal;font-weight:normal;font-size:7.97011px;font-family:CMMI8;-inkscape-font-specification:CMMI8;writing-mode:lr-tb;fill:#231f20;fill-opacity:1;fill-rule:nonzero;stroke:none"
         id="text958"><tspan
           x="0"
           y="0"
           id="tspan956">τ</tspan></text>
      <text
         transform="matrix(1,0,0,-1,336.6556,318.8227)"
         style="font-variant:normal;font-weight:normal;font-size:5.97758px;font-family:CMMI6;-inkscape-font-specification:CMMI6;writing-mode:lr-tb;fill:#231f20;fill-opacity:1;fill-rule:nonzero;stroke:none"
         id="text962"><tspan
           x="0 4.2005343"
           y="0"
           sodipodi:role="line"
           id="tspan960">xy</tspan></text>
      <text
         transform="matrix(1,0,0,-1,311.809,338.9161)"
         style="font-variant:normal;font-weight:normal;font-size:7.97011px;font-family:CMMI8;-inkscape-font-specification:CMMI8;writing-mode:lr-tb;fill:#231f20;fill-opacity:1;fill-rule:nonzero;stroke:none"
         id="text966"><tspan
           x="0"
           y="0"
           id="tspan964">τ</tspan></text>
      <text
         transform="matrix(1,0,0,-1,316.609,337.9561)"
         style="font-variant:normal;font-weight:normal;font-size:5.97758px;font-family:CMMI6;-inkscape-font-specification:CMMI6;writing-mode:lr-tb;fill:#231f20;fill-opacity:1;fill-rule:nonzero;stroke:none"
         id="text970"><tspan
           x="0 4.0794425"
           y="0"
           sodipodi:role="line"
           id="tspan968">yx</tspan></text>
      <text
         transform="matrix(1,0,0,-1,320.84509,286.8956)"
         style="font-variant:normal;font-weight:normal;font-size:7.97011px;font-family:CMMI8;-inkscape-font-specification:CMMI8;writing-mode:lr-tb;fill:#231f20;fill-opacity:1;fill-rule:nonzero;stroke:none"
         id="text974"><tspan
           x="0"
           y="0"
           id="tspan972">τ</tspan></text>
      <text
         transform="matrix(1,0,0,-1,325.64509,285.9356)"
         style="font-variant:normal;font-weight:normal;font-size:5.97758px;font-family:CMMI6;-inkscape-font-specification:CMMI6;writing-mode:lr-tb;fill:#231f20;fill-opacity:1;fill-rule:nonzero;stroke:none"
         id="text978"><tspan
           x="0 4.2005343"
           y="0"
           sodipodi:role="line"
           id="tspan976">xz</tspan></text>
      <text
         transform="matrix(1,0,0,-1,286.74169,275.99529)"
         style="font-variant:normal;font-weight:normal;font-size:7.97011px;font-family:CMMI8;-inkscape-font-specification:CMMI8;writing-mode:lr-tb;fill:#231f20;fill-opacity:1;fill-rule:nonzero;stroke:none"
         id="text982"><tspan
           x="0"
           y="0"
           id="tspan980">τ</tspan></text>
      <text
         transform="matrix(1,0,0,-1,291.54169,275.03529)"
         style="font-variant:normal;font-weight:normal;font-size:5.97758px;font-family:CMMI6;-inkscape-font-specification:CMMI6;writing-mode:lr-tb;fill:#231f20;fill-opacity:1;fill-rule:nonzero;stroke:none"
         id="text986"><tspan
           x="0 3.8396101"
           y="0"
           sodipodi:role="line"
           id="tspan984">zx</tspan></text>
      <text
         transform="matrix(1,0,0,-1,280.90149,326.82889)"
         style="font-variant:normal;font-weight:normal;font-size:7.97011px;font-family:CMMI8;-inkscape-font-specification:CMMI8;writing-mode:lr-tb;fill:#231f20;fill-opacity:1;fill-rule:nonzero;stroke:none"
         id="text990"><tspan
           x="0"
           y="0"
           id="tspan988">τ</tspan></text>
      <text
         transform="matrix(1,0,0,-1,285.70149,325.86889)"
         style="font-variant:normal;font-weight:normal;font-size:5.97758px;font-family:CMMI6;-inkscape-font-specification:CMMI6;writing-mode:lr-tb;fill:#231f20;fill-opacity:1;fill-rule:nonzero;stroke:none"
         id="text994"><tspan
           x="0 4.0794425"
           y="0"
           sodipodi:role="line"
           id="tspan992">yz</tspan></text>
      <text
         transform="matrix(1,0,0,-1,276.42586,294.02009)"
         style="font-variant:normal;font-weight:normal;font-size:7.97011px;font-family:CMMI8;-inkscape-font-specification:CMMI8;writing-mode:lr-tb;fill:#231f20;fill-opacity:1;fill-rule:nonzero;stroke:none"
         id="text998"><tspan
           x="0"
           y="0"
           id="tspan996">τ</tspan></text>
      <text
         transform="matrix(1,0,0,-1,281.22586,293.06009)"
         style="font-variant:normal;font-weight:normal;font-size:5.97758px;font-family:CMMI6;-inkscape-font-specification:CMMI6;writing-mode:lr-tb;fill:#231f20;fill-opacity:1;fill-rule:nonzero;stroke:none"
         id="text1002"><tspan
           x="0 3.8396101"
           y="0"
           sodipodi:role="line"
           id="tspan1000">zy</tspan></text>
    </g>
  </g>
</svg>
