Geometry file
Geometry file
node id assign
element id assign
coordinates
      39
 1.00000e+00 0.00000e+00 1.00000e+00
 1.00000e+00 0.00000e+00 0.00000e+00
 1.00000e+00 0.00000e+00 5.00000e-01
 1.00000e+00 1.00000e+00 0.00000e+00
 1.00000e+00 5.00000e-01 0.00000e+00
 1.00000e+00 1.00000e+00 1.00000e+00
 1.00000e+00 1.00000e+00 5.00000e-01
 1.00000e+00 5.00000e-01 1.00000e+00
 1.00000e+00 7.07565e-01 7.07566e-01
 1.00000e+00 2.92433e-01 2.92434e-01
 1.00000e+00 6.52965e-01 3.47034e-01
 1.00000e+00 3.47033e-01 6.52966e-01
 0.00000e+00 1.00000e+00 0.00000e+00
 5.00000e-01 1.00000e+00 0.00000e+00
 0.00000e+00 1.00000e+00 1.00000e+00
 0.00000e+00 1.00000e+00 5.00000e-01
 5.00000e-01 1.00000e+00 1.00000e+00
 2.92435e-01 1.00000e+00 7.07566e-01
 7.07567e-01 1.00000e+00 2.92434e-01
 3.47035e-01 1.00000e+00 3.47034e-01
 6.52967e-01 1.00000e+00 6.52966e-01
 0.00000e+00 0.00000e+00 0.00000e+00
 0.00000e+00 5.00000e-01 0.00000e+00
 0.00000e+00 0.00000e+00 1.00000e+00
 0.00000e+00 0.00000e+00 5.00000e-01
 0.00000e+00 5.00000e-01 1.00000e+00
 0.00000e+00 2.92435e-01 7.07566e-01
 0.00000e+00 7.07567e-01 2.92434e-01
 0.00000e+00 3.47035e-01 3.47034e-01
 0.00000e+00 6.52967e-01 6.52966e-01
 5.00000e-01 0.00000e+00 0.00000e+00
 5.00000e-01 0.00000e+00 1.00000e+00
 7.07565e-01 0.00000e+00 7.07566e-01
 2.92433e-01 0.00000e+00 2.92434e-01
 6.52965e-01 0.00000e+00 3.47034e-01
 3.47033e-01 0.00000e+00 6.52966e-01
 5.81989e-01 5.81990e-01 0.00000e+00
 5.81989e-01 4.18010e-01 1.00000e+00
 6.46741e-01 5.69188e-01 5.69188e-01
part       1
Triangles3_ref_1
tria3
      14
      27      24      26
      27      25      24
      25      29      22
      23      22      29
      13      23      28
      28      16      13
      15      16      30
      15      30      26
      30      27      26
      27      29      25
      28      30      16
      23      29      28
      29      30      28
      29      27      30
part       2
Tetrahedra4_ref_1
tetra4
      86
      32       1      33      38
      32      36      38      33
      12      33       1      38
      12      33       3       1
      12       1       8      38
      27      32      36      38
      27      36      32      24
      27      32      38      26
      35       3      12      33
      35      10      12       3
      30      26      27      38
      27      25      36      24
      27      24      32      26
      18      26      30      38
      27      36      25      29
      17       8       9       6
       2      35       3      10
       2      35      10      31
      35      31      37      10
      37       5      11      10
      17       6       9      21
      15      18      26      30
      17      26      18      38
      34      25      36      29
      35      31      34      37
      23      34      37      29
      23      34      29      22
      23      37      28      29
      23      34      31      37
      34      25      29      22
      17      15      18      26
      15      18      30      16
       6       9      21       7
      37       4      19      11
      37      11       5       4
      31      37      10       5
       2       5      31      10
      37      14      19       4
       7      19       4      11
      20      37      14      19
      20      28      14      37
      20      28      30      16
      20      30      18      16
      23      14      28      37
      23      31      34      22
      13      23      14      28
      20      28      16      13
      20      13      14      28
      39      37      19      11
      39      11       9      12
      39      20      19      37
      39      20      21      19
      39      19       7      11
      39      19      21       7
      39      20      18      21
      39      18      20      30
      39      38      18      30
      39       9      11       7
      39      21       9       7
      39      17       9      21
      39      38      12       8
      39      12       9       8
      39      12      38      33
      39      33      35      12
      39      10      37      11
      39      35      37      10
      39      11      12      10
      39      12      35      10
      39      38      36      33
      39      35      33      36
      39      38      17      18
      39      21      18      17
      39      29      30      28
      39      30      20      28
      39      28      37      29
      39      20      37      28
      39      36      27      29
      39      29      27      30
      39      27      36      38
      39      38      30      27
      39      37      34      29
      39      35      34      37
      39      29      34      36
      39      35      36      34
      39       8      17      38
      39       9      17       8
part       3
Triangles3_ref_2
tria3
      14
      32      33       1
      33       3       1
       2       3      35
       2      35      31
      31      34      22
      34      25      22
      25      36      24
      36      32      24
      32      36      33
      35       3      33
      34      36      25
      35      34      31
      35      36      34
      35      33      36
part       4
Triangles3_ref_3
tria3
      14
       8       9       6
       6       9       7
       7      11       4
      11       5       4
       2       5      10
       2      10       3
      12       1       3
      12       8       1
      12       9       8
       9      11       7
      10      12       3
       5      11      10
      11      12      10
      11       9      12
part       5
Triangles3_ref_4
tria3
       8
      37      14       4
      37       4       5
      13      14      23
      23      31      22
       2      31       5
      23      14      37
      23      37      31
      31      37       5
part       6
Triangles3_ref_5
tria3
      14
      17      18      15
      15      18      16
      20      13      16
      20      14      13
      14      19       4
       7       4      19
       6       7      21
      17       6      21
      21      18      17
      20      16      18
      19      21       7
      20      19      14
      20      21      19
      20      18      21
part       7
Triangles3_ref_6
tria3
       8
      32       1      38
       1       8      38
      24      32      26
      17      15      26
      17       8       6
      32      38      26
      17      26      38
       8      17      38
