Geometry file
Geometry file
node id assign
element id assign
coordinates
      92
 1.00000e+00 2.00000e-01-1.22465e-17
 1.00000e+00 1.41421e-01 1.41421e-01
 1.00000e+00-6.12323e-18 2.00000e-01
 1.00000e+00-1.41421e-01 1.41421e-01
 1.00000e+00-2.00000e-01 3.67394e-17
 1.00000e+00-1.41421e-01-1.41421e-01
 1.00000e+00-7.96020e-17-2.00000e-01
 1.00000e+00 1.41421e-01-1.41421e-01
 1.00000e+00 6.61630e-02-3.02872e-02
 1.00000e+00-6.15154e-02-6.10739e-02
 1.00000e+00-3.06985e-02 6.68017e-02
 0.00000e+00 2.00000e-01-1.22465e-17
 8.65956e-18 1.41421e-01-1.41421e-01
 7.49880e-34 3.06162e-17-2.00000e-01
-8.65956e-18-1.41421e-01-1.41421e-01
-1.22465e-17-2.00000e-01-1.22465e-17
-8.65956e-18-1.41421e-01 1.41421e-01
-2.24964e-33 6.12323e-18 2.00000e-01
 8.65956e-18 1.41421e-01 1.41421e-01
 4.20512e-18 6.86748e-02 2.55359e-02
-1.61436e-24-2.63644e-08-8.65993e-02
-4.20512e-18-6.86749e-02 2.55359e-02
 8.81600e-01 1.85522e-01-7.47102e-02
 6.42415e-01 1.87806e-01-6.87668e-02
 6.27606e-01-6.96445e-02-1.87482e-01
 8.76431e-01 8.11908e-02-1.82779e-01
 8.81613e-01 1.86118e-01 7.32131e-02
 8.72048e-01-6.99008e-02-1.87387e-01
 8.78318e-01 8.44232e-02 1.81308e-01
 8.45861e-01-7.16063e-02 1.86742e-01
 8.66503e-01-1.82493e-01-8.18307e-02
 8.59402e-01-1.86751e-01 7.15813e-02
 1.31355e-01 1.84770e-01 7.65501e-02
 1.33170e-01 7.76940e-02 1.84292e-01
 1.30862e-01 1.85301e-01-7.52567e-02
 1.35181e-01-7.49468e-02 1.85426e-01
 1.30839e-01 7.81729e-02-1.84090e-01
 1.31856e-01-7.54694e-02-1.85214e-01
 1.35683e-01-1.84121e-01 7.80993e-02
 1.34207e-01-1.84959e-01-7.60928e-02
 2.61923e-01 1.99982e-01 2.64585e-03
 2.63928e-01 1.44161e-01 1.38627e-01
 2.68645e-01 5.35339e-03 1.99928e-01
 2.72346e-01-1.37646e-01 1.45098e-01
 2.61080e-01 1.44683e-01-1.38082e-01
 2.60772e-01 4.98797e-03-1.99938e-01
 2.64253e-01-1.39152e-01-1.43655e-01
 2.70288e-01-1.99962e-01 3.89323e-03
 4.08181e-01-7.30357e-02 1.86187e-01
 4.11818e-01-1.84374e-01 7.74991e-02
 3.97539e-01 8.07380e-02 1.82979e-01
 3.91920e-01 1.85619e-01 7.44699e-02
 3.92192e-01 1.84438e-01-7.73479e-02
 3.89194e-01 7.70141e-02-1.84577e-01
 3.87860e-01-7.47817e-02-1.85493e-01
 7.62413e-01 1.99986e-01-2.34250e-03
 7.62987e-01 1.51152e-01-1.30970e-01
 7.41526e-01 1.87858e-02-1.99116e-01
 7.46899e-01-1.28364e-01-1.53371e-01
 7.20076e-01-1.99170e-01-1.82053e-02
 7.62800e-01 1.52219e-01 1.29728e-01
 7.63882e-01 4.34475e-02 1.95224e-01
 3.99903e-01-1.84100e-01-7.81489e-02
 5.06331e-01-5.79066e-03-1.99916e-01
 5.14514e-01-1.33894e-01-1.48568e-01
 5.26121e-01 1.35152e-01-1.47424e-01
 5.17967e-01 1.99953e-01-4.32150e-03
 5.20585e-01 1.47847e-01 1.34690e-01
 5.33956e-01 1.24181e-02 1.99614e-01
 5.58316e-01-1.36902e-01 1.45801e-01
 5.49126e-01-1.99624e-01-1.22659e-02
 6.57307e-01 1.17735e-01-1.61674e-01
 6.11189e-01 4.18290e-02-1.95577e-01
 6.31917e-01-1.64669e-01-1.13508e-01
 6.41444e-01 1.87001e-01 7.09267e-02
 7.20251e-01-1.55557e-01 1.25706e-01
 6.47345e-01 9.32963e-02 1.76906e-01
 6.77484e-01-4.30068e-02 1.95321e-01
 6.35293e-01-1.88734e-01 6.61777e-02
 8.88023e-01-8.68364e-03-8.18647e-03
 1.12146e-01-2.86564e-08-1.18425e-02
 6.76228e-01 1.24197e-02-8.56487e-02
 6.38436e-01-6.39898e-02 5.25795e-02
 4.52586e-01-4.10297e-02-7.04842e-02
 7.62004e-01-1.88614e-02 6.93717e-02
 4.63368e-01 6.49048e-02 2.62133e-02
 4.73921e-01-3.56443e-02 3.88516e-02
 5.57002e-01 1.23705e-02-9.32599e-02
 2.90986e-01-2.00898e-02 8.57934e-03
 7.03800e-01 8.56777e-02 1.82744e-02
 5.76134e-01 4.36218e-02 8.28782e-02
 2.15187e-01 8.08550e-02-3.14946e-02
part       1
Tetrahedra4_ref_1
tetra4
     248
      23       1       9       8
      27       9      23       1
      26       8      23       9
      26       9       7       8
       2       9      27       1
      26       9      10       7
      26      28       7      10
      11      29       3       2
       7       6      10      28
      10       6      31      28
      11      29      30       3
      11      30       4       3
      11      30      32       4
      10       6       5      31
      11       5       4      32
      19      33      34      20
      39      22      40      16
      39      17      36      22
      39      22      16      17
      40      22      15      16
      12      19      20      33
      19      20      34      18
      12      33      20      35
      38      37      14      21
      36      22      17      18
      38      14      15      21
      13      14      37      21
      12      20      13      35
      80      32      11      30
      80      28      10      31
      80      31      59      28
      80      58      57      26
      80      28      58      26
      80      59      58      28
      80      28      26      10
      80      10      26       9
      80       9      11      10
      80       9      26      23
      80      23      26      57
      80      23      27       9
      80      23      56      27
      80      30      11      29
      80       5      10      11
      80       5      11      32
      80       5      32      31
      80      31      10       5
      80       2      11       9
      80      29      11       2
      80       2       9      27
      80      27      29       2
      81      40      39      22
      81      22      39      36
      81      18      36      34
      81      34      20      18
      81      22      36      18
      81      20      22      18
      81      37      38      21
      81      20      33      35
      81      13      21      20
      81      13      20      35
      81      13      37      21
      81      35      37      13
      81      20      21      22
      81      34      33      20
      81      21      38      15
      81      38      40      15
      81      22      21      15
      81      15      40      22
      82      60      74      59
      82      74      25      59
      82      73      72      58
      82      25      73      58
      82      59      25      58
      82      58      72      57
      82      57      80      58
      82      58      80      59
      83      71      79      70
      83      70      76      78
      83      79      76      70
      83      79      60      76
      83      82      60      74
      84      54      64      55
      84      64      65      55
      84      65      63      55
      84      65      71      63
      85      29      62      30
      85      80      29      30
      85      29      61      62
      85      78      83      76
      85      78      76      30
      85      62      78      30
      85      76      83      60
      85      76      32      30
      85      32      80      30
      85      32      76      60
      85      27      61      29
      85      80      27      29
      85      83      82      60
      85      77      78      62
      85      60      82      59
      85      59      82      80
      85      32      60      31
      85      80      32      31
      85      60      59      31
      85      59      80      31
      86      51      68      52
      86      69      68      51
      86      68      67      52
      86      52      67      53
      86      67      66      53
      86      53      66      54
      87      50      70      49
      87      71      70      50
      87      63      71      50
      87      63      84      71
      87      70      69      49
      87      71      83      70
      87      49      69      51
      87      69      86      51
      88      64      66      73
      88      72      73      66
      88      72      82      73
      88      24      72      66
      88      64      73      25
      88      73      82      25
      88      66      64      54
      88      84      54      64
      88      87      86      84
      88      67      24      66
      88      66      86      67
      88      64      25      65
      88      65      84      64
      88      25      74      65
      88      25      82      74
      88      83      87      71
      88      71      87      84
      88      82      83      74
      88      74      83      71
      88      65      74      71
      88      71      84      65
      89      86      87      84
      89      39      48      44
      89      44      49      43
      89      44      43      36
      89      44      48      50
      89      48      63      50
      89      86      84      54
      89      51      87      86
      89      44      50      49
      89      50      87      49
      89      43      49      51
      89      49      87      51
      89      39      44      36
      89      36      81      39
      89      63      48      47
      89      47      48      40
      89      46      55      47
      89      38      46      47
      89      55      63      47
      89      55      84      63
      89      43      42      34
      89      43      51      42
      89      45      53      54
      89      53      86      54
      89      45      54      46
      89      42      52      41
      89      41      52      53
      89      52      86      53
      89      42      51      52
      89      51      86      52
      89      46      54      55
      89      54      84      55
      90      56      75      61
      90      24      75      56
      90      27      56      61
      90      61      85      27
      90      75      77      61
      90      80      82      57
      90      85      82      80
      90      57      24      56
      90      72      24      57
      90      57      82      72
      90      80      56      27
      90      85      80      27
      91      85      90      77
      91      86      87      69
      91      78      77      69
      91      83      88      82
      91      90      82      88
      91      67      88      86
      91      88      87      86
      91      87      88      83
      91      83      85      78
      91      78      85      77
      91      77      75      68
      91      77      90      75
      91      69      77      68
      91      68      86      69
      91      68      75      67
      91      67      86      68
      91      24      88      67
      91      90      88      24
      91      69      87      70
      91      87      83      70
      91      75      24      67
      91      75      90      24
      92      89      46      45
      92      41      53      45
      92      89      45      53
      92      89      53      41
      92      89      41      42
      92      35      41      45
      92      33      41      35
      92      35      81      33
      92      35      45      37
      92      81      35      37
      92      34      89      42
      92      81      89      34
      92      33      42      41
      92      37      45      46
      92      37      46      38
      92      81      37      38
      92      33      34      42
      92      33      81      34
      83      74      60      71
      83      60      79      71
      89      39      40      48
      89      39      81      40
      89      36      43      34
      89      34      81      36
      89      63      87      50
      89      84      87      63
      54      88      66      86
      54      88      86      84
      90      72      88      24
      90      82      88      72
      38      47      89      40
      38      89      81      40
      92      46      89      38
      92      89      81      38
      80      23      57      56
      80      57      90      56
      61      85      62      77
      61      90      85      77
      82      85      91      83
      82      90      91      85
      70      91      78      83
      70      78      91      69
part       2
Triangles3_ref_2
tria3
      12
       1       9       8
       2       9       1
       9       7       8
       2      11       9
      11       2       3
      11       3       4
       9      10       7
       7      10       6
      10       5       6
      11       4       5
       5      10      11
       9      11      10
part       3
Triangles3_ref_3
tria3
     130
      23       1       8
      26      23       8
      26       8       7
      27       1      23
       2       1      27
      26       7      28
       7       6      28
      27      29       2
      29       3       2
      29      30       3
      30       4       3
       6      31      28
       6       5      31
       5      32      31
       5       4      32
      12      19      33
      19      34      33
      19      18      34
      12      33      35
      12      35      13
      18      36      34
      36      18      17
      35      37      13
      13      37      14
      38      14      37
      38      15      14
      39      36      17
      39      17      16
      38      40      15
      40      16      15
      39      16      40
      33      41      35
      33      42      41
      33      34      42
      36      43      34
      43      42      34
      39      44      36
      44      43      36
      35      45      37
      35      41      45
      37      46      38
      37      45      46
      38      47      40
      38      46      47
      39      48      44
      39      40      48
      47      48      40
      44      49      43
      44      50      49
      44      48      50
      43      51      42
      43      49      51
      42      52      41
      42      51      52
      41      53      45
      41      52      53
      45      54      46
      45      53      54
      46      55      47
      46      54      55
      30      32       4
      23      56      27
      23      57      56
      23      26      57
      28      58      26
      58      57      26
      31      59      28
      59      58      28
      32      60      31
      60      59      31
      27      61      29
      27      56      61
      29      62      30
      29      61      62
      55      63      47
      63      48      47
      48      63      50
      54      64      55
      64      65      55
      65      63      55
      53      66      54
      66      64      54
      52      67      53
      67      66      53
      51      68      52
      68      67      52
      49      69      51
      69      68      51
      50      70      49
      70      69      49
      63      71      50
      71      70      50
      65      71      63
      64      25      65
      64      73      25
      64      66      73
      67      24      66
      24      72      66
      72      73      66
      68      75      67
      75      24      67
      69      77      68
      77      75      68
      70      78      69
      78      77      69
      62      78      30
      78      76      30
      76      32      30
      32      76      60
      61      77      62
      77      78      62
      56      75      61
      75      77      61
      57      24      56
      24      75      56
      58      72      57
      72      24      57
      59      25      58
      25      73      58
      73      72      58
      60      74      59
      74      25      59
      25      74      65
      65      74      71
      70      76      78
      71      79      70
      79      76      70
      79      60      76
      74      60      71
      60      79      71
part       4
Triangles3_ref_4
tria3
      12
      12      20      19
      12      13      20
      19      20      18
      20      22      18
      22      17      18
      22      16      17
      13      21      20
      13      14      21
      14      15      21
      22      15      16
      22      21      15
      20      21      22
