Geometry file
Geometry file
node id assign
element id assign
coordinates
      27
 0.00000e+00 0.00000e+00 0.00000e+00
 5.00000e-01 0.00000e+00 0.00000e+00
 1.00000e+00 0.00000e+00 0.00000e+00
 0.00000e+00 5.00000e-01 0.00000e+00
 5.00000e-01 5.00000e-01 0.00000e+00
 1.00000e+00 5.00000e-01 0.00000e+00
 0.00000e+00 1.00000e+00 0.00000e+00
 5.00000e-01 1.00000e+00 0.00000e+00
 1.00000e+00 1.00000e+00 0.00000e+00
 0.00000e+00 0.00000e+00 5.00000e-01
 5.00000e-01 0.00000e+00 5.00000e-01
 1.00000e+00 0.00000e+00 5.00000e-01
 0.00000e+00 5.00000e-01 5.00000e-01
 5.00000e-01 5.00000e-01 5.00000e-01
 1.00000e+00 5.00000e-01 5.00000e-01
 0.00000e+00 1.00000e+00 5.00000e-01
 5.00000e-01 1.00000e+00 5.00000e-01
 1.00000e+00 1.00000e+00 5.00000e-01
 0.00000e+00 0.00000e+00 1.00000e+00
 5.00000e-01 0.00000e+00 1.00000e+00
 1.00000e+00 0.00000e+00 1.00000e+00
 0.00000e+00 5.00000e-01 1.00000e+00
 5.00000e-01 5.00000e-01 1.00000e+00
 1.00000e+00 5.00000e-01 1.00000e+00
 0.00000e+00 1.00000e+00 1.00000e+00
 5.00000e-01 1.00000e+00 1.00000e+00
 1.00000e+00 1.00000e+00 1.00000e+00
part       1
Quadrangles4_ref_1
quad4
       4
       1       4       5       2
       2       5       6       3
       4       7       8       5
       5       8       9       6
part       2
Hexahedra8_ref_1
hexa8
       8
       1       2       5       4      10      11      14      13
       2       3       6       5      11      12      15      14
       4       5       8       7      13      14      17      16
       5       6       9       8      14      15      18      17
      10      11      14      13      19      20      23      22
      11      12      15      14      20      21      24      23
      13      14      17      16      22      23      26      25
      14      15      18      17      23      24      27      26
part       3
Quadrangles4_ref_2
quad4
       4
       1       2      11      10
       2       3      12      11
      10      11      20      19
      11      12      21      20
part       4
Quadrangles4_ref_3
quad4
       4
       3       6      15      12
       6       9      18      15
      12      15      24      21
      15      18      27      24
part       5
Quadrangles4_ref_4
quad4
       4
       7      16      17       8
       8      17      18       9
      16      25      26      17
      17      26      27      18
part       6
Quadrangles4_ref_5
quad4
       4
       1      10      13       4
       4      13      16       7
      10      19      22      13
      13      22      25      16
part       7
Quadrangles4_ref_6
quad4
       4
      19      20      23      22
      20      21      24      23
      22      23      26      25
      23      24      27      26
