Geometry file
Geometry file
node id assign
element id assign
coordinates
       6
 0.00000e+00 0.00000e+00 0.00000e+00
 1.00000e+00 0.00000e+00 0.00000e+00
 1.00000e+00 1.00000e+00 0.00000e+00
 0.00000e+00 0.00000e+00 1.00000e+00
 1.00000e+00 0.00000e+00 1.00000e+00
 1.00000e+00 1.00000e+00 1.00000e+00
part       1
Prisms6_ref_1
penta6
       1
       1       2       3       4       5       6
