Geometry file
Geometry file
node id assign
element id assign
coordinates
       4
 0.00000e+00 0.00000e+00 0.00000e+00
 1.00000e+00 0.00000e+00 0.00000e+00
 1.00000e+00 1.00000e+00 0.00000e+00
 0.00000e+00 1.00000e+00 0.00000e+00
part       1
Quadrangles4_ref_0
quad4
       1
       1       2       3       4
