Geometry file
Geometry file
node id assign
element id assign
coordinates
       9
 0.00000e+00 0.00000e+00 0.00000e+00
 1.00000e+00 0.00000e+00 0.00000e+00
 1.00000e+00 1.00000e+00 0.00000e+00
 0.00000e+00 0.00000e+00 1.00000e+00
 1.00000e+00 0.00000e+00 1.00000e+00
 1.00000e+00 1.00000e+00 1.00000e+00
 0.00000e+00 0.00000e+00 5.00000e-01
 1.00000e+00 0.00000e+00 5.00000e-01
 1.00000e+00 1.00000e+00 5.00000e-01
part       1
Prisms9_ref_1
penta6
       2
       1       2       3       7       8       9
       7       8       9       4       5       6
