Geometry file
Geometry file
node id assign
element id assign
coordinates
       4
 0.00000e+00 0.00000e+00 0.00000e+00
 1.00000e+00 0.00000e+00 0.00000e+00
 1.00000e+00 1.00000e+00 0.00000e+00
 0.00000e+00 1.00000e+00 0.00000e+00
part       1
Triangles3_ref_0
tria3
       2
       1       2       4
       2       3       4
