Geometry file
Geometry file
node id assign
element id assign
coordinates
     160
 8.00000e-01 5.00000e-01 0.00000e+00
 7.99846e-01 5.07852e-01 0.00000e+00
 7.99383e-01 5.15692e-01 0.00000e+00
 7.98614e-01 5.23507e-01 0.00000e+00
 7.97538e-01 5.31287e-01 0.00000e+00
 7.96157e-01 5.39018e-01 0.00000e+00
 7.94474e-01 5.46689e-01 0.00000e+00
 7.92491e-01 5.54288e-01 0.00000e+00
 7.90211e-01 5.61803e-01 0.00000e+00
 7.87638e-01 5.69223e-01 0.00000e+00
 7.84776e-01 5.76537e-01 0.00000e+00
 7.81629e-01 5.83732e-01 0.00000e+00
 7.78201e-01 5.90798e-01 0.00000e+00
 7.74499e-01 5.97724e-01 0.00000e+00
 7.70528e-01 6.04500e-01 0.00000e+00
 7.66294e-01 6.11114e-01 0.00000e+00
 7.61803e-01 6.17557e-01 0.00000e+00
 7.57063e-01 6.23819e-01 0.00000e+00
 7.52081e-01 6.29890e-01 0.00000e+00
 7.46865e-01 6.35760e-01 0.00000e+00
 7.41421e-01 6.41421e-01 0.00000e+00
 7.35760e-01 6.46865e-01 0.00000e+00
 7.29890e-01 6.52081e-01 0.00000e+00
 7.23819e-01 6.57063e-01 0.00000e+00
 7.17557e-01 6.61803e-01 0.00000e+00
 7.11114e-01 6.66294e-01 0.00000e+00
 7.04500e-01 6.70528e-01 0.00000e+00
 6.97724e-01 6.74499e-01 0.00000e+00
 6.90798e-01 6.78201e-01 0.00000e+00
 6.83732e-01 6.81629e-01 0.00000e+00
 6.76537e-01 6.84776e-01 0.00000e+00
 6.69223e-01 6.87638e-01 0.00000e+00
 6.61803e-01 6.90211e-01 0.00000e+00
 6.54288e-01 6.92491e-01 0.00000e+00
 6.46689e-01 6.94474e-01 0.00000e+00
 6.39018e-01 6.96157e-01 0.00000e+00
 6.31287e-01 6.97538e-01 0.00000e+00
 6.23507e-01 6.98614e-01 0.00000e+00
 6.15692e-01 6.99383e-01 0.00000e+00
 6.07852e-01 6.99846e-01 0.00000e+00
 6.00000e-01 7.00000e-01 0.00000e+00
 5.92148e-01 6.99846e-01 0.00000e+00
 5.84308e-01 6.99383e-01 0.00000e+00
 5.76493e-01 6.98614e-01 0.00000e+00
 5.68713e-01 6.97538e-01 0.00000e+00
 5.60982e-01 6.96157e-01 0.00000e+00
 5.53311e-01 6.94474e-01 0.00000e+00
 5.45712e-01 6.92491e-01 0.00000e+00
 5.38197e-01 6.90211e-01 0.00000e+00
 5.30777e-01 6.87638e-01 0.00000e+00
 5.23463e-01 6.84776e-01 0.00000e+00
 5.16268e-01 6.81629e-01 0.00000e+00
 5.09202e-01 6.78201e-01 0.00000e+00
 5.02276e-01 6.74499e-01 0.00000e+00
 4.95500e-01 6.70528e-01 0.00000e+00
 4.88886e-01 6.66294e-01 0.00000e+00
 4.82443e-01 6.61803e-01 0.00000e+00
 4.76181e-01 6.57063e-01 0.00000e+00
 4.70110e-01 6.52081e-01 0.00000e+00
 4.64240e-01 6.46865e-01 0.00000e+00
 4.58579e-01 6.41421e-01 0.00000e+00
 4.53135e-01 6.35760e-01 0.00000e+00
 4.47919e-01 6.29890e-01 0.00000e+00
 4.42937e-01 6.23819e-01 0.00000e+00
 4.38197e-01 6.17557e-01 0.00000e+00
 4.33706e-01 6.11114e-01 0.00000e+00
 4.29472e-01 6.04500e-01 0.00000e+00
 4.25501e-01 5.97724e-01 0.00000e+00
 4.21799e-01 5.90798e-01 0.00000e+00
 4.18371e-01 5.83732e-01 0.00000e+00
 4.15224e-01 5.76537e-01 0.00000e+00
 4.12362e-01 5.69223e-01 0.00000e+00
 4.09789e-01 5.61803e-01 0.00000e+00
 4.07509e-01 5.54288e-01 0.00000e+00
 4.05526e-01 5.46689e-01 0.00000e+00
 4.03843e-01 5.39018e-01 0.00000e+00
 4.02462e-01 5.31287e-01 0.00000e+00
 4.01386e-01 5.23507e-01 0.00000e+00
 4.00617e-01 5.15692e-01 0.00000e+00
 4.00154e-01 5.07852e-01 0.00000e+00
 4.00000e-01 5.00000e-01 0.00000e+00
 4.00154e-01 4.92148e-01 0.00000e+00
 4.00617e-01 4.84308e-01 0.00000e+00
 4.01386e-01 4.76493e-01 0.00000e+00
 4.02462e-01 4.68713e-01 0.00000e+00
 4.03843e-01 4.60982e-01 0.00000e+00
 4.05526e-01 4.53311e-01 0.00000e+00
 4.07509e-01 4.45712e-01 0.00000e+00
 4.09789e-01 4.38197e-01 0.00000e+00
 4.12362e-01 4.30777e-01 0.00000e+00
 4.15224e-01 4.23463e-01 0.00000e+00
 4.18371e-01 4.16268e-01 0.00000e+00
 4.21799e-01 4.09202e-01 0.00000e+00
 4.25501e-01 4.02276e-01 0.00000e+00
 4.29472e-01 3.95500e-01 0.00000e+00
 4.33706e-01 3.88886e-01 0.00000e+00
 4.38197e-01 3.82443e-01 0.00000e+00
 4.42937e-01 3.76181e-01 0.00000e+00
 4.47919e-01 3.70110e-01 0.00000e+00
 4.53135e-01 3.64240e-01 0.00000e+00
 4.58579e-01 3.58579e-01 0.00000e+00
 4.64240e-01 3.53135e-01 0.00000e+00
 4.70110e-01 3.47919e-01 0.00000e+00
 4.76181e-01 3.42937e-01 0.00000e+00
 4.82443e-01 3.38197e-01 0.00000e+00
 4.88886e-01 3.33706e-01 0.00000e+00
 4.95500e-01 3.29472e-01 0.00000e+00
 5.02276e-01 3.25501e-01 0.00000e+00
 5.09202e-01 3.21799e-01 0.00000e+00
 5.16268e-01 3.18371e-01 0.00000e+00
 5.23463e-01 3.15224e-01 0.00000e+00
 5.30777e-01 3.12362e-01 0.00000e+00
 5.38197e-01 3.09789e-01 0.00000e+00
 5.45712e-01 3.07509e-01 0.00000e+00
 5.53311e-01 3.05526e-01 0.00000e+00
 5.60982e-01 3.03843e-01 0.00000e+00
 5.68713e-01 3.02462e-01 0.00000e+00
 5.76493e-01 3.01386e-01 0.00000e+00
 5.84308e-01 3.00617e-01 0.00000e+00
 5.92148e-01 3.00154e-01 0.00000e+00
 6.00000e-01 3.00000e-01 0.00000e+00
 6.07852e-01 3.00154e-01 0.00000e+00
 6.15692e-01 3.00617e-01 0.00000e+00
 6.23507e-01 3.01386e-01 0.00000e+00
 6.31287e-01 3.02462e-01 0.00000e+00
 6.39018e-01 3.03843e-01 0.00000e+00
 6.46689e-01 3.05526e-01 0.00000e+00
 6.54288e-01 3.07509e-01 0.00000e+00
 6.61803e-01 3.09789e-01 0.00000e+00
 6.69223e-01 3.12362e-01 0.00000e+00
 6.76537e-01 3.15224e-01 0.00000e+00
 6.83732e-01 3.18371e-01 0.00000e+00
 6.90798e-01 3.21799e-01 0.00000e+00
 6.97724e-01 3.25501e-01 0.00000e+00
 7.04500e-01 3.29472e-01 0.00000e+00
 7.11114e-01 3.33706e-01 0.00000e+00
 7.17557e-01 3.38197e-01 0.00000e+00
 7.23819e-01 3.42937e-01 0.00000e+00
 7.29890e-01 3.47919e-01 0.00000e+00
 7.35760e-01 3.53135e-01 0.00000e+00
 7.41421e-01 3.58579e-01 0.00000e+00
 7.46865e-01 3.64240e-01 0.00000e+00
 7.52081e-01 3.70110e-01 0.00000e+00
 7.57063e-01 3.76181e-01 0.00000e+00
 7.61803e-01 3.82443e-01 0.00000e+00
 7.66294e-01 3.88886e-01 0.00000e+00
 7.70528e-01 3.95500e-01 0.00000e+00
 7.74499e-01 4.02276e-01 0.00000e+00
 7.78201e-01 4.09202e-01 0.00000e+00
 7.81629e-01 4.16268e-01 0.00000e+00
 7.84776e-01 4.23463e-01 0.00000e+00
 7.87638e-01 4.30777e-01 0.00000e+00
 7.90211e-01 4.38197e-01 0.00000e+00
 7.92491e-01 4.45712e-01 0.00000e+00
 7.94474e-01 4.53311e-01 0.00000e+00
 7.96157e-01 4.60982e-01 0.00000e+00
 7.97538e-01 4.68713e-01 0.00000e+00
 7.98614e-01 4.76493e-01 0.00000e+00
 7.99383e-01 4.84308e-01 0.00000e+00
 7.99846e-01 4.92148e-01 0.00000e+00
part       1
Segments2_ref_0
bar2
     160
       1       2
       2       3
       3       4
       4       5
       5       6
       6       7
       7       8
       8       9
       9      10
      10      11
      11      12
      12      13
      13      14
      14      15
      15      16
      16      17
      17      18
      18      19
      19      20
      20      21
      21      22
      22      23
      23      24
      24      25
      25      26
      26      27
      27      28
      28      29
      29      30
      30      31
      31      32
      32      33
      33      34
      34      35
      35      36
      36      37
      37      38
      38      39
      39      40
      40      41
      41      42
      42      43
      43      44
      44      45
      45      46
      46      47
      47      48
      48      49
      49      50
      50      51
      51      52
      52      53
      53      54
      54      55
      55      56
      56      57
      57      58
      58      59
      59      60
      60      61
      61      62
      62      63
      63      64
      64      65
      65      66
      66      67
      67      68
      68      69
      69      70
      70      71
      71      72
      72      73
      73      74
      74      75
      75      76
      76      77
      77      78
      78      79
      79      80
      80      81
      81      82
      82      83
      83      84
      84      85
      85      86
      86      87
      87      88
      88      89
      89      90
      90      91
      91      92
      92      93
      93      94
      94      95
      95      96
      96      97
      97      98
      98      99
      99     100
     100     101
     101     102
     102     103
     103     104
     104     105
     105     106
     106     107
     107     108
     108     109
     109     110
     110     111
     111     112
     112     113
     113     114
     114     115
     115     116
     116     117
     117     118
     118     119
     119     120
     120     121
     121     122
     122     123
     123     124
     124     125
     125     126
     126     127
     127     128
     128     129
     129     130
     130     131
     131     132
     132     133
     133     134
     134     135
     135     136
     136     137
     137     138
     138     139
     139     140
     140     141
     141     142
     142     143
     143     144
     144     145
     145     146
     146     147
     147     148
     148     149
     149     150
     150     151
     151     152
     152     153
     153     154
     154     155
     155     156
     156     157
     157     158
     158     159
     159     160
     160       1
