Geometry file
Geometry file
node id assign
element id assign
coordinates
      26
 2.00000e+00 0.00000e+00 0.00000e+00
 2.00000e+00 4.00000e-02 0.00000e+00
 2.00000e+00 8.00000e-02 0.00000e+00
 2.00000e+00 1.20000e-01 0.00000e+00
 2.00000e+00 1.60000e-01 0.00000e+00
 2.00000e+00 2.00000e-01 0.00000e+00
 2.00000e+00 2.40000e-01 0.00000e+00
 2.00000e+00 2.80000e-01 0.00000e+00
 2.00000e+00 3.20000e-01 0.00000e+00
 2.00000e+00 3.60000e-01 0.00000e+00
 2.00000e+00 4.00000e-01 0.00000e+00
 2.00000e+00 4.40000e-01 0.00000e+00
 2.00000e+00 4.80000e-01 0.00000e+00
 2.00000e+00 5.20000e-01 0.00000e+00
 2.00000e+00 5.60000e-01 0.00000e+00
 2.00000e+00 6.00000e-01 0.00000e+00
 2.00000e+00 6.40000e-01 0.00000e+00
 2.00000e+00 6.80000e-01 0.00000e+00
 2.00000e+00 7.20000e-01 0.00000e+00
 2.00000e+00 7.60000e-01 0.00000e+00
 2.00000e+00 8.00000e-01 0.00000e+00
 2.00000e+00 8.40000e-01 0.00000e+00
 2.00000e+00 8.80000e-01 0.00000e+00
 2.00000e+00 9.20000e-01 0.00000e+00
 2.00000e+00 9.60000e-01 0.00000e+00
 2.00000e+00 1.00000e+00 0.00000e+00
part       1
domain
bar2
      25
       1       2
       2       3
       3       4
       4       5
       5       6
       6       7
       7       8
       8       9
       9      10
      10      11
      11      12
      12      13
      13      14
      14      15
      15      16
      16      17
      17      18
      18      19
      19      20
      20      21
      21      22
      22      23
      23      24
      24      25
      25      26
part       2
bottom
point
       1
       1
part       3
top
point
       1
      26
