Geometry file
Geometry file
node id assign
element id assign
coordinates
      40
 8.00000e-01 5.00000e-01 0.00000e+00
 7.97538e-01 5.31287e-01 0.00000e+00
 7.90211e-01 5.61803e-01 0.00000e+00
 7.78201e-01 5.90798e-01 0.00000e+00
 7.61803e-01 6.17557e-01 0.00000e+00
 7.41421e-01 6.41421e-01 0.00000e+00
 7.17557e-01 6.61803e-01 0.00000e+00
 6.90798e-01 6.78201e-01 0.00000e+00
 6.61803e-01 6.90211e-01 0.00000e+00
 6.31287e-01 6.97538e-01 0.00000e+00
 6.00000e-01 7.00000e-01 0.00000e+00
 5.68713e-01 6.97538e-01 0.00000e+00
 5.38197e-01 6.90211e-01 0.00000e+00
 5.09202e-01 6.78201e-01 0.00000e+00
 4.82443e-01 6.61803e-01 0.00000e+00
 4.58579e-01 6.41421e-01 0.00000e+00
 4.38197e-01 6.17557e-01 0.00000e+00
 4.21799e-01 5.90798e-01 0.00000e+00
 4.09789e-01 5.61803e-01 0.00000e+00
 4.02462e-01 5.31287e-01 0.00000e+00
 4.00000e-01 5.00000e-01 0.00000e+00
 4.02462e-01 4.68713e-01 0.00000e+00
 4.09789e-01 4.38197e-01 0.00000e+00
 4.21799e-01 4.09202e-01 0.00000e+00
 4.38197e-01 3.82443e-01 0.00000e+00
 4.58579e-01 3.58579e-01 0.00000e+00
 4.82443e-01 3.38197e-01 0.00000e+00
 5.09202e-01 3.21799e-01 0.00000e+00
 5.38197e-01 3.09789e-01 0.00000e+00
 5.68713e-01 3.02462e-01 0.00000e+00
 6.00000e-01 3.00000e-01 0.00000e+00
 6.31287e-01 3.02462e-01 0.00000e+00
 6.61803e-01 3.09789e-01 0.00000e+00
 6.90798e-01 3.21799e-01 0.00000e+00
 7.17557e-01 3.38197e-01 0.00000e+00
 7.41421e-01 3.58579e-01 0.00000e+00
 7.61803e-01 3.82443e-01 0.00000e+00
 7.78201e-01 4.09202e-01 0.00000e+00
 7.90211e-01 4.38197e-01 0.00000e+00
 7.97538e-01 4.68713e-01 0.00000e+00
part       1
Segments2_ref_0
bar2
      40
       1       2
       2       3
       3       4
       4       5
       5       6
       6       7
       7       8
       8       9
       9      10
      10      11
      11      12
      12      13
      13      14
      14      15
      15      16
      16      17
      17      18
      18      19
      19      20
      20      21
      21      22
      22      23
      23      24
      24      25
      25      26
      26      27
      27      28
      28      29
      29      30
      30      31
      31      32
      32      33
      33      34
      34      35
      35      36
      36      37
      37      38
      38      39
      39      40
      40       1
