Geometry file
Geometry file
node id assign
element id assign
coordinates
      51
 2.00000e+00 0.00000e+00 0.00000e+00
 2.00000e+00 2.00000e-02 0.00000e+00
 2.00000e+00 4.00000e-02 0.00000e+00
 2.00000e+00 6.00000e-02 0.00000e+00
 2.00000e+00 8.00000e-02 0.00000e+00
 2.00000e+00 1.00000e-01 0.00000e+00
 2.00000e+00 1.20000e-01 0.00000e+00
 2.00000e+00 1.40000e-01 0.00000e+00
 2.00000e+00 1.60000e-01 0.00000e+00
 2.00000e+00 1.80000e-01 0.00000e+00
 2.00000e+00 2.00000e-01 0.00000e+00
 2.00000e+00 2.20000e-01 0.00000e+00
 2.00000e+00 2.40000e-01 0.00000e+00
 2.00000e+00 2.60000e-01 0.00000e+00
 2.00000e+00 2.80000e-01 0.00000e+00
 2.00000e+00 3.00000e-01 0.00000e+00
 2.00000e+00 3.20000e-01 0.00000e+00
 2.00000e+00 3.40000e-01 0.00000e+00
 2.00000e+00 3.60000e-01 0.00000e+00
 2.00000e+00 3.80000e-01 0.00000e+00
 2.00000e+00 4.00000e-01 0.00000e+00
 2.00000e+00 4.20000e-01 0.00000e+00
 2.00000e+00 4.40000e-01 0.00000e+00
 2.00000e+00 4.60000e-01 0.00000e+00
 2.00000e+00 4.80000e-01 0.00000e+00
 2.00000e+00 5.00000e-01 0.00000e+00
 2.00000e+00 5.20000e-01 0.00000e+00
 2.00000e+00 5.40000e-01 0.00000e+00
 2.00000e+00 5.60000e-01 0.00000e+00
 2.00000e+00 5.80000e-01 0.00000e+00
 2.00000e+00 6.00000e-01 0.00000e+00
 2.00000e+00 6.20000e-01 0.00000e+00
 2.00000e+00 6.40000e-01 0.00000e+00
 2.00000e+00 6.60000e-01 0.00000e+00
 2.00000e+00 6.80000e-01 0.00000e+00
 2.00000e+00 7.00000e-01 0.00000e+00
 2.00000e+00 7.20000e-01 0.00000e+00
 2.00000e+00 7.40000e-01 0.00000e+00
 2.00000e+00 7.60000e-01 0.00000e+00
 2.00000e+00 7.80000e-01 0.00000e+00
 2.00000e+00 8.00000e-01 0.00000e+00
 2.00000e+00 8.20000e-01 0.00000e+00
 2.00000e+00 8.40000e-01 0.00000e+00
 2.00000e+00 8.60000e-01 0.00000e+00
 2.00000e+00 8.80000e-01 0.00000e+00
 2.00000e+00 9.00000e-01 0.00000e+00
 2.00000e+00 9.20000e-01 0.00000e+00
 2.00000e+00 9.40000e-01 0.00000e+00
 2.00000e+00 9.60000e-01 0.00000e+00
 2.00000e+00 9.80000e-01 0.00000e+00
 2.00000e+00 1.00000e+00 0.00000e+00
part       1
domain
bar2
      50
       1       2
       2       3
       3       4
       4       5
       5       6
       6       7
       7       8
       8       9
       9      10
      10      11
      11      12
      12      13
      13      14
      14      15
      15      16
      16      17
      17      18
      18      19
      19      20
      20      21
      21      22
      22      23
      23      24
      24      25
      25      26
      26      27
      27      28
      28      29
      29      30
      30      31
      31      32
      32      33
      33      34
      34      35
      35      36
      36      37
      37      38
      38      39
      39      40
      40      41
      41      42
      42      43
      43      44
      44      45
      45      46
      46      47
      47      48
      48      49
      49      50
      50      51
part       2
bottom
point
       1
       1
part       3
top
point
       1
      51
