Geometry file
Geometry file
node id assign
element id assign
coordinates
      129
 2.00000e+00 0.00000e+00 0.00000e+00
 2.00000e+00 5.46875e-03 0.00000e+00
 2.00000e+00 1.09375e-02 0.00000e+00
 2.00000e+00 1.64063e-02 0.00000e+00
 2.00000e+00 2.18750e-02 0.00000e+00
 2.00000e+00 2.73438e-02 0.00000e+00
 2.00000e+00 3.28125e-02 0.00000e+00
 2.00000e+00 3.82813e-02 0.00000e+00
 2.00000e+00 4.37500e-02 0.00000e+00
 2.00000e+00 4.92188e-02 0.00000e+00
 2.00000e+00 5.46875e-02 0.00000e+00
 2.00000e+00 6.01563e-02 0.00000e+00
 2.00000e+00 6.56250e-02 0.00000e+00
 2.00000e+00 7.10938e-02 0.00000e+00
 2.00000e+00 7.65625e-02 0.00000e+00
 2.00000e+00 8.20313e-02 0.00000e+00
 2.00000e+00 8.75000e-02 0.00000e+00
 2.00000e+00 9.29688e-02 0.00000e+00
 2.00000e+00 9.84375e-02 0.00000e+00
 2.00000e+00 1.03906e-01 0.00000e+00
 2.00000e+00 1.09375e-01 0.00000e+00
 2.00000e+00 1.14844e-01 0.00000e+00
 2.00000e+00 1.20313e-01 0.00000e+00
 2.00000e+00 1.25782e-01 0.00000e+00
 2.00000e+00 1.31250e-01 0.00000e+00
 2.00000e+00 1.36719e-01 0.00000e+00
 2.00000e+00 1.42188e-01 0.00000e+00
 2.00000e+00 1.47657e-01 0.00000e+00
 2.00000e+00 1.53125e-01 0.00000e+00
 2.00000e+00 1.58594e-01 0.00000e+00
 2.00000e+00 1.64063e-01 0.00000e+00
 2.00000e+00 1.69532e-01 0.00000e+00
 2.00000e+00 1.75000e-01 0.00000e+00
 2.00000e+00 1.80469e-01 0.00000e+00
 2.00000e+00 1.85938e-01 0.00000e+00
 2.00000e+00 1.91407e-01 0.00000e+00
 2.00000e+00 1.96875e-01 0.00000e+00
 2.00000e+00 2.02344e-01 0.00000e+00
 2.00000e+00 2.07813e-01 0.00000e+00
 2.00000e+00 2.13282e-01 0.00000e+00
 2.00000e+00 2.18750e-01 0.00000e+00
 2.00000e+00 2.24219e-01 0.00000e+00
 2.00000e+00 2.29688e-01 0.00000e+00
 2.00000e+00 2.35157e-01 0.00000e+00
 2.00000e+00 2.40625e-01 0.00000e+00
 2.00000e+00 2.46094e-01 0.00000e+00
 2.00000e+00 2.51563e-01 0.00000e+00
 2.00000e+00 2.57032e-01 0.00000e+00
 2.00000e+00 2.62500e-01 0.00000e+00
 2.00000e+00 2.67969e-01 0.00000e+00
 2.00000e+00 2.73438e-01 0.00000e+00
 2.00000e+00 2.78907e-01 0.00000e+00
 2.00000e+00 2.84375e-01 0.00000e+00
 2.00000e+00 2.89844e-01 0.00000e+00
 2.00000e+00 2.95313e-01 0.00000e+00
 2.00000e+00 3.00782e-01 0.00000e+00
 2.00000e+00 3.06250e-01 0.00000e+00
 2.00000e+00 3.11719e-01 0.00000e+00
 2.00000e+00 3.17188e-01 0.00000e+00
 2.00000e+00 3.22657e-01 0.00000e+00
 2.00000e+00 3.28125e-01 0.00000e+00
 2.00000e+00 3.33594e-01 0.00000e+00
 2.00000e+00 3.39063e-01 0.00000e+00
 2.00000e+00 3.44532e-01 0.00000e+00
 2.00000e+00 3.50000e-01 0.00000e+00
 2.00000e+00 3.55469e-01 0.00000e+00
 2.00000e+00 3.60938e-01 0.00000e+00
 2.00000e+00 3.66407e-01 0.00000e+00
 2.00000e+00 3.71875e-01 0.00000e+00
 2.00000e+00 3.77344e-01 0.00000e+00
 2.00000e+00 3.82813e-01 0.00000e+00
 2.00000e+00 3.88282e-01 0.00000e+00
 2.00000e+00 3.93750e-01 0.00000e+00
 2.00000e+00 3.99219e-01 0.00000e+00
 2.00000e+00 4.04688e-01 0.00000e+00
 2.00000e+00 4.10157e-01 0.00000e+00
 2.00000e+00 4.15625e-01 0.00000e+00
 2.00000e+00 4.21094e-01 0.00000e+00
 2.00000e+00 4.26563e-01 0.00000e+00
 2.00000e+00 4.32032e-01 0.00000e+00
 2.00000e+00 4.37500e-01 0.00000e+00
 2.00000e+00 4.42969e-01 0.00000e+00
 2.00000e+00 4.48438e-01 0.00000e+00
 2.00000e+00 4.53907e-01 0.00000e+00
 2.00000e+00 4.59375e-01 0.00000e+00
 2.00000e+00 4.64844e-01 0.00000e+00
 2.00000e+00 4.70313e-01 0.00000e+00
 2.00000e+00 4.75782e-01 0.00000e+00
 2.00000e+00 4.81250e-01 0.00000e+00
 2.00000e+00 4.86719e-01 0.00000e+00
 2.00000e+00 4.92188e-01 0.00000e+00
 2.00000e+00 4.97657e-01 0.00000e+00
 2.00000e+00 5.03125e-01 0.00000e+00
 2.00000e+00 5.08594e-01 0.00000e+00
 2.00000e+00 5.14063e-01 0.00000e+00
 2.00000e+00 5.19532e-01 0.00000e+00
 2.00000e+00 5.25000e-01 0.00000e+00
 2.00000e+00 5.30469e-01 0.00000e+00
 2.00000e+00 5.35938e-01 0.00000e+00
 2.00000e+00 5.41407e-01 0.00000e+00
 2.00000e+00 5.46875e-01 0.00000e+00
 2.00000e+00 5.52344e-01 0.00000e+00
 2.00000e+00 5.57813e-01 0.00000e+00
 2.00000e+00 5.63282e-01 0.00000e+00
 2.00000e+00 5.68750e-01 0.00000e+00
 2.00000e+00 5.74219e-01 0.00000e+00
 2.00000e+00 5.79688e-01 0.00000e+00
 2.00000e+00 5.85157e-01 0.00000e+00
 2.00000e+00 5.90625e-01 0.00000e+00
 2.00000e+00 5.96094e-01 0.00000e+00
 2.00000e+00 6.01563e-01 0.00000e+00
 2.00000e+00 6.07032e-01 0.00000e+00
 2.00000e+00 6.12500e-01 0.00000e+00
 2.00000e+00 6.17969e-01 0.00000e+00
 2.00000e+00 6.23438e-01 0.00000e+00
 2.00000e+00 6.28907e-01 0.00000e+00
 2.00000e+00 6.34375e-01 0.00000e+00
 2.00000e+00 6.39844e-01 0.00000e+00
 2.00000e+00 6.45313e-01 0.00000e+00
 2.00000e+00 6.50782e-01 0.00000e+00
 2.00000e+00 6.56250e-01 0.00000e+00
 2.00000e+00 6.61719e-01 0.00000e+00
 2.00000e+00 6.67188e-01 0.00000e+00
 2.00000e+00 6.72657e-01 0.00000e+00
 2.00000e+00 6.78125e-01 0.00000e+00
 2.00000e+00 6.83594e-01 0.00000e+00
 2.00000e+00 6.89063e-01 0.00000e+00
 2.00000e+00 6.94532e-01 0.00000e+00
 2.00000e+00 7.00000e-01 0.00000e+00
part       1
domain
bar2
      128
       1       2
       2       3
       3       4
       4       5
       5       6
       6       7
       7       8
       8       9
       9      10
      10      11
      11      12
      12      13
      13      14
      14      15
      15      16
      16      17
      17      18
      18      19
      19      20
      20      21
      21      22
      22      23
      23      24
      24      25
      25      26
      26      27
      27      28
      28      29
      29      30
      30      31
      31      32
      32      33
      33      34
      34      35
      35      36
      36      37
      37      38
      38      39
      39      40
      40      41
      41      42
      42      43
      43      44
      44      45
      45      46
      46      47
      47      48
      48      49
      49      50
      50      51
      51      52
      52      53
      53      54
      54      55
      55      56
      56      57
      57      58
      58      59
      59      60
      60      61
      61      62
      62      63
      63      64
      64      65
      65      66
      66      67
      67      68
      68      69
      69      70
      70      71
      71      72
      72      73
      73      74
      74      75
      75      76
      76      77
      77      78
      78      79
      79      80
      80      81
      81      82
      82      83
      83      84
      84      85
      85      86
      86      87
      87      88
      88      89
      89      90
      90      91
      91      92
      92      93
      93      94
      94      95
      95      96
      96      97
      97      98
      98      99
      99     100
     100     101
     101     102
     102     103
     103     104
     104     105
     105     106
     106     107
     107     108
     108     109
     109     110
     110     111
     111     112
     112     113
     113     114
     114     115
     115     116
     116     117
     117     118
     118     119
     119     120
     120     121
     121     122
     122     123
     123     124
     124     125
     125     126
     126     127
     127     128
     128     129
part       2
beginning
point
       1
       1
