Geometry file
Geometry file
node id assign
element id assign
coordinates
      33
 2.00000e+00 0.00000e+00 0.00000e+00
 2.00000e+00 2.18750e-02 0.00000e+00
 2.00000e+00 4.37500e-02 0.00000e+00
 2.00000e+00 6.56250e-02 0.00000e+00
 2.00000e+00 8.75000e-02 0.00000e+00
 2.00000e+00 1.09375e-01 0.00000e+00
 2.00000e+00 1.31250e-01 0.00000e+00
 2.00000e+00 1.53125e-01 0.00000e+00
 2.00000e+00 1.75000e-01 0.00000e+00
 2.00000e+00 1.96875e-01 0.00000e+00
 2.00000e+00 2.18750e-01 0.00000e+00
 2.00000e+00 2.40625e-01 0.00000e+00
 2.00000e+00 2.62500e-01 0.00000e+00
 2.00000e+00 2.84375e-01 0.00000e+00
 2.00000e+00 3.06250e-01 0.00000e+00
 2.00000e+00 3.28125e-01 0.00000e+00
 2.00000e+00 3.50000e-01 0.00000e+00
 2.00000e+00 3.71875e-01 0.00000e+00
 2.00000e+00 3.93750e-01 0.00000e+00
 2.00000e+00 4.15625e-01 0.00000e+00
 2.00000e+00 4.37500e-01 0.00000e+00
 2.00000e+00 4.59375e-01 0.00000e+00
 2.00000e+00 4.81250e-01 0.00000e+00
 2.00000e+00 5.03125e-01 0.00000e+00
 2.00000e+00 5.25000e-01 0.00000e+00
 2.00000e+00 5.46875e-01 0.00000e+00
 2.00000e+00 5.68750e-01 0.00000e+00
 2.00000e+00 5.90625e-01 0.00000e+00
 2.00000e+00 6.12500e-01 0.00000e+00
 2.00000e+00 6.34375e-01 0.00000e+00
 2.00000e+00 6.56250e-01 0.00000e+00
 2.00000e+00 6.78125e-01 0.00000e+00
 2.00000e+00 7.00000e-01 0.00000e+00
part       1
domain
bar2
      32
       1       2
       2       3
       3       4
       4       5
       5       6
       6       7
       7       8
       8       9
       9      10
      10      11
      11      12
      12      13
      13      14
      14      15
      15      16
      16      17
      17      18
      18      19
      19      20
      20      21
      21      22
      22      23
      23      24
      24      25
      25      26
      26      27
      27      28
      28      29
      29      30
      30      31
      31      32
      32      33
part       2
beginning
point
       1
       1
