Geometry file
Geometry file
node id assign
element id assign
coordinates
     142
 0.00000e+00 0.00000e+00 0.00000e+00
 0.00000e+00 1.00000e+00 0.00000e+00
 1.00000e+00 1.00000e+00 0.00000e+00
 1.00000e+00 0.00000e+00 0.00000e+00
 1.00000e-01 0.00000e+00 0.00000e+00
 2.00000e-01 0.00000e+00 0.00000e+00
 3.00000e-01 0.00000e+00 0.00000e+00
 4.00000e-01 0.00000e+00 0.00000e+00
 5.00000e-01 0.00000e+00 0.00000e+00
 6.00000e-01 0.00000e+00 0.00000e+00
 7.00000e-01 0.00000e+00 0.00000e+00
 8.00000e-01 0.00000e+00 0.00000e+00
 9.00000e-01 0.00000e+00 0.00000e+00
 1.00000e+00 1.00000e-01 0.00000e+00
 1.00000e+00 2.00000e-01 0.00000e+00
 1.00000e+00 3.00000e-01 0.00000e+00
 1.00000e+00 4.00000e-01 0.00000e+00
 1.00000e+00 5.00000e-01 0.00000e+00
 1.00000e+00 6.00000e-01 0.00000e+00
 1.00000e+00 7.00000e-01 0.00000e+00
 1.00000e+00 8.00000e-01 0.00000e+00
 1.00000e+00 9.00000e-01 0.00000e+00
 9.00000e-01 1.00000e+00 0.00000e+00
 8.00000e-01 1.00000e+00 0.00000e+00
 7.00000e-01 1.00000e+00 0.00000e+00
 6.00000e-01 1.00000e+00 0.00000e+00
 5.00000e-01 1.00000e+00 0.00000e+00
 4.00000e-01 1.00000e+00 0.00000e+00
 3.00000e-01 1.00000e+00 0.00000e+00
 2.00000e-01 1.00000e+00 0.00000e+00
 1.00000e-01 1.00000e+00 0.00000e+00
 0.00000e+00 9.00000e-01 0.00000e+00
 0.00000e+00 8.00000e-01 0.00000e+00
 0.00000e+00 7.00000e-01 0.00000e+00
 0.00000e+00 6.00000e-01 0.00000e+00
 0.00000e+00 5.00000e-01 0.00000e+00
 0.00000e+00 4.00000e-01 0.00000e+00
 0.00000e+00 3.00000e-01 0.00000e+00
 0.00000e+00 2.00000e-01 0.00000e+00
 0.00000e+00 1.00000e-01 0.00000e+00
 5.00000e-01 5.00000e-01 0.00000e+00
 7.07143e-01 7.07143e-01 0.00000e+00
 2.92857e-01 7.07143e-01 0.00000e+00
 7.07143e-01 2.92857e-01 0.00000e+00
 2.92857e-01 2.92857e-01 0.00000e+00
 4.97000e-01 7.84880e-01 0.00000e+00
 2.15120e-01 4.97000e-01 0.00000e+00
 7.84880e-01 5.03000e-01 0.00000e+00
 5.03000e-01 2.15120e-01 0.00000e+00
 8.29497e-01 8.29497e-01 0.00000e+00
 1.70503e-01 8.29497e-01 0.00000e+00
 8.29497e-01 1.70503e-01 0.00000e+00
 1.70503e-01 1.70503e-01 0.00000e+00
 6.40710e-01 8.48866e-01 0.00000e+00
 1.51134e-01 6.40710e-01 0.00000e+00
 3.59205e-01 8.48175e-01 0.00000e+00
 8.48175e-01 6.40795e-01 0.00000e+00
 8.48866e-01 3.59290e-01 0.00000e+00
 1.51825e-01 3.59205e-01 0.00000e+00
 3.59290e-01 1.51134e-01 0.00000e+00
 6.40795e-01 1.51825e-01 0.00000e+00
 5.66986e-01 6.40157e-01 0.00000e+00
 3.63936e-01 5.72011e-01 0.00000e+00
 6.40157e-01 4.33014e-01 0.00000e+00
 4.31769e-01 3.56433e-01 0.00000e+00
 4.31587e-01 6.59528e-01 0.00000e+00
 6.66173e-01 5.58699e-01 0.00000e+00
 3.45738e-01 4.34531e-01 0.00000e+00
 5.58699e-01 3.33827e-01 0.00000e+00
 4.60465e-01 8.90324e-01 0.00000e+00
 1.09676e-01 4.60465e-01 0.00000e+00
 8.90324e-01 5.39535e-01 0.00000e+00
 5.39535e-01 1.09676e-01 0.00000e+00
 7.39074e-01 9.02335e-01 0.00000e+00
 9.76651e-02 7.39074e-01 0.00000e+00
 9.02335e-01 2.60926e-01 0.00000e+00
 2.60926e-01 9.76651e-02 0.00000e+00
 9.00559e-01 7.40305e-01 0.00000e+00
 2.59695e-01 9.00559e-01 0.00000e+00
 7.40305e-01 9.94409e-02 0.00000e+00
 9.94409e-02 2.59695e-01 0.00000e+00
 6.04121e-01 7.45283e-01 0.00000e+00
 2.55748e-01 6.07779e-01 0.00000e+00
 7.45283e-01 3.95879e-01 0.00000e+00
 3.95879e-01 2.54717e-01 0.00000e+00
 3.93407e-01 7.46481e-01 0.00000e+00
 7.47312e-01 6.05379e-01 0.00000e+00
 2.54177e-01 3.93775e-01 0.00000e+00
 6.05379e-01 2.52688e-01 0.00000e+00
 9.00122e-01 9.00122e-01 0.00000e+00
 9.98781e-02 9.00122e-01 0.00000e+00
 9.00122e-01 9.98781e-02 0.00000e+00
 9.98781e-02 9.98781e-02 0.00000e+00
 5.69080e-01 9.16779e-01 0.00000e+00
 8.32208e-02 5.69080e-01 0.00000e+00
 9.16779e-01 4.30920e-01 0.00000e+00
 4.30920e-01 8.32208e-02 0.00000e+00
 7.93413e-01 7.20731e-01 0.00000e+00
 2.79067e-01 7.93275e-01 0.00000e+00
 7.20731e-01 2.06587e-01 0.00000e+00
 2.06835e-01 2.79128e-01 0.00000e+00
 7.27794e-01 8.01265e-01 0.00000e+00
 1.98735e-01 7.27794e-01 0.00000e+00
 8.01265e-01 2.72206e-01 0.00000e+00
 2.72206e-01 1.98735e-01 0.00000e+00
 4.87185e-01 5.89351e-01 0.00000e+00
 5.80327e-01 5.41124e-01 0.00000e+00
 4.09677e-01 4.91135e-01 0.00000e+00
 5.54918e-01 4.26801e-01 0.00000e+00
 6.50232e-01 6.40017e-01 0.00000e+00
 3.53859e-01 6.54371e-01 0.00000e+00
 6.42499e-01 3.48048e-01 0.00000e+00
 3.47016e-01 3.54627e-01 0.00000e+00
 6.49773e-01 9.33596e-01 0.00000e+00
 6.64040e-02 6.49773e-01 0.00000e+00
 9.33596e-01 3.50227e-01 0.00000e+00
 3.50227e-01 6.64040e-02 0.00000e+00
 9.27812e-01 6.44127e-01 0.00000e+00
 6.44127e-01 7.21883e-02 0.00000e+00
 3.55873e-01 9.27812e-01 0.00000e+00
 7.21883e-02 3.55873e-01 0.00000e+00
 8.20102e-01 9.20029e-01 0.00000e+00
 7.99714e-02 8.20102e-01 0.00000e+00
 9.20029e-01 1.79898e-01 0.00000e+00
 1.79898e-01 7.99714e-02 0.00000e+00
 9.20029e-01 8.20102e-01 0.00000e+00
 8.20102e-01 7.99714e-02 0.00000e+00
 1.79898e-01 9.20029e-01 0.00000e+00
 7.99714e-02 1.79898e-01 0.00000e+00
 5.07721e-01 6.98509e-01 0.00000e+00
 3.02103e-01 5.08689e-01 0.00000e+00
 7.12239e-01 4.95415e-01 0.00000e+00
 4.95238e-01 2.87274e-01 0.00000e+00
 5.54275e-01 8.37226e-01 0.00000e+00
 1.66875e-01 5.59070e-01 0.00000e+00
 8.37226e-01 4.45725e-01 0.00000e+00
 4.45725e-01 1.62774e-01 0.00000e+00
 4.27519e-01 8.17465e-01 0.00000e+00
 1.82699e-01 4.27611e-01 0.00000e+00
 8.17673e-01 5.72177e-01 0.00000e+00
 5.72177e-01 1.82327e-01 0.00000e+00
 4.61024e-01 4.32542e-01 0.00000e+00
part       1
Triangles3_ref_0
tria3
     242
     109     142      69
       4      14      92
       1       5      93
       3      23      90
       2      32      91
       4      92      13
       1      93      40
       3      90      22
       2      91      31
      69     142      65
      66     130      86
      67     132      87
      68     131      88
      69     133      89
      63     108     106
      63     106      66
      64     107     109
      64      67     107
     130      46      86
     131      47      88
     132      48      87
     133      49      89
      55      83     103
      54      82     102
      60      85     105
      58      84     104
      43     103      83
      42     102      82
      45     105      85
      44     104      84
      57      98      87
      56      99      86
      61     100      89
      59     101      88
      65     142      68
      27      28      70
      36      37      71
      18      19      72
       9      10      73
      19     118      72
      10     119      73
      28     120      70
      37     121      71
      64     132      67
      65     133      69
      42      87      98
      43      86      99
      44      89     100
      45      88     101
      63      66     111
      65      68     113
      68     142     108
      41     106     108
      41     109     107
      57      72     118
      61      73     119
      56      70     120
      59      71     121
      24      25      74
      33      34      75
      15      16      76
       6       7      77
      20      21      78
      11      12      80
      29      30      79
      38      39      81
      27      70      94
      36      71      95
      18      72      96
       9      73      97
      57      78      98
      56      79      99
      61      80     100
      59      81     101
      46     134      70
      47     135      71
      48     136      72
      49     137      73
      62     110      82
      63     111      83
      64     112      84
      65     113      85
      50      74     102
      51      75     103
      52      76     104
      53      77     105
      42      82     110
      43      83     111
      44      84     112
      45      85     113
      62     107     110
      67     110     107
      64     109     112
      69     112     109
      26      27      94
      35      36      95
      17      18      96
       8       9      97
      46     138      86
      48     140      87
      47     139      88
      49     141      89
      24      74     122
      33      75     123
      15      76     124
       6      77     125
      21     126      78
      12     127      80
      30     128      79
      39     129      81
      55     103      75
      54     102      74
      60     105      77
      58     104      76
      50      98      78
      51      99      79
      52     100      80
      53     101      81
      14      15     124
      23      24     122
       5       6     125
      32      33     123
      21      22     126
      12      13     127
      30      31     128
      39      40     129
      70     134      94
      71     135      95
      72     136      96
      73     137      97
      14     124      92
       5     125      93
      23     122      90
      32     123      91
      22      90     126
      13      92     127
      31      91     128
      40      93     129
      50     102      98
      51     103      99
      52     104     100
      53     105     101
      62      82     130
      63      83     131
      64      84     132
      65      85     133
      46      70     138
      47      71     139
      56     138      70
      59     139      71
      48      72     140
      49      73     141
      57     140      72
      61     141      73
      25     114      74
      34     115      75
      56     120      79
      54      74     114
      55      75     115
      57     118      78
      59     121      81
      61     119      80
      29      79     120
      20      78     118
      38      81     121
      11      80     119
      16     116      76
       7     117      77
      58      76     116
      60      77     117
      46     130      82
      47     131      83
      48     132      84
      49     133      85
      62     130     106
      66     106     130
      63     131     108
      68     108     131
      50     122      74
      51     123      75
      50      78     126
      52     124      76
      51      79     128
      53     125      77
      52      80     127
      53      81     129
      54     134      82
      46      82     134
      55     135      83
      47      83     135
      48      84     136
      58     136      84
      60     137      85
      49      85     137
      66      86     111
      43     111      86
      67      87     110
      42     110      87
      68      88     113
      69      89     112
      45     113      88
      44     112      89
      42      98     102
      43      99     103
      44     100     104
      45     101     105
      50      90     122
      51      91     123
      50     126      90
      51     128      91
      52      92     124
      52     127      92
      53      93     125
      53     129      93
      41     107     106
      62     106     107
      26      94     114
      35      95     115
      54     114      94
      55     115      95
      17      96     116
       8      97     117
      58     116      96
      60     117      97
      25      26     114
      34      35     115
      16      17     116
       7       8     117
      19      20     118
      10      11     119
      28      29     120
      37      38     121
      56      86     138
      57      87     140
      59      88     139
      61      89     141
      54      94     134
      55      95     135
      58      96     136
      60      97     137
      41     142     109
      41     108     142
part       2
Segments2_ref_1
bar2
      10
       1       5
       5       6
       6       7
       7       8
       8       9
       9      10
      10      11
      11      12
      12      13
      13       4
part       3
Segments2_ref_2
bar2
      10
       4      14
      14      15
      15      16
      16      17
      17      18
      18      19
      19      20
      20      21
      21      22
      22       3
part       4
Segments2_ref_3
bar2
      10
       3      23
      23      24
      24      25
      25      26
      26      27
      27      28
      28      29
      29      30
      30      31
      31       2
part       5
Segments2_ref_4
bar2
      10
       2      32
      32      33
      33      34
      34      35
      35      36
      36      37
      37      38
      38      39
      39      40
      40       1
